masses:        e= 9.109e-31; ions in proton mass units:    8.000e+00  1.820e+02 ...
charges:       e=-1.602e-19; charges in elementary units:  2.000e+00  2.000e+00
thermal T (K): e= 1.160e+07 i= 1.160e+07 imp= 1.160e+07. v_0= 1.326e+07 n_0= 1.000e+20 t_0= 5.787e-06 domain= 1.000e+01
CalculateE j0=0. Ec = 0.050991
0 TS dt 0.5 time 0.
  0) species-0: charge density= -1.6023053677413e+01 z-momentum= -5.8883697213094e-20 energy=  2.4017990192310e+04
  0) species-1: charge density=  1.6019692146204e+01 z-momentum= -2.8320357521881e-18 energy=  1.2010735332228e+04
  0) species-2: charge density=  3.2061689192317e-06 z-momentum=  2.4414611711642e-24 energy=  2.4038146590523e-03
  0) species-3: charge density=  4.8092533788475e-06 z-momentum=  2.4414611711642e-24 energy=  2.4038146590523e-03
  0) species-4: charge density=  6.4123378384633e-06 z-momentum=  2.4414611711642e-24 energy=  2.4038146590523e-03
  0) species-5: charge density=  8.0154222980792e-06 z-momentum=  2.4414611711642e-24 energy=  2.4038146590523e-03
  0) species-6: charge density=  9.6185067576950e-06 z-momentum=  2.4414611711642e-24 energy=  2.4038146590523e-03
  0) species-7: charge density=  1.1221591217311e-05 z-momentum=  2.4414611711642e-24 energy=  2.4038146590523e-03
  0) species-8: charge density=  1.2824675676927e-05 z-momentum=  2.4414611711642e-24 energy=  2.4038146590523e-03
  0) species-9: charge density=  1.4427760136543e-05 z-momentum=  2.4414611711642e-24 energy=  2.4038146590523e-03
	  0) Total: charge density= -3.2909954924592e-03, momentum= -2.8908999177118e-18, energy=  3.6028744755055e+04 (m_i[0]/m_e = 14683.8, 80 cells)
testSpitzer:    0) time= 0.0000e+00 n_e=  1.000e+00 E=  0.000e+00 J=  1.783e-08 J_re= -1.482e-09 -8.31 % Te_kev=  9.987e-01 Z_eff=2. E/J to eta ratio=0. (diff=1e+10) constant E normal
[0]FormLandau: 1280 IPs, 80 cells, totDim=160, Nb=16, Nq=16, elemMatSize=25600, dim=2, Tab: Nb=16 Nf=10 Np=16 cdim=2 N=7030 N+hang=9430, shift=0.
  Nonlinear solve converged due to CONVERGED_SNORM_RELATIVE iterations 6
  Nonlinear solve converged due to CONVERGED_SNORM_RELATIVE iterations 4
  Nonlinear solve converged due to CONVERGED_SNORM_RELATIVE iterations 4
      TSAdapt basic arkimex 0:1bee step   0 accepted t=0          + 5.000e-01 dt=5.500e-01  wlte=0.148  wltea=   -1 wlter=   -1
1 TS dt 0.55 time 0.5
  1) species-0: charge density= -1.6023053677413e+01 z-momentum=  2.9830311467306e-19 energy=  2.4017988700178e+04
  1) species-1: charge density=  1.6019692146204e+01 z-momentum= -2.4815968430949e-18 energy=  1.2010736689909e+04
  1) species-2: charge density=  3.2061689192317e-06 z-momentum=  1.8919442960062e-25 energy=  2.4038187113906e-03
  1) species-3: charge density=  4.8092533788475e-06 z-momentum= -2.4869206009020e-24 energy=  2.4038237575443e-03
  1) species-4: charge density=  6.4123378384633e-06 z-momentum= -2.9562509422454e-24 energy=  2.4038307870169e-03
  1) species-5: charge density=  8.0154222980792e-06 z-momentum= -3.6690413382695e-24 energy=  2.4038397663968e-03
  1) species-6: charge density=  9.6185067576950e-06 z-momentum=  3.7644749313516e-24 energy=  2.4038506549003e-03
  1) species-7: charge density=  1.1221591217311e-05 z-momentum= -8.6008748710497e-24 energy=  2.4038634055473e-03
  1) species-8: charge density=  1.2824675676927e-05 z-momentum=  4.5137775346484e-25 energy=  2.4038779662144e-03
  1) species-9: charge density=  1.4427760136543e-05 z-momentum= -1.0630796653288e-23 energy=  2.4038942804506e-03
	  1) Total: charge density= -3.2909954924059e-03, momentum= -2.1833176672591e-18, energy=  3.6028744620886e+04 (m_i[0]/m_e = 14683.8, 80 cells)
testSpitzer:    1) time= 5.0000e-01 n_e=  1.000e+00 E=  0.000e+00 J=  6.630e-08 J_re= -7.366e-10 -1.11 % Te_kev=  9.986e-01 Z_eff=2. E/J to eta ratio=0. (diff=0.) constant E normal
[0] parallel consistency check OK
 ***** [2] ERROR max |x| =  6.412207324247004e+05, my |x| =  6.412207324247002e+05 diff=2.328306e-10
 ***** [6] ERROR max |x| =  6.412207324247004e+05, my |x| =  6.412207324247003e+05 diff=1.164153e-10
 ***** [9] ERROR max |x| =  6.412207324247004e+05, my |x| =  6.412207324247003e+05 diff=1.164153e-10
 ***** [3] ERROR max |x| =  6.412207324247004e+05, my |x| =  6.412207324247003e+05 diff=1.164153e-10
 ***** [7] ERROR max |x| =  6.412207324247004e+05, my |x| =  6.412207324247003e+05 diff=1.164153e-10
0 TS dt 0.5 time 0.
  0) species-0: charge density= -1.6023053677413e+01 z-momentum= -5.8883697213094e-20 energy=  2.4017990192310e+04
  0) species-1: charge density=  1.6019692146204e+01 z-momentum= -2.8320357521881e-18 energy=  1.2010735332228e+04
  0) species-2: charge density=  3.2061689192317e-06 z-momentum=  2.4414611711642e-24 energy=  2.4038146590523e-03
  0) species-3: charge density=  4.8092533788475e-06 z-momentum=  2.4414611711642e-24 energy=  2.4038146590523e-03
  0) species-4: charge density=  6.4123378384633e-06 z-momentum=  2.4414611711642e-24 energy=  2.4038146590523e-03
  0) species-5: charge density=  8.0154222980792e-06 z-momentum=  2.4414611711642e-24 energy=  2.4038146590523e-03
  0) species-6: charge density=  9.6185067576950e-06 z-momentum=  2.4414611711642e-24 energy=  2.4038146590523e-03
  0) species-7: charge density=  1.1221591217311e-05 z-momentum=  2.4414611711642e-24 energy=  2.4038146590523e-03
  0) species-8: charge density=  1.2824675676927e-05 z-momentum=  2.4414611711642e-24 energy=  2.4038146590523e-03
  0) species-9: charge density=  1.4427760136543e-05 z-momentum=  2.4414611711642e-24 energy=  2.4038146590523e-03
	  0) Total: charge density= -3.2909954924592e-03, momentum= -2.8908999177118e-18, energy=  3.6028744755055e+04 (m_i[0]/m_e = 14683.8, 80 cells)
testSpitzer:    0) time= 0.0000e+00 n_e=  1.000e+00 E=  0.000e+00 J=  1.783e-08 J_re= -1.482e-09 -8.31 % Te_kev=  9.987e-01 Z_eff=2. E/J to eta ratio=0. (diff=0.) constant E normal
  Nonlinear solve converged due to CONVERGED_SNORM_RELATIVE iterations 6
  Nonlinear solve converged due to CONVERGED_SNORM_RELATIVE iterations 4
  Nonlinear solve converged due to CONVERGED_SNORM_RELATIVE iterations 4
      TSAdapt basic arkimex 0:1bee step   0 accepted t=0          + 5.000e-01 dt=5.500e-01  wlte=0.148  wltea=   -1 wlter=   -1
1 TS dt 0.55 time 0.5
  Nonlinear solve converged due to CONVERGED_SNORM_RELATIVE iterations 6
  Nonlinear solve converged due to CONVERGED_SNORM_RELATIVE iterations 4
  Nonlinear solve converged due to CONVERGED_SNORM_RELATIVE iterations 5
      TSAdapt basic arkimex 0:1bee step   1 accepted t=0.5        + 5.500e-01 dt=6.050e-01  wlte=0.0728  wltea=   -1 wlter=   -1
2 TS dt 0.605 time 1.05
  Nonlinear solve converged due to CONVERGED_SNORM_RELATIVE iterations 6
  Nonlinear solve converged due to CONVERGED_SNORM_RELATIVE iterations 4
  Nonlinear solve converged due to CONVERGED_SNORM_RELATIVE iterations 4
      TSAdapt basic arkimex 0:1bee step   2 accepted t=1.05       + 6.050e-01 dt=6.655e-01  wlte=0.0511  wltea=   -1 wlter=   -1
3 TS dt 0.6655 time 1.655
  Nonlinear solve converged due to CONVERGED_SNORM_RELATIVE iterations 6
  Nonlinear solve converged due to CONVERGED_SNORM_RELATIVE iterations 4
  Nonlinear solve converged due to CONVERGED_SNORM_RELATIVE iterations 4
      TSAdapt basic arkimex 0:1bee step   3 accepted t=1.655      + 6.655e-01 dt=7.321e-01  wlte=0.0435  wltea=   -1 wlter=   -1
4 TS dt 0.73205 time 2.3205
  Nonlinear solve converged due to CONVERGED_SNORM_RELATIVE iterations 7
  Nonlinear solve converged due to CONVERGED_SNORM_RELATIVE iterations 5
  Nonlinear solve converged due to CONVERGED_SNORM_RELATIVE iterations 5
      TSAdapt basic arkimex 0:1bee step   4 accepted t=2.3205     + 7.321e-01 dt=8.053e-01  wlte=0.0424  wltea=   -1 wlter=   -1
5 TS dt 0.805255 time 3.05255
  Nonlinear solve converged due to CONVERGED_SNORM_RELATIVE iterations 8
  Nonlinear solve converged due to CONVERGED_SNORM_RELATIVE iterations 6
  Nonlinear solve converged due to CONVERGED_SNORM_RELATIVE iterations 6
      TSAdapt basic arkimex 0:1bee step   5 accepted t=3.05255    + 8.053e-01 dt=8.858e-01  wlte=0.0425  wltea=   -1 wlter=   -1
6 TS dt 0.885781 time 3.85781
  Nonlinear solve converged due to CONVERGED_SNORM_RELATIVE iterations 9
  Nonlinear solve converged due to CONVERGED_SNORM_RELATIVE iterations 6
  Nonlinear solve converged due to CONVERGED_SNORM_RELATIVE iterations 6
      TSAdapt basic arkimex 0:1bee step   6 accepted t=3.85781    + 8.858e-01 dt=9.744e-01  wlte=0.0439  wltea=   -1 wlter=   -1
7 TS dt 0.974359 time 4.74359
  Nonlinear solve converged due to CONVERGED_SNORM_RELATIVE iterations 9
  Nonlinear solve converged due to CONVERGED_SNORM_RELATIVE iterations 6
  Nonlinear solve converged due to CONVERGED_SNORM_RELATIVE iterations 6
      TSAdapt basic arkimex 0:1bee step   7 accepted t=4.74359    + 9.744e-01 dt=1.000e+00  wlte=0.0478  wltea=   -1 wlter=   -1
8 TS dt 1. time 5.71794
  Nonlinear solve converged due to CONVERGED_SNORM_RELATIVE iterations 9
  Nonlinear solve converged due to CONVERGED_SNORM_RELATIVE iterations 6
  Nonlinear solve converged due to CONVERGED_SNORM_RELATIVE iterations 6
      TSAdapt basic arkimex 0:1bee step   8 accepted t=5.71794    + 1.000e+00 dt=1.000e+00  wlte=0.0499  wltea=   -1 wlter=   -1
9 TS dt 1. time 6.71794
  Nonlinear solve converged due to CONVERGED_SNORM_RELATIVE iterations 9
  Nonlinear solve converged due to CONVERGED_SNORM_RELATIVE iterations 6
  Nonlinear solve converged due to CONVERGED_SNORM_RELATIVE iterations 6
      TSAdapt basic arkimex 0:1bee step   9 accepted t=6.71794    + 1.000e+00 dt=1.000e+00  wlte=0.0584  wltea=   -1 wlter=   -1
10 TS dt 1. time 7.71794
  Nonlinear solve converged due to CONVERGED_SNORM_RELATIVE iterations 9
  Nonlinear solve converged due to CONVERGED_SNORM_RELATIVE iterations 6
  Nonlinear solve converged due to CONVERGED_SNORM_RELATIVE iterations 6
      TSAdapt basic arkimex 0:1bee step  10 accepted t=7.71794    + 1.000e+00 dt=1.000e+00  wlte=0.128  wltea=   -1 wlter=   -1
11 TS dt 1. time 8.71794
  Nonlinear solve converged due to CONVERGED_SNORM_RELATIVE iterations 9
  Nonlinear solve converged due to CONVERGED_SNORM_RELATIVE iterations 6
  Nonlinear solve converged due to CONVERGED_SNORM_RELATIVE iterations 6
      TSAdapt basic arkimex 0:1bee step  11 accepted t=8.71794    + 1.000e+00 dt=1.000e+00  wlte=0.0417  wltea=   -1 wlter=   -1
12 TS dt 1. time 9.71794
  Nonlinear solve converged due to CONVERGED_SNORM_RELATIVE iterations 8
  Nonlinear solve converged due to CONVERGED_SNORM_RELATIVE iterations 6
  Nonlinear solve converged due to CONVERGED_SNORM_RELATIVE iterations 6
      TSAdapt basic arkimex 0:1bee step  12 accepted t=9.71794    + 1.000e+00 dt=1.000e+00  wlte=0.0264  wltea=   -1 wlter=   -1
13 TS dt 1. time 10.7179
  Nonlinear solve converged due to CONVERGED_SNORM_RELATIVE iterations 8
  Nonlinear solve converged due to CONVERGED_SNORM_RELATIVE iterations 6
  Nonlinear solve converged due to CONVERGED_SNORM_RELATIVE iterations 6
      TSAdapt basic arkimex 0:1bee step  13 accepted t=10.7179    + 1.000e+00 dt=1.000e+00  wlte=0.0213  wltea=   -1 wlter=   -1
14 TS dt 1. time 11.7179
  Nonlinear solve converged due to CONVERGED_SNORM_RELATIVE iterations 8
  Nonlinear solve converged due to CONVERGED_SNORM_RELATIVE iterations 5
  Nonlinear solve converged due to CONVERGED_SNORM_RELATIVE iterations 5
      TSAdapt basic arkimex 0:1bee step  14 accepted t=11.7179    + 1.000e+00 dt=1.000e+00  wlte=0.0192  wltea=   -1 wlter=   -1
15 TS dt 1. time 12.7179
  Nonlinear solve converged due to CONVERGED_SNORM_RELATIVE iterations 7
  Nonlinear solve converged due to CONVERGED_SNORM_RELATIVE iterations 4
  Nonlinear solve converged due to CONVERGED_SNORM_RELATIVE iterations 5
      TSAdapt basic arkimex 0:1bee step  15 accepted t=12.7179    + 1.000e+00 dt=1.000e+00  wlte=0.0186  wltea=   -1 wlter=   -1
16 TS dt 1. time 13.7179
  Nonlinear solve converged due to CONVERGED_SNORM_RELATIVE iterations 6
  Nonlinear solve converged due to CONVERGED_SNORM_RELATIVE iterations 4
  Nonlinear solve converged due to CONVERGED_SNORM_RELATIVE iterations 4
      TSAdapt basic arkimex 0:1bee step  16 accepted t=13.7179    + 1.000e+00 dt=1.000e+00  wlte=0.0187  wltea=   -1 wlter=   -1
17 TS dt 1. time 14.7179
  Nonlinear solve converged due to CONVERGED_SNORM_RELATIVE iterations 6
  Nonlinear solve converged due to CONVERGED_SNORM_RELATIVE iterations 5
  Nonlinear solve converged due to CONVERGED_SNORM_RELATIVE iterations 4
      TSAdapt basic arkimex 0:1bee step  17 accepted t=14.7179    + 1.000e+00 dt=1.000e+00  wlte=0.0213  wltea=   -1 wlter=   -1
18 TS dt 1. time 15.7179
  Nonlinear solve converged due to CONVERGED_SNORM_RELATIVE iterations 7
  Nonlinear solve converged due to CONVERGED_SNORM_RELATIVE iterations 5
  Nonlinear solve converged due to CONVERGED_SNORM_RELATIVE iterations 5
      TSAdapt basic arkimex 0:1bee step  18 accepted t=15.7179    + 1.000e+00 dt=1.000e+00  wlte=0.0192  wltea=   -1 wlter=   -1
19 TS dt 1. time 16.7179
  Nonlinear solve converged due to CONVERGED_SNORM_RELATIVE iterations 7
  Nonlinear solve converged due to CONVERGED_SNORM_RELATIVE iterations 5
  Nonlinear solve converged due to CONVERGED_SNORM_RELATIVE iterations 5
      TSAdapt basic arkimex 0:1bee step  19 accepted t=16.7179    + 1.000e+00 dt=1.000e+00  wlte=0.0149  wltea=   -1 wlter=   -1
20 TS dt 1. time 17.7179
  Nonlinear solve converged due to CONVERGED_SNORM_RELATIVE iterations 7
  Nonlinear solve converged due to CONVERGED_SNORM_RELATIVE iterations 5
  Nonlinear solve converged due to CONVERGED_SNORM_RELATIVE iterations 5
      TSAdapt basic arkimex 0:1bee step  20 accepted t=17.7179    + 1.000e+00 dt=1.000e+00  wlte=0.0122  wltea=   -1 wlter=   -1
21 TS dt 1. time 18.7179
  Nonlinear solve converged due to CONVERGED_SNORM_RELATIVE iterations 8
  Nonlinear solve converged due to CONVERGED_SNORM_RELATIVE iterations 5
  Nonlinear solve converged due to CONVERGED_SNORM_RELATIVE iterations 5
      TSAdapt basic arkimex 0:1bee step  21 accepted t=18.7179    + 1.000e+00 dt=1.000e+00  wlte=0.0104  wltea=   -1 wlter=   -1
22 TS dt 1. time 19.7179
  Nonlinear solve converged due to CONVERGED_SNORM_RELATIVE iterations 8
  Nonlinear solve converged due to CONVERGED_SNORM_RELATIVE iterations 5
  Nonlinear solve converged due to CONVERGED_SNORM_RELATIVE iterations 5
      TSAdapt basic arkimex 0:1bee step  22 accepted t=19.7179    + 1.000e+00 dt=1.000e+00  wlte=0.00917  wltea=   -1 wlter=   -1
23 TS dt 1. time 20.7179
  Nonlinear solve converged due to CONVERGED_SNORM_RELATIVE iterations 8
  Nonlinear solve converged due to CONVERGED_SNORM_RELATIVE iterations 5
  Nonlinear solve converged due to CONVERGED_SNORM_RELATIVE iterations 5
      TSAdapt basic arkimex 0:1bee step  23 accepted t=20.7179    + 1.000e+00 dt=1.000e+00  wlte=0.00817  wltea=   -1 wlter=   -1
24 TS dt 1. time 21.7179
  Nonlinear solve converged due to CONVERGED_SNORM_RELATIVE iterations 8
  Nonlinear solve converged due to CONVERGED_SNORM_RELATIVE iterations 5
  Nonlinear solve converged due to CONVERGED_SNORM_RELATIVE iterations 5
      TSAdapt basic arkimex 0:1bee step  24 accepted t=21.7179    + 1.000e+00 dt=1.000e+00  wlte=0.00724  wltea=   -1 wlter=   -1
25 TS dt 1. time 22.7179
  Nonlinear solve converged due to CONVERGED_SNORM_RELATIVE iterations 8
  Nonlinear solve converged due to CONVERGED_SNORM_RELATIVE iterations 5
  Nonlinear solve converged due to CONVERGED_SNORM_RELATIVE iterations 5
      TSAdapt basic arkimex 0:1bee step  25 accepted t=22.7179    + 1.000e+00 dt=1.000e+00  wlte=0.00649  wltea=   -1 wlter=   -1
26 TS dt 1. time 23.7179
  Nonlinear solve converged due to CONVERGED_SNORM_RELATIVE iterations 8
  Nonlinear solve converged due to CONVERGED_SNORM_RELATIVE iterations 5
  Nonlinear solve converged due to CONVERGED_SNORM_RELATIVE iterations 5
      TSAdapt basic arkimex 0:1bee step  26 accepted t=23.7179    + 1.000e+00 dt=1.000e+00  wlte=0.00588  wltea=   -1 wlter=   -1
27 TS dt 1. time 24.7179
  Nonlinear solve converged due to CONVERGED_SNORM_RELATIVE iterations 8
  Nonlinear solve converged due to CONVERGED_SNORM_RELATIVE iterations 5
  Nonlinear solve converged due to CONVERGED_SNORM_RELATIVE iterations 5
      TSAdapt basic arkimex 0:1bee step  27 accepted t=24.7179    + 1.000e+00 dt=1.000e+00  wlte=0.00536  wltea=   -1 wlter=   -1
28 TS dt 1. time 25.7179
  Nonlinear solve converged due to CONVERGED_SNORM_RELATIVE iterations 8
  Nonlinear solve converged due to CONVERGED_SNORM_RELATIVE iterations 5
  Nonlinear solve converged due to CONVERGED_SNORM_RELATIVE iterations 5
      TSAdapt basic arkimex 0:1bee step  28 accepted t=25.7179    + 1.000e+00 dt=1.000e+00  wlte=0.00488  wltea=   -1 wlter=   -1
29 TS dt 1. time 26.7179
  Nonlinear solve converged due to CONVERGED_SNORM_RELATIVE iterations 8
  Nonlinear solve converged due to CONVERGED_SNORM_RELATIVE iterations 5
  Nonlinear solve converged due to CONVERGED_SNORM_RELATIVE iterations 5
      TSAdapt basic arkimex 0:1bee step  29 accepted t=26.7179    + 1.000e+00 dt=1.000e+00  wlte=0.00443  wltea=   -1 wlter=   -1
30 TS dt 1. time 27.7179
  Nonlinear solve converged due to CONVERGED_SNORM_RELATIVE iterations 8
  Nonlinear solve converged due to CONVERGED_SNORM_RELATIVE iterations 5
  Nonlinear solve converged due to CONVERGED_SNORM_RELATIVE iterations 5
      TSAdapt basic arkimex 0:1bee step  30 accepted t=27.7179    + 1.000e+00 dt=1.000e+00  wlte=0.00407  wltea=   -1 wlter=   -1
31 TS dt 1. time 28.7179
  Nonlinear solve converged due to CONVERGED_SNORM_RELATIVE iterations 8
  Nonlinear solve converged due to CONVERGED_SNORM_RELATIVE iterations 5
  Nonlinear solve converged due to CONVERGED_SNORM_RELATIVE iterations 5
      TSAdapt basic arkimex 0:1bee step  31 accepted t=28.7179    + 1.000e+00 dt=1.000e+00  wlte=0.00377  wltea=   -1 wlter=   -1
32 TS dt 1. time 29.7179
  Nonlinear solve converged due to CONVERGED_SNORM_RELATIVE iterations 8
  Nonlinear solve converged due to CONVERGED_SNORM_RELATIVE iterations 5
  Nonlinear solve converged due to CONVERGED_SNORM_RELATIVE iterations 5
      TSAdapt basic arkimex 0:1bee step  32 accepted t=29.7179    + 1.000e+00 dt=1.000e+00  wlte=0.00353  wltea=   -1 wlter=   -1
33 TS dt 1. time 30.7179
  Nonlinear solve converged due to CONVERGED_SNORM_RELATIVE iterations 8
  Nonlinear solve converged due to CONVERGED_SNORM_RELATIVE iterations 5
  Nonlinear solve converged due to CONVERGED_SNORM_RELATIVE iterations 5
      TSAdapt basic arkimex 0:1bee step  33 accepted t=30.7179    + 1.000e+00 dt=1.000e+00  wlte=0.00333  wltea=   -1 wlter=   -1
34 TS dt 1. time 31.7179
  Nonlinear solve converged due to CONVERGED_SNORM_RELATIVE iterations 8
  Nonlinear solve converged due to CONVERGED_SNORM_RELATIVE iterations 5
  Nonlinear solve converged due to CONVERGED_SNORM_RELATIVE iterations 5
      TSAdapt basic arkimex 0:1bee step  34 accepted t=31.7179    + 1.000e+00 dt=1.000e+00  wlte=0.00318  wltea=   -1 wlter=   -1
35 TS dt 1. time 32.7179
  Nonlinear solve converged due to CONVERGED_SNORM_RELATIVE iterations 8
  Nonlinear solve converged due to CONVERGED_SNORM_RELATIVE iterations 5
  Nonlinear solve converged due to CONVERGED_SNORM_RELATIVE iterations 5
      TSAdapt basic arkimex 0:1bee step  35 accepted t=32.7179    + 1.000e+00 dt=1.000e+00  wlte=0.00307  wltea=   -1 wlter=   -1
36 TS dt 1. time 33.7179
  Nonlinear solve converged due to CONVERGED_SNORM_RELATIVE iterations 8
  Nonlinear solve converged due to CONVERGED_SNORM_RELATIVE iterations 5
  Nonlinear solve converged due to CONVERGED_SNORM_RELATIVE iterations 5
      TSAdapt basic arkimex 0:1bee step  36 accepted t=33.7179    + 1.000e+00 dt=1.000e+00  wlte=0.003  wltea=   -1 wlter=   -1
37 TS dt 1. time 34.7179
  Nonlinear solve converged due to CONVERGED_SNORM_RELATIVE iterations 8
  Nonlinear solve converged due to CONVERGED_SNORM_RELATIVE iterations 5
  Nonlinear solve converged due to CONVERGED_SNORM_RELATIVE iterations 5
      TSAdapt basic arkimex 0:1bee step  37 accepted t=34.7179    + 1.000e+00 dt=1.000e+00  wlte=0.00288  wltea=   -1 wlter=   -1
38 TS dt 1. time 35.7179
  Nonlinear solve converged due to CONVERGED_SNORM_RELATIVE iterations 8
  Nonlinear solve converged due to CONVERGED_SNORM_RELATIVE iterations 5
  Nonlinear solve converged due to CONVERGED_SNORM_RELATIVE iterations 5
      TSAdapt basic arkimex 0:1bee step  38 accepted t=35.7179    + 1.000e+00 dt=1.000e+00  wlte=0.00274  wltea=   -1 wlter=   -1
39 TS dt 1. time 36.7179
  Nonlinear solve converged due to CONVERGED_SNORM_RELATIVE iterations 8
  Nonlinear solve converged due to CONVERGED_SNORM_RELATIVE iterations 4
  Nonlinear solve converged due to CONVERGED_SNORM_RELATIVE iterations 4
      TSAdapt basic arkimex 0:1bee step  39 accepted t=36.7179    + 1.000e+00 dt=1.000e+00  wlte=0.00266  wltea=   -1 wlter=   -1
40 TS dt 1. time 37.7179
  Nonlinear solve converged due to CONVERGED_SNORM_RELATIVE iterations 8
  Nonlinear solve converged due to CONVERGED_SNORM_RELATIVE iterations 4
  Nonlinear solve converged due to CONVERGED_SNORM_RELATIVE iterations 4
      TSAdapt basic arkimex 0:1bee step  40 accepted t=37.7179    + 1.000e+00 dt=1.000e+00  wlte=0.00261  wltea=   -1 wlter=   -1
41 TS dt 1. time 38.7179
  Nonlinear solve converged due to CONVERGED_SNORM_RELATIVE iterations 8
  Nonlinear solve converged due to CONVERGED_SNORM_RELATIVE iterations 4
  Nonlinear solve converged due to CONVERGED_SNORM_RELATIVE iterations 4
      TSAdapt basic arkimex 0:1bee step  41 accepted t=38.7179    + 1.000e+00 dt=1.000e+00  wlte=0.00262  wltea=   -1 wlter=   -1
42 TS dt 1. time 39.7179
  Nonlinear solve converged due to CONVERGED_SNORM_RELATIVE iterations 8
  Nonlinear solve converged due to CONVERGED_SNORM_RELATIVE iterations 4
  Nonlinear solve converged due to CONVERGED_SNORM_RELATIVE iterations 4
      TSAdapt basic arkimex 0:1bee step  42 accepted t=39.7179    + 1.000e+00 dt=1.000e+00  wlte=0.0027  wltea=   -1 wlter=   -1
43 TS dt 1. time 40.7179
  Nonlinear solve converged due to CONVERGED_SNORM_RELATIVE iterations 8
  Nonlinear solve converged due to CONVERGED_SNORM_RELATIVE iterations 4
  Nonlinear solve converged due to CONVERGED_SNORM_RELATIVE iterations 4
      TSAdapt basic arkimex 0:1bee step  43 accepted t=40.7179    + 1.000e+00 dt=1.000e+00  wlte=0.00288  wltea=   -1 wlter=   -1
44 TS dt 1. time 41.7179
  Nonlinear solve converged due to CONVERGED_SNORM_RELATIVE iterations 8
  Nonlinear solve converged due to CONVERGED_SNORM_RELATIVE iterations 4
  Nonlinear solve converged due to CONVERGED_SNORM_RELATIVE iterations 4
      TSAdapt basic arkimex 0:1bee step  44 accepted t=41.7179    + 1.000e+00 dt=1.000e+00  wlte=0.00325  wltea=   -1 wlter=   -1
45 TS dt 1. time 42.7179
  Nonlinear solve converged due to CONVERGED_SNORM_RELATIVE iterations 8
  Nonlinear solve converged due to CONVERGED_SNORM_RELATIVE iterations 4
  Nonlinear solve converged due to CONVERGED_SNORM_RELATIVE iterations 4
      TSAdapt basic arkimex 0:1bee step  45 accepted t=42.7179    + 1.000e+00 dt=1.000e+00  wlte=0.00405  wltea=   -1 wlter=   -1
46 TS dt 1. time 43.7179
  Nonlinear solve converged due to CONVERGED_SNORM_RELATIVE iterations 7
  Nonlinear solve converged due to CONVERGED_SNORM_RELATIVE iterations 4
  Nonlinear solve converged due to CONVERGED_SNORM_RELATIVE iterations 4
      TSAdapt basic arkimex 0:1bee step  46 accepted t=43.7179    + 1.000e+00 dt=1.000e+00  wlte=0.00511  wltea=   -1 wlter=   -1
47 TS dt 1. time 44.7179
  Nonlinear solve converged due to CONVERGED_SNORM_RELATIVE iterations 8
  Nonlinear solve converged due to CONVERGED_SNORM_RELATIVE iterations 4
  Nonlinear solve converged due to CONVERGED_SNORM_RELATIVE iterations 4
      TSAdapt basic arkimex 0:1bee step  47 accepted t=44.7179    + 1.000e+00 dt=1.000e+00  wlte=0.00317  wltea=   -1 wlter=   -1
48 TS dt 1. time 45.7179
  Nonlinear solve converged due to CONVERGED_SNORM_RELATIVE iterations 8
  Nonlinear solve converged due to CONVERGED_SNORM_RELATIVE iterations 4
  Nonlinear solve converged due to CONVERGED_SNORM_RELATIVE iterations 4
      TSAdapt basic arkimex 0:1bee step  48 accepted t=45.7179    + 1.000e+00 dt=1.000e+00  wlte=0.00246  wltea=   -1 wlter=   -1
49 TS dt 1. time 46.7179
  Nonlinear solve converged due to CONVERGED_SNORM_RELATIVE iterations 8
  Nonlinear solve converged due to CONVERGED_SNORM_RELATIVE iterations 4
  Nonlinear solve converged due to CONVERGED_SNORM_RELATIVE iterations 4
      TSAdapt basic arkimex 0:1bee step  49 accepted t=46.7179    + 1.000e+00 dt=1.000e+00  wlte=0.00221  wltea=   -1 wlter=   -1
50 TS dt 1. time 47.7179
  Nonlinear solve converged due to CONVERGED_SNORM_RELATIVE iterations 8
  Nonlinear solve converged due to CONVERGED_SNORM_RELATIVE iterations 4
  Nonlinear solve converged due to CONVERGED_SNORM_RELATIVE iterations 4
      TSAdapt basic arkimex 0:1bee step  50 accepted t=47.7179    + 1.000e+00 dt=1.000e+00  wlte=0.00228  wltea=   -1 wlter=   -1
51 TS dt 1. time 48.7179
  Nonlinear solve converged due to CONVERGED_SNORM_RELATIVE iterations 8
  Nonlinear solve converged due to CONVERGED_SNORM_RELATIVE iterations 4
  Nonlinear solve converged due to CONVERGED_SNORM_RELATIVE iterations 4
      TSAdapt basic arkimex 0:1bee step  51 accepted t=48.7179    + 1.000e+00 dt=1.000e+00  wlte=0.00202  wltea=   -1 wlter=   -1
52 TS dt 1. time 49.7179
  Nonlinear solve converged due to CONVERGED_SNORM_RELATIVE iterations 8
  Nonlinear solve converged due to CONVERGED_SNORM_RELATIVE iterations 4
  Nonlinear solve converged due to CONVERGED_SNORM_RELATIVE iterations 4
      TSAdapt basic arkimex 0:1bee step  52 accepted t=49.7179    + 1.000e+00 dt=1.000e+00  wlte=0.00155  wltea=   -1 wlter=   -1
53 TS dt 1. time 50.7179
  Nonlinear solve converged due to CONVERGED_SNORM_RELATIVE iterations 8
  Nonlinear solve converged due to CONVERGED_SNORM_RELATIVE iterations 4
  Nonlinear solve converged due to CONVERGED_SNORM_RELATIVE iterations 4
      TSAdapt basic arkimex 0:1bee step  53 accepted t=50.7179    + 1.000e+00 dt=1.000e+00  wlte=0.0013  wltea=   -1 wlter=   -1
54 TS dt 1. time 51.7179
  Nonlinear solve converged due to CONVERGED_SNORM_RELATIVE iterations 8
  Nonlinear solve converged due to CONVERGED_SNORM_RELATIVE iterations 4
  Nonlinear solve converged due to CONVERGED_SNORM_RELATIVE iterations 4
      TSAdapt basic arkimex 0:1bee step  54 accepted t=51.7179    + 1.000e+00 dt=1.000e+00  wlte=0.00116  wltea=   -1 wlter=   -1
55 TS dt 1. time 52.7179
  Nonlinear solve converged due to CONVERGED_SNORM_RELATIVE iterations 8
  Nonlinear solve converged due to CONVERGED_SNORM_RELATIVE iterations 4
  Nonlinear solve converged due to CONVERGED_SNORM_RELATIVE iterations 4
      TSAdapt basic arkimex 0:1bee step  55 accepted t=52.7179    + 1.000e+00 dt=1.000e+00  wlte=0.00108  wltea=   -1 wlter=   -1
56 TS dt 1. time 53.7179
  Nonlinear solve converged due to CONVERGED_SNORM_RELATIVE iterations 8
  Nonlinear solve converged due to CONVERGED_SNORM_RELATIVE iterations 4
  Nonlinear solve converged due to CONVERGED_SNORM_RELATIVE iterations 4
      TSAdapt basic arkimex 0:1bee step  56 accepted t=53.7179    + 1.000e+00 dt=1.000e+00  wlte=0.00102  wltea=   -1 wlter=   -1
57 TS dt 1. time 54.7179
  Nonlinear solve converged due to CONVERGED_SNORM_RELATIVE iterations 8
  Nonlinear solve converged due to CONVERGED_SNORM_RELATIVE iterations 4
  Nonlinear solve converged due to CONVERGED_SNORM_RELATIVE iterations 4
      TSAdapt basic arkimex 0:1bee step  57 accepted t=54.7179    + 1.000e+00 dt=1.000e+00  wlte=0.000986  wltea=   -1 wlter=   -1
58 TS dt 1. time 55.7179
  Nonlinear solve converged due to CONVERGED_SNORM_RELATIVE iterations 8
  Nonlinear solve converged due to CONVERGED_SNORM_RELATIVE iterations 4
  Nonlinear solve converged due to CONVERGED_SNORM_RELATIVE iterations 4
      TSAdapt basic arkimex 0:1bee step  58 accepted t=55.7179    + 1.000e+00 dt=1.000e+00  wlte=0.000964  wltea=   -1 wlter=   -1
59 TS dt 1. time 56.7179
  Nonlinear solve converged due to CONVERGED_SNORM_RELATIVE iterations 8
  Nonlinear solve converged due to CONVERGED_SNORM_RELATIVE iterations 4
  Nonlinear solve converged due to CONVERGED_SNORM_RELATIVE iterations 4
      TSAdapt basic arkimex 0:1bee step  59 accepted t=56.7179    + 1.000e+00 dt=1.000e+00  wlte=0.00095  wltea=   -1 wlter=   -1
60 TS dt 1. time 57.7179
  Nonlinear solve converged due to CONVERGED_SNORM_RELATIVE iterations 8
  Nonlinear solve converged due to CONVERGED_SNORM_RELATIVE iterations 4
  Nonlinear solve converged due to CONVERGED_SNORM_RELATIVE iterations 4
      TSAdapt basic arkimex 0:1bee step  60 accepted t=57.7179    + 1.000e+00 dt=1.000e+00  wlte=0.000941  wltea=   -1 wlter=   -1
61 TS dt 1. time 58.7179
  Nonlinear solve converged due to CONVERGED_SNORM_RELATIVE iterations 8
  Nonlinear solve converged due to CONVERGED_SNORM_RELATIVE iterations 4
  Nonlinear solve converged due to CONVERGED_SNORM_RELATIVE iterations 4
      TSAdapt basic arkimex 0:1bee step  61 accepted t=58.7179    + 1.000e+00 dt=1.000e+00  wlte=0.000937  wltea=   -1 wlter=   -1
62 TS dt 1. time 59.7179
  Nonlinear solve converged due to CONVERGED_SNORM_RELATIVE iterations 8
  Nonlinear solve converged due to CONVERGED_SNORM_RELATIVE iterations 4
  Nonlinear solve converged due to CONVERGED_SNORM_RELATIVE iterations 4
      TSAdapt basic arkimex 0:1bee step  62 accepted t=59.7179    + 1.000e+00 dt=1.000e+00  wlte=0.000935  wltea=   -1 wlter=   -1
63 TS dt 1. time 60.7179
  Nonlinear solve converged due to CONVERGED_SNORM_RELATIVE iterations 8
  Nonlinear solve converged due to CONVERGED_SNORM_RELATIVE iterations 4
  Nonlinear solve converged due to CONVERGED_SNORM_RELATIVE iterations 4
      TSAdapt basic arkimex 0:1bee step  63 accepted t=60.7179    + 1.000e+00 dt=1.000e+00  wlte=0.000936  wltea=   -1 wlter=   -1
64 TS dt 1. time 61.7179
  Nonlinear solve converged due to CONVERGED_SNORM_RELATIVE iterations 8
  Nonlinear solve converged due to CONVERGED_SNORM_RELATIVE iterations 4
  Nonlinear solve converged due to CONVERGED_SNORM_RELATIVE iterations 4
      TSAdapt basic arkimex 0:1bee step  64 accepted t=61.7179    + 1.000e+00 dt=1.000e+00  wlte=0.000939  wltea=   -1 wlter=   -1
65 TS dt 1. time 62.7179
  Nonlinear solve converged due to CONVERGED_SNORM_RELATIVE iterations 8
  Nonlinear solve converged due to CONVERGED_SNORM_RELATIVE iterations 4
  Nonlinear solve converged due to CONVERGED_SNORM_RELATIVE iterations 4
      TSAdapt basic arkimex 0:1bee step  65 accepted t=62.7179    + 1.000e+00 dt=1.000e+00  wlte=0.000944  wltea=   -1 wlter=   -1
66 TS dt 1. time 63.7179
  Nonlinear solve converged due to CONVERGED_SNORM_RELATIVE iterations 8
  Nonlinear solve converged due to CONVERGED_SNORM_RELATIVE iterations 4
  Nonlinear solve converged due to CONVERGED_SNORM_RELATIVE iterations 4
      TSAdapt basic arkimex 0:1bee step  66 accepted t=63.7179    + 1.000e+00 dt=1.000e+00  wlte=0.00095  wltea=   -1 wlter=   -1
67 TS dt 1. time 64.7179
  Nonlinear solve converged due to CONVERGED_SNORM_RELATIVE iterations 8
  Nonlinear solve converged due to CONVERGED_SNORM_RELATIVE iterations 4
  Nonlinear solve converged due to CONVERGED_SNORM_RELATIVE iterations 4
      TSAdapt basic arkimex 0:1bee step  67 accepted t=64.7179    + 1.000e+00 dt=1.000e+00  wlte=0.000957  wltea=   -1 wlter=   -1
68 TS dt 1. time 65.7179
  Nonlinear solve converged due to CONVERGED_SNORM_RELATIVE iterations 8
  Nonlinear solve converged due to CONVERGED_SNORM_RELATIVE iterations 4
  Nonlinear solve converged due to CONVERGED_SNORM_RELATIVE iterations 4
      TSAdapt basic arkimex 0:1bee step  68 accepted t=65.7179    + 1.000e+00 dt=1.000e+00  wlte=0.000965  wltea=   -1 wlter=   -1
69 TS dt 1. time 66.7179
  Nonlinear solve converged due to CONVERGED_SNORM_RELATIVE iterations 8
  Nonlinear solve converged due to CONVERGED_SNORM_RELATIVE iterations 4
  Nonlinear solve converged due to CONVERGED_SNORM_RELATIVE iterations 4
      TSAdapt basic arkimex 0:1bee step  69 accepted t=66.7179    + 1.000e+00 dt=1.000e+00  wlte=0.000976  wltea=   -1 wlter=   -1
70 TS dt 1. time 67.7179
  Nonlinear solve converged due to CONVERGED_SNORM_RELATIVE iterations 8
  Nonlinear solve converged due to CONVERGED_SNORM_RELATIVE iterations 4
  Nonlinear solve converged due to CONVERGED_SNORM_RELATIVE iterations 4
      TSAdapt basic arkimex 0:1bee step  70 accepted t=67.7179    + 1.000e+00 dt=1.000e+00  wlte=0.000987  wltea=   -1 wlter=   -1
71 TS dt 1. time 68.7179
  Nonlinear solve converged due to CONVERGED_SNORM_RELATIVE iterations 8
  Nonlinear solve converged due to CONVERGED_SNORM_RELATIVE iterations 4
  Nonlinear solve converged due to CONVERGED_SNORM_RELATIVE iterations 4
      TSAdapt basic arkimex 0:1bee step  71 accepted t=68.7179    + 1.000e+00 dt=1.000e+00  wlte=0.001  wltea=   -1 wlter=   -1
72 TS dt 1. time 69.7179
  Nonlinear solve converged due to CONVERGED_SNORM_RELATIVE iterations 8
  Nonlinear solve converged due to CONVERGED_SNORM_RELATIVE iterations 5
  Nonlinear solve converged due to CONVERGED_SNORM_RELATIVE iterations 4
      TSAdapt basic arkimex 0:1bee step  72 accepted t=69.7179    + 1.000e+00 dt=1.000e+00  wlte=0.00101  wltea=   -1 wlter=   -1
73 TS dt 1. time 70.7179
  Nonlinear solve converged due to CONVERGED_SNORM_RELATIVE iterations 8
  Nonlinear solve converged due to CONVERGED_SNORM_RELATIVE iterations 5
  Nonlinear solve converged due to CONVERGED_SNORM_RELATIVE iterations 5
      TSAdapt basic arkimex 0:1bee step  73 accepted t=70.7179    + 1.000e+00 dt=1.000e+00  wlte=0.00103  wltea=   -1 wlter=   -1
74 TS dt 1. time 71.7179
  Nonlinear solve converged due to CONVERGED_SNORM_RELATIVE iterations 8
  Nonlinear solve converged due to CONVERGED_SNORM_RELATIVE iterations 5
  Nonlinear solve converged due to CONVERGED_SNORM_RELATIVE iterations 5
      TSAdapt basic arkimex 0:1bee step  74 accepted t=71.7179    + 1.000e+00 dt=1.000e+00  wlte=0.00105  wltea=   -1 wlter=   -1
75 TS dt 1. time 72.7179
  Nonlinear solve converged due to CONVERGED_SNORM_RELATIVE iterations 8
  Nonlinear solve converged due to CONVERGED_SNORM_RELATIVE iterations 5
  Nonlinear solve converged due to CONVERGED_SNORM_RELATIVE iterations 5
      TSAdapt basic arkimex 0:1bee step  75 accepted t=72.7179    + 1.000e+00 dt=1.000e+00  wlte=0.00107  wltea=   -1 wlter=   -1
76 TS dt 1. time 73.7179
  Nonlinear solve converged due to CONVERGED_SNORM_RELATIVE iterations 8
  Nonlinear solve converged due to CONVERGED_SNORM_RELATIVE iterations 5
  Nonlinear solve converged due to CONVERGED_SNORM_RELATIVE iterations 5
      TSAdapt basic arkimex 0:1bee step  76 accepted t=73.7179    + 1.000e+00 dt=1.000e+00  wlte=0.0011  wltea=   -1 wlter=   -1
77 TS dt 1. time 74.7179
  Nonlinear solve converged due to CONVERGED_SNORM_RELATIVE iterations 8
  Nonlinear solve converged due to CONVERGED_SNORM_RELATIVE iterations 5
  Nonlinear solve converged due to CONVERGED_SNORM_RELATIVE iterations 5
      TSAdapt basic arkimex 0:1bee step  77 accepted t=74.7179    + 1.000e+00 dt=1.000e+00  wlte=0.00114  wltea=   -1 wlter=   -1
78 TS dt 1. time 75.7179
  Nonlinear solve converged due to CONVERGED_SNORM_RELATIVE iterations 8
  Nonlinear solve converged due to CONVERGED_SNORM_RELATIVE iterations 5
  Nonlinear solve converged due to CONVERGED_SNORM_RELATIVE iterations 5
      TSAdapt basic arkimex 0:1bee step  78 accepted t=75.7179    + 1.000e+00 dt=1.000e+00  wlte=0.00121  wltea=   -1 wlter=   -1
79 TS dt 1. time 76.7179
  Nonlinear solve converged due to CONVERGED_SNORM_RELATIVE iterations 8
  Nonlinear solve converged due to CONVERGED_SNORM_RELATIVE iterations 5
  Nonlinear solve converged due to CONVERGED_SNORM_RELATIVE iterations 5
      TSAdapt basic arkimex 0:1bee step  79 accepted t=76.7179    + 1.000e+00 dt=1.000e+00  wlte=0.00131  wltea=   -1 wlter=   -1
80 TS dt 1. time 77.7179
  Nonlinear solve converged due to CONVERGED_SNORM_RELATIVE iterations 8
  Nonlinear solve converged due to CONVERGED_SNORM_RELATIVE iterations 5
  Nonlinear solve converged due to CONVERGED_SNORM_RELATIVE iterations 5
      TSAdapt basic arkimex 0:1bee step  80 accepted t=77.7179    + 1.000e+00 dt=1.000e+00  wlte=0.00148  wltea=   -1 wlter=   -1
81 TS dt 1. time 78.7179
  Nonlinear solve converged due to CONVERGED_SNORM_RELATIVE iterations 8
  Nonlinear solve converged due to CONVERGED_SNORM_RELATIVE iterations 5
  Nonlinear solve converged due to CONVERGED_SNORM_RELATIVE iterations 5
      TSAdapt basic arkimex 0:1bee step  81 accepted t=78.7179    + 1.000e+00 dt=1.000e+00  wlte=0.00181  wltea=   -1 wlter=   -1
82 TS dt 1. time 79.7179
  Nonlinear solve converged due to CONVERGED_SNORM_RELATIVE iterations 8
  Nonlinear solve converged due to CONVERGED_SNORM_RELATIVE iterations 5
  Nonlinear solve converged due to CONVERGED_SNORM_RELATIVE iterations 5
      TSAdapt basic arkimex 0:1bee step  82 accepted t=79.7179    + 1.000e+00 dt=1.000e+00  wlte=0.0018  wltea=   -1 wlter=   -1
83 TS dt 1. time 80.7179
  Nonlinear solve converged due to CONVERGED_SNORM_RELATIVE iterations 8
  Nonlinear solve converged due to CONVERGED_SNORM_RELATIVE iterations 5
  Nonlinear solve converged due to CONVERGED_SNORM_RELATIVE iterations 5
      TSAdapt basic arkimex 0:1bee step  83 accepted t=80.7179    + 1.000e+00 dt=1.000e+00  wlte=0.00144  wltea=   -1 wlter=   -1
84 TS dt 1. time 81.7179
  Nonlinear solve converged due to CONVERGED_SNORM_RELATIVE iterations 8
  Nonlinear solve converged due to CONVERGED_SNORM_RELATIVE iterations 5
  Nonlinear solve converged due to CONVERGED_SNORM_RELATIVE iterations 5
      TSAdapt basic arkimex 0:1bee step  84 accepted t=81.7179    + 1.000e+00 dt=1.000e+00  wlte=0.00127  wltea=   -1 wlter=   -1
85 TS dt 1. time 82.7179
  Nonlinear solve converged due to CONVERGED_SNORM_RELATIVE iterations 8
  Nonlinear solve converged due to CONVERGED_SNORM_RELATIVE iterations 5
  Nonlinear solve converged due to CONVERGED_SNORM_RELATIVE iterations 5
      TSAdapt basic arkimex 0:1bee step  85 accepted t=82.7179    + 1.000e+00 dt=1.000e+00  wlte=0.00122  wltea=   -1 wlter=   -1
86 TS dt 1. time 83.7179
  Nonlinear solve converged due to CONVERGED_SNORM_RELATIVE iterations 8
  Nonlinear solve converged due to CONVERGED_SNORM_RELATIVE iterations 5
  Nonlinear solve converged due to CONVERGED_SNORM_RELATIVE iterations 5
      TSAdapt basic arkimex 0:1bee step  86 accepted t=83.7179    + 1.000e+00 dt=1.000e+00  wlte=0.00128  wltea=   -1 wlter=   -1
87 TS dt 1. time 84.7179
  Nonlinear solve converged due to CONVERGED_SNORM_RELATIVE iterations 8
  Nonlinear solve converged due to CONVERGED_SNORM_RELATIVE iterations 5
  Nonlinear solve converged due to CONVERGED_SNORM_RELATIVE iterations 5
      TSAdapt basic arkimex 0:1bee step  87 accepted t=84.7179    + 1.000e+00 dt=1.000e+00  wlte=0.00129  wltea=   -1 wlter=   -1
88 TS dt 1. time 85.7179
  Nonlinear solve converged due to CONVERGED_SNORM_RELATIVE iterations 8
  Nonlinear solve converged due to CONVERGED_SNORM_RELATIVE iterations 5
  Nonlinear solve converged due to CONVERGED_SNORM_RELATIVE iterations 5
      TSAdapt basic arkimex 0:1bee step  88 accepted t=85.7179    + 1.000e+00 dt=1.000e+00  wlte=0.00114  wltea=   -1 wlter=   -1
89 TS dt 1. time 86.7179
  Nonlinear solve converged due to CONVERGED_SNORM_RELATIVE iterations 8
  Nonlinear solve converged due to CONVERGED_SNORM_RELATIVE iterations 5
  Nonlinear solve converged due to CONVERGED_SNORM_RELATIVE iterations 5
      TSAdapt basic arkimex 0:1bee step  89 accepted t=86.7179    + 1.000e+00 dt=1.000e+00  wlte=0.00104  wltea=   -1 wlter=   -1
90 TS dt 1. time 87.7179
  Nonlinear solve converged due to CONVERGED_SNORM_RELATIVE iterations 8
  Nonlinear solve converged due to CONVERGED_SNORM_RELATIVE iterations 5
  Nonlinear solve converged due to CONVERGED_SNORM_RELATIVE iterations 5
      TSAdapt basic arkimex 0:1bee step  90 accepted t=87.7179    + 1.000e+00 dt=1.000e+00  wlte=0.00098  wltea=   -1 wlter=   -1
91 TS dt 1. time 88.7179
  Nonlinear solve converged due to CONVERGED_SNORM_RELATIVE iterations 8
  Nonlinear solve converged due to CONVERGED_SNORM_RELATIVE iterations 5
  Nonlinear solve converged due to CONVERGED_SNORM_RELATIVE iterations 5
      TSAdapt basic arkimex 0:1bee step  91 accepted t=88.7179    + 1.000e+00 dt=1.000e+00  wlte=0.000933  wltea=   -1 wlter=   -1
92 TS dt 1. time 89.7179
  Nonlinear solve converged due to CONVERGED_SNORM_RELATIVE iterations 8
  Nonlinear solve converged due to CONVERGED_SNORM_RELATIVE iterations 5
  Nonlinear solve converged due to CONVERGED_SNORM_RELATIVE iterations 5
      TSAdapt basic arkimex 0:1bee step  92 accepted t=89.7179    + 1.000e+00 dt=1.000e+00  wlte=0.000896  wltea=   -1 wlter=   -1
93 TS dt 1. time 90.7179
  Nonlinear solve converged due to CONVERGED_SNORM_RELATIVE iterations 8
  Nonlinear solve converged due to CONVERGED_SNORM_RELATIVE iterations 5
  Nonlinear solve converged due to CONVERGED_SNORM_RELATIVE iterations 5
      TSAdapt basic arkimex 0:1bee step  93 accepted t=90.7179    + 1.000e+00 dt=1.000e+00  wlte=0.000864  wltea=   -1 wlter=   -1
94 TS dt 1. time 91.7179
  Nonlinear solve converged due to CONVERGED_SNORM_RELATIVE iterations 8
  Nonlinear solve converged due to CONVERGED_SNORM_RELATIVE iterations 5
  Nonlinear solve converged due to CONVERGED_SNORM_RELATIVE iterations 5
      TSAdapt basic arkimex 0:1bee step  94 accepted t=91.7179    + 1.000e+00 dt=1.000e+00  wlte=0.000836  wltea=   -1 wlter=   -1
95 TS dt 1. time 92.7179
  Nonlinear solve converged due to CONVERGED_SNORM_RELATIVE iterations 8
  Nonlinear solve converged due to CONVERGED_SNORM_RELATIVE iterations 5
  Nonlinear solve converged due to CONVERGED_SNORM_RELATIVE iterations 5
      TSAdapt basic arkimex 0:1bee step  95 accepted t=92.7179    + 1.000e+00 dt=1.000e+00  wlte=0.000812  wltea=   -1 wlter=   -1
96 TS dt 1. time 93.7179
  Nonlinear solve converged due to CONVERGED_SNORM_RELATIVE iterations 8
  Nonlinear solve converged due to CONVERGED_SNORM_RELATIVE iterations 5
  Nonlinear solve converged due to CONVERGED_SNORM_RELATIVE iterations 5
      TSAdapt basic arkimex 0:1bee step  96 accepted t=93.7179    + 1.000e+00 dt=1.000e+00  wlte=0.00079  wltea=   -1 wlter=   -1
97 TS dt 1. time 94.7179
  Nonlinear solve converged due to CONVERGED_SNORM_RELATIVE iterations 8
  Nonlinear solve converged due to CONVERGED_SNORM_RELATIVE iterations 5
  Nonlinear solve converged due to CONVERGED_SNORM_RELATIVE iterations 5
      TSAdapt basic arkimex 0:1bee step  97 accepted t=94.7179    + 1.000e+00 dt=1.000e+00  wlte=0.000769  wltea=   -1 wlter=   -1
98 TS dt 1. time 95.7179
  Nonlinear solve converged due to CONVERGED_SNORM_RELATIVE iterations 8
  Nonlinear solve converged due to CONVERGED_SNORM_RELATIVE iterations 5
  Nonlinear solve converged due to CONVERGED_SNORM_RELATIVE iterations 5
      TSAdapt basic arkimex 0:1bee step  98 accepted t=95.7179    + 1.000e+00 dt=1.000e+00  wlte=0.00075  wltea=   -1 wlter=   -1
99 TS dt 1. time 96.7179
  Nonlinear solve converged due to CONVERGED_SNORM_RELATIVE iterations 8
  Nonlinear solve converged due to CONVERGED_SNORM_RELATIVE iterations 5
  Nonlinear solve converged due to CONVERGED_SNORM_RELATIVE iterations 5
      TSAdapt basic arkimex 0:1bee step  99 accepted t=96.7179    + 1.000e+00 dt=1.000e+00  wlte=0.000732  wltea=   -1 wlter=   -1
100 TS dt 1. time 97.7179
100) species-0: charge density= -1.6023053677414e+01 z-momentum=  1.0897694949169e-19 energy=  2.4016809214716e+04
100) species-1: charge density=  1.6019692146204e+01 z-momentum=  4.9965597712317e-18 energy=  1.2011909333904e+04
100) species-2: charge density=  3.2061689192317e-06 z-momentum= -2.5383934535234e-23 energy=  2.4032208001537e-03
100) species-3: charge density=  4.8092533788475e-06 z-momentum= -2.4339789340976e-23 energy=  2.4022722444599e-03
100) species-4: charge density=  6.4123378384633e-06 z-momentum= -6.0791869870137e-23 energy=  2.3999997559521e-03
100) species-5: charge density=  8.0154222980792e-06 z-momentum= -8.7782852022557e-23 energy=  2.3944893590854e-03
100) species-6: charge density=  9.6185067576950e-06 z-momentum= -9.8984550546094e-23 energy=  2.3837781964847e-03
100) species-7: charge density=  1.1221591217311e-05 z-momentum= -1.0488537566251e-22 energy=  2.3669965046342e-03
100) species-8: charge density=  1.2824675676927e-05 z-momentum= -1.1130544792028e-22 energy=  2.3485316657975e-03
100) species-9: charge density=  1.4427760136543e-05 z-momentum= -1.4024702923581e-22 energy=  2.3545442949200e-03
	100) Total: charge density= -3.2909954934860e-03, momentum=  5.1048829998743e-18, energy=  3.6028737602453e+04 (m_i[0]/m_e = 14683.8, 80 cells)
testSpitzer:  100) time= 9.7718e+01 n_e=  1.000e+00 E=  0.000e+00 J=  4.378e-08 J_re=  3.417e-08 78.1 % Te_kev=  1.020e+00 Z_eff=2. E/J to eta ratio=0. (diff=0.) constant E normal
 ***** [3] ERROR max |x| =  6.467471676530256e+05, my |x| =  6.467471676530234e+05 diff=2.211891e-09
 ***** [0] ERROR max |x| =  6.467471676530256e+05, my |x| =  6.467471676530242e+05 diff=1.396984e-09
 ***** [2] ERROR max |x| =  6.467471676530256e+05, my |x| =  6.467471676530244e+05 diff=1.164153e-09
 ***** [7] ERROR max |x| =  6.467471676530256e+05, my |x| =  6.467471676530234e+05 diff=2.211891e-09
 ***** [6] ERROR max |x| =  6.467471676530256e+05, my |x| =  6.467471676530238e+05 diff=1.746230e-09
 ***** [1] ERROR max |x| =  6.467471676530256e+05, my |x| =  6.467471676530230e+05 diff=2.561137e-09
 ***** [5] ERROR max |x| =  6.467471676530256e+05, my |x| =  6.467471676530244e+05 diff=1.164153e-09
 ***** [8] ERROR max |x| =  6.467471676530256e+05, my |x| =  6.467471676530235e+05 diff=2.095476e-09
 ***** [4] ERROR max |x| =  6.467471676530256e+05, my |x| =  6.467471676530242e+05 diff=1.396984e-09
 ***** [11] ERROR max |x| =  6.467471676530256e+05, my |x| =  6.467471676530238e+05 diff=1.746230e-09
 ***** [10] ERROR max |x| =  6.467471676530256e+05, my |x| =  6.467471676530242e+05 diff=1.396984e-09
************************************************************************************************************************
***             WIDEN YOUR WINDOW TO 120 CHARACTERS.  Use 'enscript -r -fCourier9' to print this document            ***
************************************************************************************************************************

---------------------------------------------- PETSc Performance Summary: ----------------------------------------------

../ex2 on a arch-summit-opt-gnu-kokkos-notpl-cuda named h50n16 with 12 processors, by adams Sun Mar 28 15:13:50 2021
Using Petsc Development GIT revision: v3.14.5-873-g4c5b1c0  GIT Date: 2021-03-26 10:18:15 -0700

                         Max       Max/Min     Avg       Total
Time (sec):           2.672e+01     1.000   2.671e+01
Objects:              1.325e+05     1.000   1.325e+05
Flop:                 2.565e+12     1.000   2.565e+12  3.078e+13
Flop/sec:             9.603e+10     1.000   9.602e+10  1.152e+12
MPI Messages:         0.000e+00     0.000   0.000e+00  0.000e+00
MPI Message Lengths:  0.000e+00     0.000   0.000e+00  0.000e+00
MPI Reductions:       2.400e+01     1.000

Flop counting convention: 1 flop = 1 real number operation of type (multiply/divide/add/subtract)
                            e.g., VecAXPY() for real vectors of length N --> 2N flop
                            and VecAXPY() for complex vectors of length N --> 8N flop

Summary of Stages:   ----- Time ------  ----- Flop ------  --- Messages ---  -- Message Lengths --  -- Reductions --
                        Avg     %Total     Avg     %Total    Count   %Total     Avg         %Total    Count   %Total
 0:      Main Stage: 5.0252e-01   1.9%  1.3975e+08   0.0%  0.000e+00   0.0%  0.000e+00        0.0%  2.000e+00   8.3%
 1:          Warmup: 4.6734e+00  17.5%  2.5012e+11   0.8%  0.000e+00   0.0%  0.000e+00        0.0%  1.000e+00   4.2%
 2:           Solve: 2.1539e+01  80.6%  3.0532e+13  99.2%  0.000e+00   0.0%  0.000e+00        0.0%  1.000e+00   4.2%

------------------------------------------------------------------------------------------------------------------------
See the 'Profiling' chapter of the users' manual for details on interpreting output.
Phase summary info:
   Count: number of times phase was executed
   Time and Flop: Max - maximum over all processors
                  Ratio - ratio of maximum to minimum over all processors
   Mess: number of messages sent
   AvgLen: average message length (bytes)
   Reduct: number of global reductions
   Global: entire computation
   Stage: stages of a computation. Set stages with PetscLogStagePush() and PetscLogStagePop().
      %T - percent time in this phase         %F - percent flop in this phase
      %M - percent messages in this phase     %L - percent message lengths in this phase
      %R - percent reductions in this phase
   Total Mflop/s: 10e-6 * (sum of flop over all processors)/(max time over all processors)
   GPU Mflop/s: 10e-6 * (sum of flop on GPU over all processors)/(max GPU time over all processors)
   CpuToGpu Count: total number of CPU to GPU copies per processor
   CpuToGpu Size (Mbytes): 10e-6 * (total size of CPU to GPU copies per processor)
   GpuToCpu Count: total number of GPU to CPU copies per processor
   GpuToCpu Size (Mbytes): 10e-6 * (total size of GPU to CPU copies per processor)
   GPU %F: percent flops on GPU in this event
------------------------------------------------------------------------------------------------------------------------
Event                Count      Time (sec)     Flop                              --- Global ---  --- Stage ----  Total   GPU    - CpuToGpu -   - GpuToCpu - GPU
                   Max Ratio  Max     Ratio   Max  Ratio  Mess   AvgLen  Reduct  %T %F %M %L %R  %T %F %M %L %R Mflop/s Mflop/s Count   Size   Count   Size  %F
---------------------------------------------------------------------------------------------------------------------------------------------------------------

--- Event Stage 0: Main Stage

BuildTwoSided         57 1.0 1.1810e-04 1.1 0.00e+00 0.0 0.0e+00 0.0e+00 0.0e+00  0  0  0  0  0   0  0  0  0  0     0       0      0 0.00e+00    0 0.00e+00  0
DMConvert             56 1.0 4.6661e-03 1.0 0.00e+00 0.0 0.0e+00 0.0e+00 0.0e+00  0  0  0  0  0   1  0  0  0  0     0       0      0 0.00e+00    0 0.00e+00  0
DMCreateMat            2 1.0 4.2966e-02 1.0 0.00e+00 0.0 0.0e+00 0.0e+00 0.0e+00  0  0  0  0  0   8  0  0  0  0     0       0      0 0.00e+00    0 0.00e+00  0
DMPlexInterp         145 1.0 3.3218e-03 1.1 0.00e+00 0.0 0.0e+00 0.0e+00 0.0e+00  0  0  0  0  0   1  0  0  0  0     0       0      0 0.00e+00    0 0.00e+00  0
DMPlexStratify       227 1.0 6.9109e-03 1.0 0.00e+00 0.0 0.0e+00 0.0e+00 0.0e+00  0  0  0  0  0   1  0  0  0  0     0       0      0 0.00e+00    0 0.00e+00  0
DMPlexSymmetrize     227 1.0 3.8242e-04 1.0 0.00e+00 0.0 0.0e+00 0.0e+00 0.0e+00  0  0  0  0  0   0  0  0  0  0     0       0      0 0.00e+00    0 0.00e+00  0
DMPlexPrealloc         2 1.0 4.2262e-02 1.0 0.00e+00 0.0 0.0e+00 0.0e+00 0.0e+00  0  0  0  0  0   8  0  0  0  0     0       0      0 0.00e+00    0 0.00e+00  0
DMPlexJacobianFE       1 1.0 1.9337e-01 1.0 3.67e+06 1.0 0.0e+00 0.0e+00 0.0e+00  1  0  0  0  0  38 32  0  0  0   228       0      0 0.00e+00    0 0.00e+00  0
SFSetGraph            75 1.0 1.1188e-04 1.1 0.00e+00 0.0 0.0e+00 0.0e+00 0.0e+00  0  0  0  0  0   0  0  0  0  0     0       0      0 0.00e+00    0 0.00e+00  0
SFSetUp               57 1.0 5.4703e-04 1.2 0.00e+00 0.0 0.0e+00 0.0e+00 0.0e+00  0  0  0  0  0   0  0  0  0  0     0       0      0 0.00e+00    0 0.00e+00  0
SFBcastBegin         120 1.0 4.4325e-04 1.1 0.00e+00 0.0 0.0e+00 0.0e+00 0.0e+00  0  0  0  0  0   0  0  0  0  0     0       0      0 0.00e+00    0 0.00e+00  0
SFBcastEnd           120 1.0 5.5617e-05 1.1 0.00e+00 0.0 0.0e+00 0.0e+00 0.0e+00  0  0  0  0  0   0  0  0  0  0     0       0      0 0.00e+00    0 0.00e+00  0
SFReduceBegin        117 1.0 3.7162e-04 1.1 0.00e+00 0.0 0.0e+00 0.0e+00 0.0e+00  0  0  0  0  0   0  0  0  0  0     0       0      0 0.00e+00    0 0.00e+00  0
SFReduceEnd          117 1.0 5.1703e-05 1.0 0.00e+00 0.0 0.0e+00 0.0e+00 0.0e+00  0  0  0  0  0   0  0  0  0  0     0       0      0 0.00e+00    0 0.00e+00  0
SFCreateEmbed          4 1.0 6.3840e-05 1.1 0.00e+00 0.0 0.0e+00 0.0e+00 0.0e+00  0  0  0  0  0   0  0  0  0  0     0       0      0 0.00e+00    0 0.00e+00  0
SFSectionSF            4 1.0 3.1645e-05 1.2 0.00e+00 0.0 0.0e+00 0.0e+00 0.0e+00  0  0  0  0  0   0  0  0  0  0     0       0      0 0.00e+00    0 0.00e+00  0
SFRemoteOff            4 1.0 2.1583e-04 1.1 0.00e+00 0.0 0.0e+00 0.0e+00 0.0e+00  0  0  0  0  0   0  0  0  0  0     0       0      0 0.00e+00    0 0.00e+00  0
SFPack               237 1.0 2.7882e-05 1.0 0.00e+00 0.0 0.0e+00 0.0e+00 0.0e+00  0  0  0  0  0   0  0  0  0  0     0       0      0 0.00e+00    0 0.00e+00  0
SFUnpack             237 1.0 2.4484e-05 1.0 0.00e+00 0.0 0.0e+00 0.0e+00 0.0e+00  0  0  0  0  0   0  0  0  0  0     0       0      0 0.00e+00    0 0.00e+00  0
MatMult            23490 1.0 3.7303e-03 1.0 1.63e+05 1.0 0.0e+00 0.0e+00 0.0e+00  0  0  0  0  0   1  1  0  0  0   524       0      0 0.00e+00    0 0.00e+00  0
MatLUFactor          140 1.0 1.0385e-03 1.0 3.82e+05 1.0 0.0e+00 0.0e+00 0.0e+00  0  0  0  0  0   0  3  0  0  0  4418       0      0 0.00e+00    0 0.00e+00  0
MatCopy              560 1.0 7.6609e-04 1.0 0.00e+00 0.0 0.0e+00 0.0e+00 0.0e+00  0  0  0  0  0   0  0  0  0  0     0       0      0 0.00e+00    0 0.00e+00  0
MatConvert           280 1.0 4.5033e-03 1.0 0.00e+00 0.0 0.0e+00 0.0e+00 0.0e+00  0  0  0  0  0   1  0  0  0  0     0       0      0 0.00e+00    0 0.00e+00  0
MatAssemblyBegin    1654 1.0 1.7841e-04 1.0 0.00e+00 0.0 0.0e+00 0.0e+00 0.0e+00  0  0  0  0  0   0  0  0  0  0     0       0      0 0.00e+00    0 0.00e+00  0
MatAssemblyEnd      1654 1.0 2.1905e-03 1.0 0.00e+00 0.0 0.0e+00 0.0e+00 0.0e+00  0  0  0  0  0   0  0  0  0  0     0       0      0 0.00e+00    0 0.00e+00  0
MatGetRowIJ           15 1.0 2.7010e-06 1.3 0.00e+00 0.0 0.0e+00 0.0e+00 0.0e+00  0  0  0  0  0   0  0  0  0  0     0       0      0 0.00e+00    0 0.00e+00  0
MatZeroEntries         1 1.0 1.3936e-03 2.1 0.00e+00 0.0 0.0e+00 0.0e+00 0.0e+00  0  0  0  0  0   0  0  0  0  0     0       0      0 0.00e+00    0 0.00e+00  0
MatMatSolve          560 1.0 6.3221e-03 1.0 4.44e+06 1.0 0.0e+00 0.0e+00 0.0e+00  0  0  0  0  0   1 38  0  0  0  8436       0      0 0.00e+00    0 0.00e+00  0
VecSet               324 1.0 5.9031e-04 1.0 0.00e+00 0.0 0.0e+00 0.0e+00 0.0e+00  0  0  0  0  0   0  0  0  0  0     0       0      0 0.00e+00    0 0.00e+00  0
DualSpaceSetUp        25 1.0 3.3166e-02 1.1 9.20e+02 1.0 0.0e+00 0.0e+00 0.0e+00  0  0  0  0  0   6  0  0  0  0     0       0      0 0.00e+00    0 0.00e+00  0
FESetUp               49 1.0 9.7718e-04 1.0 0.00e+00 0.0 0.0e+00 0.0e+00 0.0e+00  0  0  0  0  0   0  0  0  0  0     0       0      0 0.00e+00    0 0.00e+00  0

--- Event Stage 1: Warmup

BuildTwoSided          1 1.0 4.9410e-06 2.2 0.00e+00 0.0 0.0e+00 0.0e+00 0.0e+00  0  0  0  0  0   0  0  0  0  0     0       0      0 0.00e+00    0 0.00e+00  0
DMConvert             33 1.0 2.2392e-03 1.1 0.00e+00 0.0 0.0e+00 0.0e+00 0.0e+00  0  0  0  0  0   0  0  0  0  0     0       0      0 0.00e+00    0 0.00e+00  0
DMPlexInterp          28 1.0 5.5206e-04 1.1 0.00e+00 0.0 0.0e+00 0.0e+00 0.0e+00  0  0  0  0  0   0  0  0  0  0     0       0      0 0.00e+00    0 0.00e+00  0
DMPlexStratify        32 1.0 8.0650e-04 1.1 0.00e+00 0.0 0.0e+00 0.0e+00 0.0e+00  0  0  0  0  0   0  0  0  0  0     0       0      0 0.00e+00    0 0.00e+00  0
DMPlexSymmetrize      32 1.0 2.3880e-05 1.1 0.00e+00 0.0 0.0e+00 0.0e+00 0.0e+00  0  0  0  0  0   0  0  0  0  0     0       0      0 0.00e+00    0 0.00e+00  0
DMPlexIntegralFEM      70 1.0 3.7373e-01 1.1 2.23e+07 1.0 0.0e+00 0.0e+00 0.0e+00  1  0  0  0  0   8  0  0  0  0   717       0      3 1.41e-01   33 1.86e+00  0
SFSetUp                1 1.0 4.6739e-04 1.1 0.00e+00 0.0 0.0e+00 0.0e+00 0.0e+00  0  0  0  0  0   0  0  0  0  0     0       0      0 0.00e+00    0 0.00e+00  0
SFBcastBegin          99 1.0 2.7082e-03 1.4 0.00e+00 0.0 0.0e+00 0.0e+00 0.0e+00  0  0  0  0  0   0  0  0  0  0     0       0      3 1.41e-01   33 1.86e+00  0
SFBcastEnd            99 1.0 6.4267e-05 1.2 0.00e+00 0.0 0.0e+00 0.0e+00 0.0e+00  0  0  0  0  0   0  0  0  0  0     0       0      0 0.00e+00    0 0.00e+00  0
SFPack               134 1.0 2.2921e-05 1.1 0.00e+00 0.0 0.0e+00 0.0e+00 0.0e+00  0  0  0  0  0   0  0  0  0  0     0       0      0 0.00e+00    0 0.00e+00  0
SFUnpack             134 1.0 1.0368e-03 3.4 0.00e+00 0.0 0.0e+00 0.0e+00 0.0e+00  0  0  0  0  0   0  0  0  0  0     0       0      1 2.81e-02    0 0.00e+00  0
Landau Operator       31 1.0 4.1827e+00 1.0 2.07e+10 1.0 0.0e+00 0.0e+00 0.0e+00 15  1  0  0  0  88100  0  0  0 59524   21844700      0 0.00e+00    0 0.00e+00 100
Landau Jacobian       17 1.0 4.1690e+00 1.0 3.16e+09 1.0 0.0e+00 0.0e+00 0.0e+00 15  0  0  0  0  88 15  0  0  0  9095   3573742      0 0.00e+00    0 0.00e+00 100
Landau Mass           14 1.0 1.4093e-02 1.1 1.76e+10 1.0 0.0e+00 0.0e+00 0.0e+00  0  1  0  0  0   0 84  0  0  0 14975853   160977339      0 0.00e+00    0 0.00e+00 100
 Preamble             29 1.0 1.2287e-02 1.2 4.87e+05 1.0 0.0e+00 0.0e+00 0.0e+00  0  0  0  0  0   0  0  0  0  0   476       0      0 0.00e+00    0 0.00e+00  0
 static IP Data        1 1.0 2.2775e-03 1.8 1.02e+04 1.0 0.0e+00 0.0e+00 0.0e+00  0  0  0  0  0   0  0  0  0  0    54       0      0 0.00e+00    0 0.00e+00  0
 dynamic IP-Jac       30 1.0 8.6520e-03 1.1 2.83e+05 1.0 0.0e+00 0.0e+00 0.0e+00  0  0  0  0  0   0  0  0  0  0   392    2404      0 0.00e+00    0 0.00e+00 100
 Kernel-init          29 1.0 1.6225e-04 1.2 0.00e+00 0.0 0.0e+00 0.0e+00 0.0e+00  0  0  0  0  0   0  0  0  0  0     0       0      0 0.00e+00    0 0.00e+00  0
 Jac-f-df (GPU)       15 1.0 6.1647e-04 1.0 1.84e+06 1.0 0.0e+00 0.0e+00 0.0e+00  0  0  0  0  0   0  0  0  0  0 35879   36146      0 0.00e+00    0 0.00e+00 100
 Kernel (GPU)         29 1.0 2.7610e-02 1.4 2.07e+10 1.0 0.0e+00 0.0e+00 0.0e+00  0  1  0  0  0   1 99  0  0  0 9011168   29275251      0 0.00e+00    0 0.00e+00 100
 Copy to CPU           1 1.0 2.9575e-03 2.5 0.00e+00 0.0 0.0e+00 0.0e+00 0.0e+00  0  0  0  0  0   0  0  0  0  0     0       0      0 0.00e+00    0 0.00e+00  0
 Jac-assemble          1 1.0 5.2222e-02 1.1 2.24e+05 1.0 0.0e+00 0.0e+00 0.0e+00  0  0  0  0  0   1  0  0  0  0    51       0      0 0.00e+00    0 0.00e+00  0
 Jac asmbl setup       1 1.0 4.0711e+00 1.0 0.00e+00 0.0 0.0e+00 0.0e+00 0.0e+00 15  0  0  0  0  85  0  0  0  0     0       0      0 0.00e+00    0 0.00e+00  0
MatMult              130 1.0 6.7985e-03 1.1 1.22e+07 1.0 0.0e+00 0.0e+00 0.0e+00  0  0  0  0  0   0  0  0  0  0 21591       0      0 0.00e+00    0 0.00e+00 86
MatMultAdd            17 1.0 1.7045e-03 1.1 5.80e+06 1.0 0.0e+00 0.0e+00 0.0e+00  0  0  0  0  0   0  0  0  0  0 40805       0      0 0.00e+00    0 0.00e+00 100
MatSolve              14 1.0 6.8638e-03 1.0 6.43e+06 1.0 0.0e+00 0.0e+00 0.0e+00  0  0  0  0  0   0  0  0  0  0 11249       0      0 0.00e+00    0 0.00e+00  0
MatLUFactorSym         1 1.0 7.1778e-03 1.0 0.00e+00 0.0 0.0e+00 0.0e+00 0.0e+00  0  0  0  0  0   0  0  0  0  0     0       0      0 0.00e+00    0 0.00e+00  0
MatLUFactorNum        14 1.0 8.7538e-02 1.1 6.00e+07 1.0 0.0e+00 0.0e+00 0.0e+00  0  0  0  0  0   2  0  0  0  0  8221       0      0 0.00e+00    0 0.00e+00  0
MatAssemblyBegin      73 1.0 1.1609e-05 1.2 0.00e+00 0.0 0.0e+00 0.0e+00 0.0e+00  0  0  0  0  0   0  0  0  0  0     0       0      0 0.00e+00    0 0.00e+00  0
MatAssemblyEnd        73 1.0 1.0946e-03 1.1 0.00e+00 0.0 0.0e+00 0.0e+00 0.0e+00  0  0  0  0  0   0  0  0  0  0     0       0      0 0.00e+00    0 0.00e+00  0
MatGetRowIJ            1 1.0 4.0636e-04 3.1 0.00e+00 0.0 0.0e+00 0.0e+00 0.0e+00  0  0  0  0  0   0  0  0  0  0     0       0      0 0.00e+00    0 0.00e+00  0
MatGetOrdering         1 1.0 4.8838e-03 1.1 0.00e+00 0.0 0.0e+00 0.0e+00 0.0e+00  0  0  0  0  0   0  0  0  0  0     0       0      0 0.00e+00    0 0.00e+00  0
MatZeroEntries        15 1.0 2.9743e-03 1.7 0.00e+00 0.0 0.0e+00 0.0e+00 0.0e+00  0  0  0  0  0   0  0  0  0  0     0       0      0 0.00e+00    0 0.00e+00  0
VecDot                14 1.0 8.4895e-04 1.5 1.97e+05 1.0 0.0e+00 0.0e+00 0.0e+00  0  0  0  0  0   0  0  0  0  0  2782    2804      0 0.00e+00    0 0.00e+00 100
VecNorm               47 1.0 2.4268e-03 1.1 7.33e+05 1.0 0.0e+00 0.0e+00 0.0e+00  0  0  0  0  0   0  0  0  0  0  3623    3648      0 0.00e+00    0 0.00e+00 100
VecScale              14 1.0 2.6490e-06 1.8 0.00e+00 0.0 0.0e+00 0.0e+00 0.0e+00  0  0  0  0  0   0  0  0  0  0     0       0      0 0.00e+00    0 0.00e+00  0
VecCopy               36 1.0 1.3667e-03 1.1 0.00e+00 0.0 0.0e+00 0.0e+00 0.0e+00  0  0  0  0  0   0  0  0  0  0     0       0      0 0.00e+00    0 0.00e+00  0
VecSet               228 1.0 2.9350e-03 1.7 0.00e+00 0.0 0.0e+00 0.0e+00 0.0e+00  0  0  0  0  0   0  0  0  0  0     0       0      0 0.00e+00    0 0.00e+00  0
VecAXPBYCZ            20 1.0 9.7546e-04 1.5 7.03e+05 1.0 0.0e+00 0.0e+00 0.0e+00  0  0  0  0  0   0  0  0  0  0  8648    8722      0 0.00e+00    0 0.00e+00 100
VecWAXPY              14 1.0 3.4603e-04 1.2 1.97e+05 1.0 0.0e+00 0.0e+00 0.0e+00  0  0  0  0  0   0  0  0  0  0  6826    6995      0 0.00e+00    0 0.00e+00 100
VecMAXPY               6 1.0 2.6060e-04 1.2 2.25e+05 1.0 0.0e+00 0.0e+00 0.0e+00  0  0  0  0  0   0  0  0  0  0 10359       0      0 0.00e+00    0 0.00e+00 100
VecReduceArith        28 1.0 2.0287e-03 1.4 3.94e+05 1.0 0.0e+00 0.0e+00 0.0e+00  0  0  0  0  0   0  0  0  0  0  2329    2340      0 0.00e+00    0 0.00e+00 100
VecReduceComm         14 1.0 6.5920e-06 1.8 0.00e+00 0.0 0.0e+00 0.0e+00 0.0e+00  0  0  0  0  0   0  0  0  0  0     0       0      0 0.00e+00    0 0.00e+00  0
DualSpaceSetUp         4 1.0 6.3610e-03 1.1 9.60e+01 1.0 0.0e+00 0.0e+00 0.0e+00  0  0  0  0  0   0  0  0  0  0     0       0      0 0.00e+00    0 0.00e+00  0
FESetUp                4 1.0 1.0308e-04 1.5 0.00e+00 0.0 0.0e+00 0.0e+00 0.0e+00  0  0  0  0  0   0  0  0  0  0     0       0      0 0.00e+00    0 0.00e+00  0
TSStep                 1 1.0 4.2918e+00 1.0 2.08e+10 1.0 0.0e+00 0.0e+00 0.0e+00 16  1  0  0  0  90100  0  0  0 58216   14024575      0 0.00e+00    0 0.00e+00 100
TSFunctionEval        20 1.0 4.1692e+00 1.0 3.16e+09 1.0 0.0e+00 0.0e+00 0.0e+00 15  0  0  0  0  88 15  0  0  0  9095   3538763      0 0.00e+00    0 0.00e+00 100
TSJacobianEval        14 1.0 1.4107e-02 1.1 1.76e+10 1.0 0.0e+00 0.0e+00 0.0e+00  0  1  0  0  0   0 84  0  0  0 14960968   160977339      0 0.00e+00    0 0.00e+00 100
KSPSetUp              14 1.0 5.0760e-06 1.7 0.00e+00 0.0 0.0e+00 0.0e+00 0.0e+00  0  0  0  0  0   0  0  0  0  0     0       0      0 0.00e+00    0 0.00e+00  0
KSPSolve              14 1.0 8.2862e-03 1.1 6.43e+06 1.0 0.0e+00 0.0e+00 0.0e+00  0  0  0  0  0   0  0  0  0  0  9318       0      0 0.00e+00    0 0.00e+00  0
SNESSolve              3 1.0 4.2904e+00 1.0 2.08e+10 1.0 0.0e+00 0.0e+00 0.0e+00 16  1  0  0  0  90100  0  0  0 58234   14333714      0 0.00e+00    0 0.00e+00 100
SNESSetUp              1 1.0 4.8669e-04 7.0 0.00e+00 0.0 0.0e+00 0.0e+00 0.0e+00  0  0  0  0  0   0  0  0  0  0     0       0      0 0.00e+00    0 0.00e+00  0
SNESFunctionEval      17 1.0 4.1698e+00 1.0 3.16e+09 1.0 0.0e+00 0.0e+00 0.0e+00 15  0  0  0  0  88 15  0  0  0  9095   3379704      0 0.00e+00    0 0.00e+00 100
SNESJacobianEval      14 1.0 1.4126e-02 1.1 1.76e+10 1.0 0.0e+00 0.0e+00 0.0e+00  0  1  0  0  0   0 84  0  0  0 14940852   160977339      0 0.00e+00    0 0.00e+00 100
SNESLineSearch        14 1.0 3.9365e-02 1.1 2.95e+09 1.0 0.0e+00 0.0e+00 0.0e+00  0  0  0  0  0   1 14  0  0  0 900564   4653792      0 0.00e+00    0 0.00e+00 100
PCSetUp               14 1.0 9.8909e-02 1.1 6.00e+07 1.0 0.0e+00 0.0e+00 0.0e+00  0  0  0  0  0   2  0  0  0  0  7276       0      0 0.00e+00    0 0.00e+00  0
PCApply               14 1.0 6.8777e-03 1.0 6.43e+06 1.0 0.0e+00 0.0e+00 0.0e+00  0  0  0  0  0   0  0  0  0  0 11226       0      0 0.00e+00    0 0.00e+00  0

--- Event Stage 2: Solve

DMConvert           3560 1.0 2.2636e-01 1.1 0.00e+00 0.0 0.0e+00 0.0e+00 0.0e+00  1  0  0  0  0   1  0  0  0  0     0       0      0 0.00e+00    0 0.00e+00  0
DMPlexInterp         721 1.0 1.4495e-02 1.1 0.00e+00 0.0 0.0e+00 0.0e+00 0.0e+00  0  0  0  0  0   0  0  0  0  0     0       0      0 0.00e+00    0 0.00e+00  0
DMPlexStratify       824 1.0 2.1131e-02 1.1 0.00e+00 0.0 0.0e+00 0.0e+00 0.0e+00  0  0  0  0  0   0  0  0  0  0     0       0      0 0.00e+00    0 0.00e+00  0
DMPlexSymmetrize     824 1.0 6.3636e-04 1.0 0.00e+00 0.0 0.0e+00 0.0e+00 0.0e+00  0  0  0  0  0   0  0  0  0  0     0       0      0 0.00e+00    0 0.00e+00  0
DMPlexIntegralFEM     565 1.0 3.2309e+00 1.1 1.80e+08 1.0 0.0e+00 0.0e+00 0.0e+00 11  0  0  0  0  14  0  0  0  0   669       0      2 1.12e-01  429 2.41e+01  0
SFBcastBegin        4022 1.0 6.9936e-02 1.2 0.00e+00 0.0 0.0e+00 0.0e+00 0.0e+00  0  0  0  0  0   0  0  0  0  0     0       0      2 1.12e-01  429 2.41e+01  0
SFBcastEnd          4022 1.0 2.6141e-03 1.1 0.00e+00 0.0 0.0e+00 0.0e+00 0.0e+00  0  0  0  0  0   0  0  0  0  0     0       0      0 0.00e+00    0 0.00e+00  0
SFPack              4453 1.0 7.8041e-04 1.3 0.00e+00 0.0 0.0e+00 0.0e+00 0.0e+00  0  0  0  0  0   0  0  0  0  0     0       0      0 0.00e+00    0 0.00e+00  0
SFUnpack            4453 1.0 1.2585e-02 4.0 0.00e+00 0.0 0.0e+00 0.0e+00 0.0e+00  0  0  0  0  0   0  0  0  0  0     0       0      0 0.00e+00    0 0.00e+00  0
Landau Operator     3756 1.0 5.7511e+00 1.0 2.54e+12 1.0 0.0e+00 0.0e+00 0.0e+00 21 99  0  0  0  26100  0  0  0 5289604   69301084      0 0.00e+00    0 0.00e+00 100
Landau Jacobian     2028 1.0 4.1351e+00 1.1 3.64e+11 1.0 0.0e+00 0.0e+00 0.0e+00 15 14  0  0  0  19 14  0  0  0 1057066   12308638      0 0.00e+00    0 0.00e+00 100
Landau Mass         1728 1.0 1.6754e+00 1.1 2.17e+12 1.0 0.0e+00 0.0e+00 0.0e+00  6 85  0  0  0   8 85  0  0  0 15548364   267830400      0 0.00e+00    0 0.00e+00 100
 Preamble           3457 1.0 1.1772e+00 1.1 5.81e+07 1.0 0.0e+00 0.0e+00 0.0e+00  4  0  0  0  0   5  0  0  0  0   592       0      0 0.00e+00    0 0.00e+00  0
 dynamic IP-Jac     3458 1.0 1.0256e+00 1.1 3.26e+07 1.0 0.0e+00 0.0e+00 0.0e+00  4  0  0  0  0   4  0  0  0  0   382    1988      0 0.00e+00    0 0.00e+00 100
 Kernel-init        3457 1.0 5.4683e-03 1.1 0.00e+00 0.0 0.0e+00 0.0e+00 0.0e+00  0  0  0  0  0   0  0  0  0  0     0       0      0 0.00e+00    0 0.00e+00  0
 Jac-f-df (GPU)     1729 1.0 7.0418e-02 1.1 2.12e+08 1.0 0.0e+00 0.0e+00 0.0e+00  0  0  0  0  0   0  0  0  0  0 36206   36411      0 0.00e+00    0 0.00e+00 100
 Kernel (GPU)       3457 1.0 2.4001e+00 1.0 2.53e+12 1.0 0.0e+00 0.0e+00 0.0e+00  9 99  0  0  0  11100  0  0  0 12666307   497206989      0 0.00e+00    0 0.00e+00 100
MatMult             7778 1.0 4.6430e-01 1.1 1.35e+09 1.0 0.0e+00 0.0e+00 0.0e+00  2  0  0  0  0   2  0  0  0  0 34843       0      0 0.00e+00    0 0.00e+00 95
MatMultAdd          2028 1.0 7.5247e-02 1.1 6.91e+08 1.0 0.0e+00 0.0e+00 0.0e+00  0  0  0  0  0   0  0  0  0  0 110265       0      0 0.00e+00    0 0.00e+00 100
MatSolve            1728 1.0 8.3896e-01 1.0 7.94e+08 1.0 0.0e+00 0.0e+00 0.0e+00  3  0  0  0  0   4  0  0  0  0 11359       0      0 0.00e+00    0 0.00e+00  0
MatLUFactorNum      1728 1.0 1.0872e+01 1.1 7.40e+09 1.0 0.0e+00 0.0e+00 0.0e+00 38  0  0  0  0  47  0  0  0  0  8170       0      0 0.00e+00    0 0.00e+00  0
MatAssemblyBegin    4590 1.0 7.3730e-04 1.1 0.00e+00 0.0 0.0e+00 0.0e+00 0.0e+00  0  0  0  0  0   0  0  0  0  0     0       0      0 0.00e+00    0 0.00e+00  0
MatAssemblyEnd      4590 1.0 2.7933e-03 1.2 0.00e+00 0.0 0.0e+00 0.0e+00 0.0e+00  0  0  0  0  0   0  0  0  0  0     0       0      0 0.00e+00    0 0.00e+00  0
MatZeroEntries      1729 1.0 1.4606e-01 1.4 0.00e+00 0.0 0.0e+00 0.0e+00 0.0e+00  0  0  0  0  0   1  0  0  0  0     0       0      0 0.00e+00    0 0.00e+00  0
VecDot              1728 1.0 8.0736e-02 1.2 2.43e+07 1.0 0.0e+00 0.0e+00 0.0e+00  0  0  0  0  0   0  0  0  0  0  3611    3646      0 0.00e+00    0 0.00e+00 100
VecNorm             5486 1.0 3.1550e-01 1.3 8.54e+07 1.0 0.0e+00 0.0e+00 0.0e+00  1  0  0  0  0   1  0  0  0  0  3249    3269      0 0.00e+00    0 0.00e+00 100
VecScale            1728 1.0 2.6664e-04 1.3 0.00e+00 0.0 0.0e+00 0.0e+00 0.0e+00  0  0  0  0  0   0  0  0  0  0     0       0      0 0.00e+00    0 0.00e+00  0
VecCopy             4156 1.0 1.6763e-01 1.2 0.00e+00 0.0 0.0e+00 0.0e+00 0.0e+00  1  0  0  0  0   1  0  0  0  0     0       0      0 0.00e+00    0 0.00e+00  0
VecSet             13891 1.0 4.1765e-01 2.0 0.00e+00 0.0 0.0e+00 0.0e+00 0.0e+00  1  0  0  0  0   1  0  0  0  0     0       0      0 0.00e+00    0 0.00e+00  0
VecAXPBYCZ          2328 1.0 6.1789e-02 1.2 8.18e+07 1.0 0.0e+00 0.0e+00 0.0e+00  0  0  0  0  0   0  0  0  0  0 15892   16141      0 0.00e+00    0 0.00e+00 100
VecWAXPY            1728 1.0 4.3604e-02 1.2 2.43e+07 1.0 0.0e+00 0.0e+00 0.0e+00  0  0  0  0  0   0  0  0  0  0  6686    6816      0 0.00e+00    0 0.00e+00 100
VecMAXPY             600 1.0 1.5935e-02 1.2 2.25e+07 1.0 0.0e+00 0.0e+00 0.0e+00  0  0  0  0  0   0  0  0  0  0 16940       0      0 0.00e+00    0 0.00e+00 100
VecReduceArith      3456 1.0 2.8328e-01 1.6 4.86e+07 1.0 0.0e+00 0.0e+00 0.0e+00  1  0  0  0  0   1  0  0  0  0  2058    2067      0 0.00e+00    0 0.00e+00 100
VecReduceComm       1728 1.0 5.9955e-04 1.2 0.00e+00 0.0 0.0e+00 0.0e+00 0.0e+00  0  0  0  0  0   0  0  0  0  0     0       0      0 0.00e+00    0 0.00e+00  0
DualSpaceSetUp       103 1.0 1.6697e-01 1.1 2.47e+03 1.0 0.0e+00 0.0e+00 0.0e+00  1  0  0  0  0   1  0  0  0  0     0       0      0 0.00e+00    0 0.00e+00  0
FESetUp              103 1.0 3.1589e-03 1.6 0.00e+00 0.0 0.0e+00 0.0e+00 0.0e+00  0  0  0  0  0   0  0  0  0  0     0       0      0 0.00e+00    0 0.00e+00  0
TSStep               100 1.0 1.8267e+01 1.1 2.54e+12 1.0 0.0e+00 0.0e+00 0.0e+00 66 99  0  0  0  82100  0  0  0 1671301   21351234      0 0.00e+00    0 0.00e+00 100
TSFunctionEval      2328 1.0 4.1477e+00 1.1 3.64e+11 1.0 0.0e+00 0.0e+00 0.0e+00 15 14  0  0  0  19 14  0  0  0 1053852   11962588      0 0.00e+00    0 0.00e+00 100
TSJacobianEval      1728 1.0 1.6771e+00 1.1 2.17e+12 1.0 0.0e+00 0.0e+00 0.0e+00  6 85  0  0  0   8 85  0  0  0 15532830   267830400      0 0.00e+00    0 0.00e+00 100
KSPSetUp            1728 1.0 3.6571e-04 1.3 0.00e+00 0.0 0.0e+00 0.0e+00 0.0e+00  0  0  0  0  0   0  0  0  0  0     0       0      0 0.00e+00    0 0.00e+00  0
KSPSolve            1728 1.0 1.1133e+00 1.2 7.94e+08 1.0 0.0e+00 0.0e+00 0.0e+00  4  0  0  0  0   4  0  0  0  0  8560       0      0 0.00e+00    0 0.00e+00  0
SNESSolve            300 1.0 1.8169e+01 1.1 2.54e+12 1.0 0.0e+00 0.0e+00 0.0e+00 66 99  0  0  0  82100  0  0  0 1680289   21994084      0 0.00e+00    0 0.00e+00 100
SNESFunctionEval    2028 1.0 4.1885e+00 1.1 3.64e+11 1.0 0.0e+00 0.0e+00 0.0e+00 15 14  0  0  0  19 14  0  0  0 1043793   10912256      0 0.00e+00    0 0.00e+00 100
SNESJacobianEval    1728 1.0 1.6789e+00 1.1 2.17e+12 1.0 0.0e+00 0.0e+00 0.0e+00  6 85  0  0  0   8 85  0  0  0 15515897   267830400      0 0.00e+00    0 0.00e+00 100
SNESLineSearch      1728 1.0 4.8682e+00 1.1 3.65e+11 1.0 0.0e+00 0.0e+00 0.0e+00 18 14  0  0  0  22 14  0  0  0 898822   4353806      0 0.00e+00    0 0.00e+00 100
PCSetUp             1728 1.0 1.0876e+01 1.1 7.40e+09 1.0 0.0e+00 0.0e+00 0.0e+00 38  0  0  0  0  47  0  0  0  0  8167       0      0 0.00e+00    0 0.00e+00  0
PCApply             1728 1.0 8.4018e-01 1.0 7.94e+08 1.0 0.0e+00 0.0e+00 0.0e+00  3  0  0  0  0   4  0  0  0  0 11343       0      0 0.00e+00    0 0.00e+00  0
---------------------------------------------------------------------------------------------------------------------------------------------------------------

Memory usage is given in bytes:

Object Type          Creations   Destructions     Memory  Descendants' Mem.
Reports information only for process 0.

--- Event Stage 0: Main Stage

           Container   251            253       147752     0.
    Distributed Mesh   951            951      4949912     0.
            DM Label  2050           2050      1312000     0.
          Quadrature   912            912       547200     0.
           Index Set  4330           4333      4012456     0.
   IS L to G Mapping     1              1        38400     0.
             Section  2734           2734      1968480     0.
    Section Symmetry   300            300       208800     0.
   Star Forest Graph  1963           1963      2129256     0.
     Discrete System  1195           1195      1156760     0.
    GraphPartitioner   241            241       167736     0.
              Matrix  1027           1028     50035440     0.
              Vector   310            328      2614896     0.
       p4est logging     1              0            0     0.
        Linear Space    49             49        35056     0.
          Dual Space   210            210       198240     0.
            FE Space    49             49        39004     0.
       Field over DM    15             15        10680     0.
             TSAdapt     1              1         1264     0.
                  TS     1              1         2296     0.
                DMTS     1              1          768     0.
                SNES     1              1         1540     0.
              DMSNES     3              3         2040     0.
      SNESLineSearch     1              1         1008     0.
       Krylov Solver     1              1         1600     0.
     DMKSP interface     0              1          664     0.
      Preconditioner     1              1         1016     0.
              Viewer     2              1          848     0.

--- Event Stage 1: Warmup

           Container    34             32        18688     0.
    Distributed Mesh   190            190       968000     0.
            DM Label   525            525       336000     0.
          Quadrature   136            136        81600     0.
           Index Set   473            470       422176     0.
             Section   220            220       158400     0.
   Star Forest Graph   380            380       410400     0.
     Discrete System   222            222       214896     0.
    GraphPartitioner    32             32        22272     0.
              Matrix    77             76       236784     0.
              Vector   182            164      4662608     0.
        Linear Space     4              4         2752     0.
          Dual Space    40             40        37760     0.
            FE Space     4              4         3184     0.
       Field over DM     4              4         2848     0.
     DMKSP interface     1              0            0     0.

--- Event Stage 2: Solve

           Container   824            824       481216     0.
    Distributed Mesh 10313          10313     52028576     0.
            DM Label 37911          37911     24263040     0.
          Quadrature  3502           3502      2101200     0.
           Index Set 10865          10865      9762232     0.
             Section  5665           5665      4078800     0.
   Star Forest Graph 20626          20626     22276080     0.
     Discrete System 11137          11137     10780616     0.
    GraphPartitioner   824            824       573504     0.
              Matrix  1957           1957      6097188     0.
              Vector  8406           8406    359727264     0.
        Linear Space   103            103        70864     0.
          Dual Space  1030           1030       972320     0.
            FE Space   103            103        81988     0.
       Field over DM   103            103        73336     0.
========================================================================================================================
Average time to get PetscTime(): 4.92e-08
Average time for MPI_Barrier(): 1.4058e-06
Average time for zero size MPI_Send(): 3.09792e-05
#PETSc Option Table entries:
-dm_landau_amr_levels_max 13
-dm_landau_amr_post_refine 0
-dm_landau_amr_re_levels 0
-dm_landau_amr_z_refine1 0
-dm_landau_amr_z_refine2 0
-dm_landau_device_type kokkos
-dm_landau_domain_radius 10
-dm_landau_Ez 0
-dm_landau_ion_charges 2,2,3,4,5,6,7,8,9
-dm_landau_ion_masses 8,182,182,182,182,182,182,182,182
-dm_landau_n 1.000003,.5,1e-7,1e-7,1e-7,1e-7,1e-7,1e-7,1e-7,1e-7
-dm_landau_re_radius 10
-dm_landau_thermal_temps 1,1,1,1,1,1,1,1,1,1
-dm_landau_type p4est
-dm_landau_z_radius1 8
-dm_landau_z_radius2 .1
-dm_mat_type aijkokkos
-dm_preallocate_only
-dm_vec_type kokkos
-ex2_connor_e_field_units
-ex2_impurity_index 1
-ex2_plot_dt 200
-ex2_test_type spitzer
-ksp_type preonly
-log_view
-pc_type lu
-petscspace_degree 3
-snes_converged_reason
-snes_max_it 15
-snes_rtol 1.e-9
-snes_stol 1.e-9
-ts_adapt_clip .5,1.1
-ts_adapt_dt_max 1.
-ts_adapt_monitor
-ts_adapt_scale_solve_failed 0.5
-ts_adapt_time_step_increase_delay 5
-ts_arkimex_type 1bee
-ts_dt .5
-ts_exact_final_time stepover
-ts_max_snes_failures -1
-ts_max_steps 100
-ts_max_time 300
-ts_monitor
-ts_rtol 1e-2
-ts_type arkimex
#End of PETSc Option Table entries
Compiled without FORTRAN kernels
Compiled with full precision matrices (default)
sizeof(short) 2 sizeof(int) 4 sizeof(long) 8 sizeof(void*) 8 sizeof(PetscScalar) 8 sizeof(PetscInt) 4
Configure options: --with-fc=0 --CFLAGS="-fPIC -g -DLANDAU_DIM=2 -DLANDAU_MAX_SPECIES=10 -DPETSC_HAVE_CUDA_ATOMIC -DLANDAU_MAX_Q=4" --CXXFLAGS="-fPIC -g -DLANDAU_DIM=2 -DLANDAU_MAX_SPECIES=10 -DPETSC_HAVE_CUDA_ATOMIC -DLANDAU_MAX_Q=4" --COPTFLAGS=-O --CXXOPTFLAGS=-O --CUDAOPTFLAGS=-O --CUDAFLAGS="-arch=sm_70 -Xcompiler -rdynamic -lineinfo -g -DLANDAU_DIM=2 -DLANDAU_MAX_SPECIES=10 -DPETSC_HAVE_CUDA_ATOMIC -DLANDAU_MAX_Q=4" --with-ssl=0 --with-batch=0 --with-cxx=mpicxx --with-mpiexec="jsrun -g1 " --with-openmp=0 --with-cuda=1 --with-cudac=nvcc --download-p4est=1 --download-zlib --download-triangle --with-blaslapack-lib="-L/autofs/nccs-svm1_sw/summit/.swci/1-compute/opt/spack/20180914/linux-rhel7-ppc64le/gcc-6.4.0/netlib-lapack-3.8.0-wcabdyqhdi5rooxbkqa6x5d7hxyxwdkm/lib64 -lblas -llapack" --with-cc=mpicc --with-shared-libraries=1 --with-x=0 --with-64-bit-indices=0 --with-debugging=0 --download-kokkos --with-ctable=0 --with-make-np=8 --download-kokkos-kernels --with-kokkos-cuda-arch=VOLTA70 --with-kokkos-kernels-tpl=0 PETSC_ARCH=arch-summit-opt-gnu-kokkos-notpl-cuda
-----------------------------------------
Libraries compiled on 2021-03-26 22:51:29 on login5 
Machine characteristics: Linux-4.14.0-115.21.2.el7a.ppc64le-ppc64le-with-redhat-7.6-Maipo
Using PETSc directory: /gpfs/alpine/csc314/scratch/adams/petsc
Using PETSc arch: arch-summit-opt-gnu-kokkos-notpl-cuda
-----------------------------------------

Using C compiler: mpicc -fPIC -g -DLANDAU_DIM=2 -DLANDAU_MAX_SPECIES=10 -DPETSC_HAVE_CUDA_ATOMIC -DLANDAU_MAX_Q=4 -O   
-----------------------------------------

Using include paths: -I/gpfs/alpine/csc314/scratch/adams/petsc/include -I/gpfs/alpine/csc314/scratch/adams/petsc/arch-summit-opt-gnu-kokkos-notpl-cuda/include -I/sw/summit/cuda/10.1.243/include
-----------------------------------------

Using C linker: mpicc
Using libraries: -Wl,-rpath,/gpfs/alpine/csc314/scratch/adams/petsc/arch-summit-opt-gnu-kokkos-notpl-cuda/lib -L/gpfs/alpine/csc314/scratch/adams/petsc/arch-summit-opt-gnu-kokkos-notpl-cuda/lib -lpetsc -Wl,-rpath,/gpfs/alpine/csc314/scratch/adams/petsc/arch-summit-opt-gnu-kokkos-notpl-cuda/lib -L/gpfs/alpine/csc314/scratch/adams/petsc/arch-summit-opt-gnu-kokkos-notpl-cuda/lib -L/autofs/nccs-svm1_sw/summit/.swci/1-compute/opt/spack/20180914/linux-rhel7-ppc64le/gcc-6.4.0/netlib-lapack-3.8.0-wcabdyqhdi5rooxbkqa6x5d7hxyxwdkm/lib64 -Wl,-rpath,/sw/summit/cuda/10.1.243/lib64 -L/sw/summit/cuda/10.1.243/lib64 -lkokkoskernels -lkokkoscontainers -lkokkoscore -lp4est -lsc -lblas -llapack -ltriangle -lm -lz -lcufft -lcublas -lcudart -lcusparse -lcusolver -lcurand -lstdc++ -ldl
-----------------------------------------

