masses:        e= 9.109e-31; ions in proton mass units:    8.000e+00  1.820e+02 ...
charges:       e=-1.602e-19; charges in elementary units:  2.000e+00  2.000e+00
thermal T (K): e= 1.160e+07 i= 1.160e+07 imp= 1.160e+07. v_0= 1.326e+07 n_0= 1.000e+20 t_0= 5.787e-06 domain= 1.000e+01
CalculateE j0=0. Ec = 0.050991
0 TS dt 0.5 time 0.
  0) species-0: charge density= -1.6023053677413e+01 z-momentum= -3.0918035911624e-20 energy=  2.4017990192310e+04
  0) species-1: charge density=  1.6019692146204e+01 z-momentum=  4.8893654052962e-18 energy=  1.2010735332228e+04
  0) species-2: charge density=  3.2061689192317e-06 z-momentum=  6.4695388774869e-24 energy=  2.4038146590523e-03
  0) species-3: charge density=  4.8092533788475e-06 z-momentum=  6.4695388774869e-24 energy=  2.4038146590523e-03
  0) species-4: charge density=  6.4123378384633e-06 z-momentum=  6.4695388774869e-24 energy=  2.4038146590523e-03
  0) species-5: charge density=  8.0154222980792e-06 z-momentum=  6.4695388774869e-24 energy=  2.4038146590523e-03
  0) species-6: charge density=  9.6185067576950e-06 z-momentum=  6.4695388774869e-24 energy=  2.4038146590523e-03
  0) species-7: charge density=  1.1221591217311e-05 z-momentum=  6.4695388774869e-24 energy=  2.4038146590523e-03
  0) species-8: charge density=  1.2824675676927e-05 z-momentum=  6.4695388774869e-24 energy=  2.4038146590523e-03
  0) species-9: charge density=  1.4427760136543e-05 z-momentum=  6.4695388774869e-24 energy=  2.4038146590523e-03
	  0) Total: charge density= -3.2909954924628e-03, momentum=  4.8584991256956e-18, energy=  3.6028744755055e+04 (m_i[0]/m_e = 14683.8, 80 cells)
[0]FormLandau: 1280 IPs, 80 cells, totDim=160, Nb=16, Nq=16, elemMatSize=25600, dim=2, Tab: Nb=16 Nf=10 Np=16 cdim=2 N=7030 shift=0.
  Nonlinear solve converged due to CONVERGED_SNORM_RELATIVE iterations 6
  Nonlinear solve converged due to CONVERGED_SNORM_RELATIVE iterations 4
  Nonlinear solve converged due to CONVERGED_SNORM_RELATIVE iterations 4
      TSAdapt basic arkimex 0:1bee step   0 accepted t=0          + 5.000e-01 dt=5.500e-01  wlte=0.148  wltea=   -1 wlter=   -1
1 TS dt 0.55 time 0.5
  1) species-0: charge density= -1.6023053677413e+01 z-momentum=  2.4353630336752e-19 energy=  2.4017988700178e+04
  1) species-1: charge density=  1.6019692146204e+01 z-momentum=  7.3227285456482e-19 energy=  1.2010736689909e+04
  1) species-2: charge density=  3.2061689192317e-06 z-momentum=  4.6221287739261e-24 energy=  2.4038187113906e-03
  1) species-3: charge density=  4.8092533788475e-06 z-momentum=  5.2062440336379e-24 energy=  2.4038237575443e-03
  1) species-4: charge density=  6.4123378384633e-06 z-momentum=  3.0985175219629e-24 energy=  2.4038307870169e-03
  1) species-5: charge density=  8.0154222980792e-06 z-momentum= -8.1268811907985e-24 energy=  2.4038397663968e-03
  1) species-6: charge density=  9.6185067576950e-06 z-momentum= -1.4313712975420e-24 energy=  2.4038506549003e-03
  1) species-7: charge density=  1.1221591217311e-05 z-momentum= -1.1378886437152e-23 energy=  2.4038634055473e-03
  1) species-8: charge density=  1.2824675676927e-05 z-momentum=  2.7207883140386e-25 energy=  2.4038779662144e-03
  1) species-9: charge density=  1.4427760136543e-05 z-momentum= -3.5818695917911e-24 energy=  2.4038942804506e-03
	  1) Total: charge density= -3.2909954924237e-03, momentum=  9.7579783789298e-19, energy=  3.6028744620887e+04 (m_i[0]/m_e = 14683.8, 80 cells)
[0] parallel consistency check OK
 ***** [2] ERROR max |x| =  6.412207324246999e+05, my |x| =  6.412207324246998e+05 diff=1.164153e-10
 ***** [8] ERROR max |x| =  6.412207324246999e+05, my |x| =  6.412207324246998e+05 diff=1.164153e-10
 ***** [17] ERROR max |x| =  6.412207324246999e+05, my |x| =  6.412207324246998e+05 diff=1.164153e-10
 ***** [9] ERROR max |x| =  6.412207324246999e+05, my |x| =  6.412207324246998e+05 diff=1.164153e-10
 ***** [4] ERROR max |x| =  6.412207324246999e+05, my |x| =  6.412207324246997e+05 diff=2.328306e-10
 ***** [3] ERROR max |x| =  6.412207324246999e+05, my |x| =  6.412207324246998e+05 diff=1.164153e-10
 ***** [10] ERROR max |x| =  6.412207324246999e+05, my |x| =  6.412207324246998e+05 diff=1.164153e-10
 ***** [13] ERROR max |x| =  6.412207324246999e+05, my |x| =  6.412207324246998e+05 diff=1.164153e-10
 ***** [15] ERROR max |x| =  6.412207324246999e+05, my |x| =  6.412207324246998e+05 diff=1.164153e-10
 ***** [11] ERROR max |x| =  6.412207324246999e+05, my |x| =  6.412207324246998e+05 diff=1.164153e-10
 ***** [6] ERROR max |x| =  6.412207324246999e+05, my |x| =  6.412207324246997e+05 diff=2.328306e-10
0 TS dt 0.5 time 0.
  0) species-0: charge density= -1.6023053677413e+01 z-momentum= -3.0918035911624e-20 energy=  2.4017990192310e+04
  0) species-1: charge density=  1.6019692146204e+01 z-momentum=  4.8893654052962e-18 energy=  1.2010735332228e+04
  0) species-2: charge density=  3.2061689192317e-06 z-momentum=  6.4695388774869e-24 energy=  2.4038146590523e-03
  0) species-3: charge density=  4.8092533788475e-06 z-momentum=  6.4695388774869e-24 energy=  2.4038146590523e-03
  0) species-4: charge density=  6.4123378384633e-06 z-momentum=  6.4695388774869e-24 energy=  2.4038146590523e-03
  0) species-5: charge density=  8.0154222980792e-06 z-momentum=  6.4695388774869e-24 energy=  2.4038146590523e-03
  0) species-6: charge density=  9.6185067576950e-06 z-momentum=  6.4695388774869e-24 energy=  2.4038146590523e-03
  0) species-7: charge density=  1.1221591217311e-05 z-momentum=  6.4695388774869e-24 energy=  2.4038146590523e-03
  0) species-8: charge density=  1.2824675676927e-05 z-momentum=  6.4695388774869e-24 energy=  2.4038146590523e-03
  0) species-9: charge density=  1.4427760136543e-05 z-momentum=  6.4695388774869e-24 energy=  2.4038146590523e-03
	  0) Total: charge density= -3.2909954924628e-03, momentum=  4.8584991256956e-18, energy=  3.6028744755055e+04 (m_i[0]/m_e = 14683.8, 80 cells)
  Nonlinear solve converged due to CONVERGED_SNORM_RELATIVE iterations 6
  Nonlinear solve converged due to CONVERGED_SNORM_RELATIVE iterations 4
  Nonlinear solve converged due to CONVERGED_SNORM_RELATIVE iterations 4
      TSAdapt basic arkimex 0:1bee step   0 accepted t=0          + 5.000e-01 dt=5.500e-01  wlte=0.148  wltea=   -1 wlter=   -1
1 TS dt 0.55 time 0.5
  Nonlinear solve converged due to CONVERGED_SNORM_RELATIVE iterations 6
  Nonlinear solve converged due to CONVERGED_SNORM_RELATIVE iterations 4
  Nonlinear solve converged due to CONVERGED_SNORM_RELATIVE iterations 5
      TSAdapt basic arkimex 0:1bee step   1 accepted t=0.5        + 5.500e-01 dt=6.050e-01  wlte=0.0728  wltea=   -1 wlter=   -1
2 TS dt 0.605 time 1.05
  Nonlinear solve converged due to CONVERGED_SNORM_RELATIVE iterations 6
  Nonlinear solve converged due to CONVERGED_SNORM_RELATIVE iterations 4
  Nonlinear solve converged due to CONVERGED_SNORM_RELATIVE iterations 4
      TSAdapt basic arkimex 0:1bee step   2 accepted t=1.05       + 6.050e-01 dt=6.655e-01  wlte=0.0511  wltea=   -1 wlter=   -1
3 TS dt 0.6655 time 1.655
  Nonlinear solve converged due to CONVERGED_SNORM_RELATIVE iterations 6
  Nonlinear solve converged due to CONVERGED_SNORM_RELATIVE iterations 4
  Nonlinear solve converged due to CONVERGED_SNORM_RELATIVE iterations 4
      TSAdapt basic arkimex 0:1bee step   3 accepted t=1.655      + 6.655e-01 dt=7.321e-01  wlte=0.0435  wltea=   -1 wlter=   -1
4 TS dt 0.73205 time 2.3205
  Nonlinear solve converged due to CONVERGED_SNORM_RELATIVE iterations 7
  Nonlinear solve converged due to CONVERGED_SNORM_RELATIVE iterations 5
  Nonlinear solve converged due to CONVERGED_SNORM_RELATIVE iterations 5
      TSAdapt basic arkimex 0:1bee step   4 accepted t=2.3205     + 7.321e-01 dt=8.053e-01  wlte=0.0424  wltea=   -1 wlter=   -1
5 TS dt 0.805255 time 3.05255
  Nonlinear solve converged due to CONVERGED_SNORM_RELATIVE iterations 8
  Nonlinear solve converged due to CONVERGED_SNORM_RELATIVE iterations 6
  Nonlinear solve converged due to CONVERGED_SNORM_RELATIVE iterations 6
      TSAdapt basic arkimex 0:1bee step   5 accepted t=3.05255    + 8.053e-01 dt=8.858e-01  wlte=0.0425  wltea=   -1 wlter=   -1
6 TS dt 0.885781 time 3.85781
  Nonlinear solve converged due to CONVERGED_SNORM_RELATIVE iterations 9
  Nonlinear solve converged due to CONVERGED_SNORM_RELATIVE iterations 6
  Nonlinear solve converged due to CONVERGED_SNORM_RELATIVE iterations 6
      TSAdapt basic arkimex 0:1bee step   6 accepted t=3.85781    + 8.858e-01 dt=9.744e-01  wlte=0.0439  wltea=   -1 wlter=   -1
7 TS dt 0.974359 time 4.74359
  Nonlinear solve converged due to CONVERGED_SNORM_RELATIVE iterations 9
  Nonlinear solve converged due to CONVERGED_SNORM_RELATIVE iterations 6
  Nonlinear solve converged due to CONVERGED_SNORM_RELATIVE iterations 6
      TSAdapt basic arkimex 0:1bee step   7 accepted t=4.74359    + 9.744e-01 dt=1.000e+00  wlte=0.0478  wltea=   -1 wlter=   -1
8 TS dt 1. time 5.71794
  Nonlinear solve converged due to CONVERGED_SNORM_RELATIVE iterations 9
  Nonlinear solve converged due to CONVERGED_SNORM_RELATIVE iterations 6
  Nonlinear solve converged due to CONVERGED_SNORM_RELATIVE iterations 6
      TSAdapt basic arkimex 0:1bee step   8 accepted t=5.71794    + 1.000e+00 dt=1.000e+00  wlte=0.0499  wltea=   -1 wlter=   -1
9 TS dt 1. time 6.71794
  Nonlinear solve converged due to CONVERGED_SNORM_RELATIVE iterations 9
  Nonlinear solve converged due to CONVERGED_SNORM_RELATIVE iterations 6
  Nonlinear solve converged due to CONVERGED_SNORM_RELATIVE iterations 6
      TSAdapt basic arkimex 0:1bee step   9 accepted t=6.71794    + 1.000e+00 dt=1.000e+00  wlte=0.0584  wltea=   -1 wlter=   -1
10 TS dt 1. time 7.71794
  Nonlinear solve converged due to CONVERGED_SNORM_RELATIVE iterations 9
  Nonlinear solve converged due to CONVERGED_SNORM_RELATIVE iterations 6
  Nonlinear solve converged due to CONVERGED_SNORM_RELATIVE iterations 6
      TSAdapt basic arkimex 0:1bee step  10 accepted t=7.71794    + 1.000e+00 dt=1.000e+00  wlte=0.128  wltea=   -1 wlter=   -1
11 TS dt 1. time 8.71794
  Nonlinear solve converged due to CONVERGED_SNORM_RELATIVE iterations 9
  Nonlinear solve converged due to CONVERGED_SNORM_RELATIVE iterations 6
  Nonlinear solve converged due to CONVERGED_SNORM_RELATIVE iterations 6
      TSAdapt basic arkimex 0:1bee step  11 accepted t=8.71794    + 1.000e+00 dt=1.000e+00  wlte=0.0417  wltea=   -1 wlter=   -1
12 TS dt 1. time 9.71794
  Nonlinear solve converged due to CONVERGED_SNORM_RELATIVE iterations 8
  Nonlinear solve converged due to CONVERGED_SNORM_RELATIVE iterations 6
  Nonlinear solve converged due to CONVERGED_SNORM_RELATIVE iterations 6
      TSAdapt basic arkimex 0:1bee step  12 accepted t=9.71794    + 1.000e+00 dt=1.000e+00  wlte=0.0264  wltea=   -1 wlter=   -1
13 TS dt 1. time 10.7179
  Nonlinear solve converged due to CONVERGED_SNORM_RELATIVE iterations 8
  Nonlinear solve converged due to CONVERGED_SNORM_RELATIVE iterations 6
  Nonlinear solve converged due to CONVERGED_SNORM_RELATIVE iterations 6
      TSAdapt basic arkimex 0:1bee step  13 accepted t=10.7179    + 1.000e+00 dt=1.000e+00  wlte=0.0213  wltea=   -1 wlter=   -1
14 TS dt 1. time 11.7179
  Nonlinear solve converged due to CONVERGED_SNORM_RELATIVE iterations 8
  Nonlinear solve converged due to CONVERGED_SNORM_RELATIVE iterations 5
  Nonlinear solve converged due to CONVERGED_SNORM_RELATIVE iterations 5
      TSAdapt basic arkimex 0:1bee step  14 accepted t=11.7179    + 1.000e+00 dt=1.000e+00  wlte=0.0192  wltea=   -1 wlter=   -1
15 TS dt 1. time 12.7179
  Nonlinear solve converged due to CONVERGED_SNORM_RELATIVE iterations 7
  Nonlinear solve converged due to CONVERGED_SNORM_RELATIVE iterations 4
  Nonlinear solve converged due to CONVERGED_SNORM_RELATIVE iterations 5
      TSAdapt basic arkimex 0:1bee step  15 accepted t=12.7179    + 1.000e+00 dt=1.000e+00  wlte=0.0186  wltea=   -1 wlter=   -1
16 TS dt 1. time 13.7179
  Nonlinear solve converged due to CONVERGED_SNORM_RELATIVE iterations 6
  Nonlinear solve converged due to CONVERGED_SNORM_RELATIVE iterations 4
  Nonlinear solve converged due to CONVERGED_SNORM_RELATIVE iterations 4
      TSAdapt basic arkimex 0:1bee step  16 accepted t=13.7179    + 1.000e+00 dt=1.000e+00  wlte=0.0187  wltea=   -1 wlter=   -1
17 TS dt 1. time 14.7179
  Nonlinear solve converged due to CONVERGED_SNORM_RELATIVE iterations 6
  Nonlinear solve converged due to CONVERGED_SNORM_RELATIVE iterations 5
  Nonlinear solve converged due to CONVERGED_SNORM_RELATIVE iterations 4
      TSAdapt basic arkimex 0:1bee step  17 accepted t=14.7179    + 1.000e+00 dt=1.000e+00  wlte=0.0213  wltea=   -1 wlter=   -1
18 TS dt 1. time 15.7179
  Nonlinear solve converged due to CONVERGED_SNORM_RELATIVE iterations 7
  Nonlinear solve converged due to CONVERGED_SNORM_RELATIVE iterations 5
  Nonlinear solve converged due to CONVERGED_SNORM_RELATIVE iterations 5
      TSAdapt basic arkimex 0:1bee step  18 accepted t=15.7179    + 1.000e+00 dt=1.000e+00  wlte=0.0192  wltea=   -1 wlter=   -1
19 TS dt 1. time 16.7179
  Nonlinear solve converged due to CONVERGED_SNORM_RELATIVE iterations 7
  Nonlinear solve converged due to CONVERGED_SNORM_RELATIVE iterations 5
  Nonlinear solve converged due to CONVERGED_SNORM_RELATIVE iterations 5
      TSAdapt basic arkimex 0:1bee step  19 accepted t=16.7179    + 1.000e+00 dt=1.000e+00  wlte=0.0149  wltea=   -1 wlter=   -1
20 TS dt 1. time 17.7179
  Nonlinear solve converged due to CONVERGED_SNORM_RELATIVE iterations 7
  Nonlinear solve converged due to CONVERGED_SNORM_RELATIVE iterations 5
  Nonlinear solve converged due to CONVERGED_SNORM_RELATIVE iterations 5
      TSAdapt basic arkimex 0:1bee step  20 accepted t=17.7179    + 1.000e+00 dt=1.000e+00  wlte=0.0122  wltea=   -1 wlter=   -1
21 TS dt 1. time 18.7179
  Nonlinear solve converged due to CONVERGED_SNORM_RELATIVE iterations 8
  Nonlinear solve converged due to CONVERGED_SNORM_RELATIVE iterations 5
  Nonlinear solve converged due to CONVERGED_SNORM_RELATIVE iterations 5
      TSAdapt basic arkimex 0:1bee step  21 accepted t=18.7179    + 1.000e+00 dt=1.000e+00  wlte=0.0104  wltea=   -1 wlter=   -1
22 TS dt 1. time 19.7179
  Nonlinear solve converged due to CONVERGED_SNORM_RELATIVE iterations 8
  Nonlinear solve converged due to CONVERGED_SNORM_RELATIVE iterations 5
  Nonlinear solve converged due to CONVERGED_SNORM_RELATIVE iterations 5
      TSAdapt basic arkimex 0:1bee step  22 accepted t=19.7179    + 1.000e+00 dt=1.000e+00  wlte=0.00917  wltea=   -1 wlter=   -1
23 TS dt 1. time 20.7179
  Nonlinear solve converged due to CONVERGED_SNORM_RELATIVE iterations 8
  Nonlinear solve converged due to CONVERGED_SNORM_RELATIVE iterations 5
  Nonlinear solve converged due to CONVERGED_SNORM_RELATIVE iterations 5
      TSAdapt basic arkimex 0:1bee step  23 accepted t=20.7179    + 1.000e+00 dt=1.000e+00  wlte=0.00817  wltea=   -1 wlter=   -1
24 TS dt 1. time 21.7179
  Nonlinear solve converged due to CONVERGED_SNORM_RELATIVE iterations 8
  Nonlinear solve converged due to CONVERGED_SNORM_RELATIVE iterations 5
  Nonlinear solve converged due to CONVERGED_SNORM_RELATIVE iterations 5
      TSAdapt basic arkimex 0:1bee step  24 accepted t=21.7179    + 1.000e+00 dt=1.000e+00  wlte=0.00724  wltea=   -1 wlter=   -1
25 TS dt 1. time 22.7179
  Nonlinear solve converged due to CONVERGED_SNORM_RELATIVE iterations 8
  Nonlinear solve converged due to CONVERGED_SNORM_RELATIVE iterations 5
  Nonlinear solve converged due to CONVERGED_SNORM_RELATIVE iterations 5
      TSAdapt basic arkimex 0:1bee step  25 accepted t=22.7179    + 1.000e+00 dt=1.000e+00  wlte=0.00649  wltea=   -1 wlter=   -1
26 TS dt 1. time 23.7179
  Nonlinear solve converged due to CONVERGED_SNORM_RELATIVE iterations 8
  Nonlinear solve converged due to CONVERGED_SNORM_RELATIVE iterations 5
  Nonlinear solve converged due to CONVERGED_SNORM_RELATIVE iterations 5
      TSAdapt basic arkimex 0:1bee step  26 accepted t=23.7179    + 1.000e+00 dt=1.000e+00  wlte=0.00588  wltea=   -1 wlter=   -1
27 TS dt 1. time 24.7179
  Nonlinear solve converged due to CONVERGED_SNORM_RELATIVE iterations 8
  Nonlinear solve converged due to CONVERGED_SNORM_RELATIVE iterations 5
  Nonlinear solve converged due to CONVERGED_SNORM_RELATIVE iterations 5
      TSAdapt basic arkimex 0:1bee step  27 accepted t=24.7179    + 1.000e+00 dt=1.000e+00  wlte=0.00536  wltea=   -1 wlter=   -1
28 TS dt 1. time 25.7179
  Nonlinear solve converged due to CONVERGED_SNORM_RELATIVE iterations 8
  Nonlinear solve converged due to CONVERGED_SNORM_RELATIVE iterations 5
  Nonlinear solve converged due to CONVERGED_SNORM_RELATIVE iterations 5
      TSAdapt basic arkimex 0:1bee step  28 accepted t=25.7179    + 1.000e+00 dt=1.000e+00  wlte=0.00488  wltea=   -1 wlter=   -1
29 TS dt 1. time 26.7179
  Nonlinear solve converged due to CONVERGED_SNORM_RELATIVE iterations 8
  Nonlinear solve converged due to CONVERGED_SNORM_RELATIVE iterations 5
  Nonlinear solve converged due to CONVERGED_SNORM_RELATIVE iterations 5
      TSAdapt basic arkimex 0:1bee step  29 accepted t=26.7179    + 1.000e+00 dt=1.000e+00  wlte=0.00443  wltea=   -1 wlter=   -1
30 TS dt 1. time 27.7179
  Nonlinear solve converged due to CONVERGED_SNORM_RELATIVE iterations 8
  Nonlinear solve converged due to CONVERGED_SNORM_RELATIVE iterations 5
  Nonlinear solve converged due to CONVERGED_SNORM_RELATIVE iterations 5
      TSAdapt basic arkimex 0:1bee step  30 accepted t=27.7179    + 1.000e+00 dt=1.000e+00  wlte=0.00407  wltea=   -1 wlter=   -1
31 TS dt 1. time 28.7179
  Nonlinear solve converged due to CONVERGED_SNORM_RELATIVE iterations 8
  Nonlinear solve converged due to CONVERGED_SNORM_RELATIVE iterations 5
  Nonlinear solve converged due to CONVERGED_SNORM_RELATIVE iterations 5
      TSAdapt basic arkimex 0:1bee step  31 accepted t=28.7179    + 1.000e+00 dt=1.000e+00  wlte=0.00377  wltea=   -1 wlter=   -1
32 TS dt 1. time 29.7179
  Nonlinear solve converged due to CONVERGED_SNORM_RELATIVE iterations 8
  Nonlinear solve converged due to CONVERGED_SNORM_RELATIVE iterations 5
  Nonlinear solve converged due to CONVERGED_SNORM_RELATIVE iterations 5
      TSAdapt basic arkimex 0:1bee step  32 accepted t=29.7179    + 1.000e+00 dt=1.000e+00  wlte=0.00353  wltea=   -1 wlter=   -1
33 TS dt 1. time 30.7179
  Nonlinear solve converged due to CONVERGED_SNORM_RELATIVE iterations 8
  Nonlinear solve converged due to CONVERGED_SNORM_RELATIVE iterations 5
  Nonlinear solve converged due to CONVERGED_SNORM_RELATIVE iterations 5
      TSAdapt basic arkimex 0:1bee step  33 accepted t=30.7179    + 1.000e+00 dt=1.000e+00  wlte=0.00333  wltea=   -1 wlter=   -1
34 TS dt 1. time 31.7179
  Nonlinear solve converged due to CONVERGED_SNORM_RELATIVE iterations 8
  Nonlinear solve converged due to CONVERGED_SNORM_RELATIVE iterations 5
  Nonlinear solve converged due to CONVERGED_SNORM_RELATIVE iterations 5
      TSAdapt basic arkimex 0:1bee step  34 accepted t=31.7179    + 1.000e+00 dt=1.000e+00  wlte=0.00318  wltea=   -1 wlter=   -1
35 TS dt 1. time 32.7179
  Nonlinear solve converged due to CONVERGED_SNORM_RELATIVE iterations 8
  Nonlinear solve converged due to CONVERGED_SNORM_RELATIVE iterations 5
  Nonlinear solve converged due to CONVERGED_SNORM_RELATIVE iterations 5
      TSAdapt basic arkimex 0:1bee step  35 accepted t=32.7179    + 1.000e+00 dt=1.000e+00  wlte=0.00307  wltea=   -1 wlter=   -1
36 TS dt 1. time 33.7179
  Nonlinear solve converged due to CONVERGED_SNORM_RELATIVE iterations 8
  Nonlinear solve converged due to CONVERGED_SNORM_RELATIVE iterations 5
  Nonlinear solve converged due to CONVERGED_SNORM_RELATIVE iterations 5
      TSAdapt basic arkimex 0:1bee step  36 accepted t=33.7179    + 1.000e+00 dt=1.000e+00  wlte=0.003  wltea=   -1 wlter=   -1
37 TS dt 1. time 34.7179
  Nonlinear solve converged due to CONVERGED_SNORM_RELATIVE iterations 8
  Nonlinear solve converged due to CONVERGED_SNORM_RELATIVE iterations 5
  Nonlinear solve converged due to CONVERGED_SNORM_RELATIVE iterations 5
      TSAdapt basic arkimex 0:1bee step  37 accepted t=34.7179    + 1.000e+00 dt=1.000e+00  wlte=0.00288  wltea=   -1 wlter=   -1
38 TS dt 1. time 35.7179
  Nonlinear solve converged due to CONVERGED_SNORM_RELATIVE iterations 8
  Nonlinear solve converged due to CONVERGED_SNORM_RELATIVE iterations 5
  Nonlinear solve converged due to CONVERGED_SNORM_RELATIVE iterations 5
      TSAdapt basic arkimex 0:1bee step  38 accepted t=35.7179    + 1.000e+00 dt=1.000e+00  wlte=0.00274  wltea=   -1 wlter=   -1
39 TS dt 1. time 36.7179
  Nonlinear solve converged due to CONVERGED_SNORM_RELATIVE iterations 8
  Nonlinear solve converged due to CONVERGED_SNORM_RELATIVE iterations 4
  Nonlinear solve converged due to CONVERGED_SNORM_RELATIVE iterations 4
      TSAdapt basic arkimex 0:1bee step  39 accepted t=36.7179    + 1.000e+00 dt=1.000e+00  wlte=0.00266  wltea=   -1 wlter=   -1
40 TS dt 1. time 37.7179
  Nonlinear solve converged due to CONVERGED_SNORM_RELATIVE iterations 8
  Nonlinear solve converged due to CONVERGED_SNORM_RELATIVE iterations 4
  Nonlinear solve converged due to CONVERGED_SNORM_RELATIVE iterations 4
      TSAdapt basic arkimex 0:1bee step  40 accepted t=37.7179    + 1.000e+00 dt=1.000e+00  wlte=0.00261  wltea=   -1 wlter=   -1
41 TS dt 1. time 38.7179
  Nonlinear solve converged due to CONVERGED_SNORM_RELATIVE iterations 8
  Nonlinear solve converged due to CONVERGED_SNORM_RELATIVE iterations 4
  Nonlinear solve converged due to CONVERGED_SNORM_RELATIVE iterations 4
      TSAdapt basic arkimex 0:1bee step  41 accepted t=38.7179    + 1.000e+00 dt=1.000e+00  wlte=0.00262  wltea=   -1 wlter=   -1
42 TS dt 1. time 39.7179
  Nonlinear solve converged due to CONVERGED_SNORM_RELATIVE iterations 8
  Nonlinear solve converged due to CONVERGED_SNORM_RELATIVE iterations 4
  Nonlinear solve converged due to CONVERGED_SNORM_RELATIVE iterations 4
      TSAdapt basic arkimex 0:1bee step  42 accepted t=39.7179    + 1.000e+00 dt=1.000e+00  wlte=0.0027  wltea=   -1 wlter=   -1
43 TS dt 1. time 40.7179
  Nonlinear solve converged due to CONVERGED_SNORM_RELATIVE iterations 8
  Nonlinear solve converged due to CONVERGED_SNORM_RELATIVE iterations 4
  Nonlinear solve converged due to CONVERGED_SNORM_RELATIVE iterations 4
      TSAdapt basic arkimex 0:1bee step  43 accepted t=40.7179    + 1.000e+00 dt=1.000e+00  wlte=0.00288  wltea=   -1 wlter=   -1
44 TS dt 1. time 41.7179
  Nonlinear solve converged due to CONVERGED_SNORM_RELATIVE iterations 8
  Nonlinear solve converged due to CONVERGED_SNORM_RELATIVE iterations 4
  Nonlinear solve converged due to CONVERGED_SNORM_RELATIVE iterations 4
      TSAdapt basic arkimex 0:1bee step  44 accepted t=41.7179    + 1.000e+00 dt=1.000e+00  wlte=0.00325  wltea=   -1 wlter=   -1
45 TS dt 1. time 42.7179
  Nonlinear solve converged due to CONVERGED_SNORM_RELATIVE iterations 8
  Nonlinear solve converged due to CONVERGED_SNORM_RELATIVE iterations 4
  Nonlinear solve converged due to CONVERGED_SNORM_RELATIVE iterations 4
      TSAdapt basic arkimex 0:1bee step  45 accepted t=42.7179    + 1.000e+00 dt=1.000e+00  wlte=0.00405  wltea=   -1 wlter=   -1
46 TS dt 1. time 43.7179
  Nonlinear solve converged due to CONVERGED_SNORM_RELATIVE iterations 7
  Nonlinear solve converged due to CONVERGED_SNORM_RELATIVE iterations 4
  Nonlinear solve converged due to CONVERGED_SNORM_RELATIVE iterations 4
      TSAdapt basic arkimex 0:1bee step  46 accepted t=43.7179    + 1.000e+00 dt=1.000e+00  wlte=0.00511  wltea=   -1 wlter=   -1
47 TS dt 1. time 44.7179
  Nonlinear solve converged due to CONVERGED_SNORM_RELATIVE iterations 8
  Nonlinear solve converged due to CONVERGED_SNORM_RELATIVE iterations 4
  Nonlinear solve converged due to CONVERGED_SNORM_RELATIVE iterations 4
      TSAdapt basic arkimex 0:1bee step  47 accepted t=44.7179    + 1.000e+00 dt=1.000e+00  wlte=0.00317  wltea=   -1 wlter=   -1
48 TS dt 1. time 45.7179
  Nonlinear solve converged due to CONVERGED_SNORM_RELATIVE iterations 8
  Nonlinear solve converged due to CONVERGED_SNORM_RELATIVE iterations 4
  Nonlinear solve converged due to CONVERGED_SNORM_RELATIVE iterations 4
      TSAdapt basic arkimex 0:1bee step  48 accepted t=45.7179    + 1.000e+00 dt=1.000e+00  wlte=0.00246  wltea=   -1 wlter=   -1
49 TS dt 1. time 46.7179
  Nonlinear solve converged due to CONVERGED_SNORM_RELATIVE iterations 8
  Nonlinear solve converged due to CONVERGED_SNORM_RELATIVE iterations 4
  Nonlinear solve converged due to CONVERGED_SNORM_RELATIVE iterations 4
      TSAdapt basic arkimex 0:1bee step  49 accepted t=46.7179    + 1.000e+00 dt=1.000e+00  wlte=0.00221  wltea=   -1 wlter=   -1
50 TS dt 1. time 47.7179
  Nonlinear solve converged due to CONVERGED_SNORM_RELATIVE iterations 8
  Nonlinear solve converged due to CONVERGED_SNORM_RELATIVE iterations 4
  Nonlinear solve converged due to CONVERGED_SNORM_RELATIVE iterations 4
      TSAdapt basic arkimex 0:1bee step  50 accepted t=47.7179    + 1.000e+00 dt=1.000e+00  wlte=0.00228  wltea=   -1 wlter=   -1
51 TS dt 1. time 48.7179
  Nonlinear solve converged due to CONVERGED_SNORM_RELATIVE iterations 8
  Nonlinear solve converged due to CONVERGED_SNORM_RELATIVE iterations 4
  Nonlinear solve converged due to CONVERGED_SNORM_RELATIVE iterations 4
      TSAdapt basic arkimex 0:1bee step  51 accepted t=48.7179    + 1.000e+00 dt=1.000e+00  wlte=0.00202  wltea=   -1 wlter=   -1
52 TS dt 1. time 49.7179
  Nonlinear solve converged due to CONVERGED_SNORM_RELATIVE iterations 8
  Nonlinear solve converged due to CONVERGED_SNORM_RELATIVE iterations 4
  Nonlinear solve converged due to CONVERGED_SNORM_RELATIVE iterations 4
      TSAdapt basic arkimex 0:1bee step  52 accepted t=49.7179    + 1.000e+00 dt=1.000e+00  wlte=0.00155  wltea=   -1 wlter=   -1
53 TS dt 1. time 50.7179
  Nonlinear solve converged due to CONVERGED_SNORM_RELATIVE iterations 8
  Nonlinear solve converged due to CONVERGED_SNORM_RELATIVE iterations 4
  Nonlinear solve converged due to CONVERGED_SNORM_RELATIVE iterations 4
      TSAdapt basic arkimex 0:1bee step  53 accepted t=50.7179    + 1.000e+00 dt=1.000e+00  wlte=0.0013  wltea=   -1 wlter=   -1
54 TS dt 1. time 51.7179
  Nonlinear solve converged due to CONVERGED_SNORM_RELATIVE iterations 8
  Nonlinear solve converged due to CONVERGED_SNORM_RELATIVE iterations 4
  Nonlinear solve converged due to CONVERGED_SNORM_RELATIVE iterations 4
      TSAdapt basic arkimex 0:1bee step  54 accepted t=51.7179    + 1.000e+00 dt=1.000e+00  wlte=0.00116  wltea=   -1 wlter=   -1
55 TS dt 1. time 52.7179
  Nonlinear solve converged due to CONVERGED_SNORM_RELATIVE iterations 8
  Nonlinear solve converged due to CONVERGED_SNORM_RELATIVE iterations 4
  Nonlinear solve converged due to CONVERGED_SNORM_RELATIVE iterations 4
      TSAdapt basic arkimex 0:1bee step  55 accepted t=52.7179    + 1.000e+00 dt=1.000e+00  wlte=0.00108  wltea=   -1 wlter=   -1
56 TS dt 1. time 53.7179
  Nonlinear solve converged due to CONVERGED_SNORM_RELATIVE iterations 8
  Nonlinear solve converged due to CONVERGED_SNORM_RELATIVE iterations 4
  Nonlinear solve converged due to CONVERGED_SNORM_RELATIVE iterations 4
      TSAdapt basic arkimex 0:1bee step  56 accepted t=53.7179    + 1.000e+00 dt=1.000e+00  wlte=0.00102  wltea=   -1 wlter=   -1
57 TS dt 1. time 54.7179
  Nonlinear solve converged due to CONVERGED_SNORM_RELATIVE iterations 8
  Nonlinear solve converged due to CONVERGED_SNORM_RELATIVE iterations 4
  Nonlinear solve converged due to CONVERGED_SNORM_RELATIVE iterations 4
      TSAdapt basic arkimex 0:1bee step  57 accepted t=54.7179    + 1.000e+00 dt=1.000e+00  wlte=0.000986  wltea=   -1 wlter=   -1
58 TS dt 1. time 55.7179
  Nonlinear solve converged due to CONVERGED_SNORM_RELATIVE iterations 8
  Nonlinear solve converged due to CONVERGED_SNORM_RELATIVE iterations 4
  Nonlinear solve converged due to CONVERGED_SNORM_RELATIVE iterations 4
      TSAdapt basic arkimex 0:1bee step  58 accepted t=55.7179    + 1.000e+00 dt=1.000e+00  wlte=0.000964  wltea=   -1 wlter=   -1
59 TS dt 1. time 56.7179
  Nonlinear solve converged due to CONVERGED_SNORM_RELATIVE iterations 8
  Nonlinear solve converged due to CONVERGED_SNORM_RELATIVE iterations 4
  Nonlinear solve converged due to CONVERGED_SNORM_RELATIVE iterations 4
      TSAdapt basic arkimex 0:1bee step  59 accepted t=56.7179    + 1.000e+00 dt=1.000e+00  wlte=0.00095  wltea=   -1 wlter=   -1
60 TS dt 1. time 57.7179
  Nonlinear solve converged due to CONVERGED_SNORM_RELATIVE iterations 8
  Nonlinear solve converged due to CONVERGED_SNORM_RELATIVE iterations 4
  Nonlinear solve converged due to CONVERGED_SNORM_RELATIVE iterations 4
      TSAdapt basic arkimex 0:1bee step  60 accepted t=57.7179    + 1.000e+00 dt=1.000e+00  wlte=0.000941  wltea=   -1 wlter=   -1
61 TS dt 1. time 58.7179
  Nonlinear solve converged due to CONVERGED_SNORM_RELATIVE iterations 8
  Nonlinear solve converged due to CONVERGED_SNORM_RELATIVE iterations 4
  Nonlinear solve converged due to CONVERGED_SNORM_RELATIVE iterations 4
      TSAdapt basic arkimex 0:1bee step  61 accepted t=58.7179    + 1.000e+00 dt=1.000e+00  wlte=0.000937  wltea=   -1 wlter=   -1
62 TS dt 1. time 59.7179
  Nonlinear solve converged due to CONVERGED_SNORM_RELATIVE iterations 8
  Nonlinear solve converged due to CONVERGED_SNORM_RELATIVE iterations 4
  Nonlinear solve converged due to CONVERGED_SNORM_RELATIVE iterations 4
      TSAdapt basic arkimex 0:1bee step  62 accepted t=59.7179    + 1.000e+00 dt=1.000e+00  wlte=0.000935  wltea=   -1 wlter=   -1
63 TS dt 1. time 60.7179
  Nonlinear solve converged due to CONVERGED_SNORM_RELATIVE iterations 8
  Nonlinear solve converged due to CONVERGED_SNORM_RELATIVE iterations 4
  Nonlinear solve converged due to CONVERGED_SNORM_RELATIVE iterations 4
      TSAdapt basic arkimex 0:1bee step  63 accepted t=60.7179    + 1.000e+00 dt=1.000e+00  wlte=0.000936  wltea=   -1 wlter=   -1
64 TS dt 1. time 61.7179
  Nonlinear solve converged due to CONVERGED_SNORM_RELATIVE iterations 8
  Nonlinear solve converged due to CONVERGED_SNORM_RELATIVE iterations 4
  Nonlinear solve converged due to CONVERGED_SNORM_RELATIVE iterations 4
      TSAdapt basic arkimex 0:1bee step  64 accepted t=61.7179    + 1.000e+00 dt=1.000e+00  wlte=0.000939  wltea=   -1 wlter=   -1
65 TS dt 1. time 62.7179
  Nonlinear solve converged due to CONVERGED_SNORM_RELATIVE iterations 8
  Nonlinear solve converged due to CONVERGED_SNORM_RELATIVE iterations 4
  Nonlinear solve converged due to CONVERGED_SNORM_RELATIVE iterations 4
      TSAdapt basic arkimex 0:1bee step  65 accepted t=62.7179    + 1.000e+00 dt=1.000e+00  wlte=0.000944  wltea=   -1 wlter=   -1
66 TS dt 1. time 63.7179
  Nonlinear solve converged due to CONVERGED_SNORM_RELATIVE iterations 8
  Nonlinear solve converged due to CONVERGED_SNORM_RELATIVE iterations 4
  Nonlinear solve converged due to CONVERGED_SNORM_RELATIVE iterations 4
      TSAdapt basic arkimex 0:1bee step  66 accepted t=63.7179    + 1.000e+00 dt=1.000e+00  wlte=0.00095  wltea=   -1 wlter=   -1
67 TS dt 1. time 64.7179
  Nonlinear solve converged due to CONVERGED_SNORM_RELATIVE iterations 8
  Nonlinear solve converged due to CONVERGED_SNORM_RELATIVE iterations 4
  Nonlinear solve converged due to CONVERGED_SNORM_RELATIVE iterations 4
      TSAdapt basic arkimex 0:1bee step  67 accepted t=64.7179    + 1.000e+00 dt=1.000e+00  wlte=0.000957  wltea=   -1 wlter=   -1
68 TS dt 1. time 65.7179
  Nonlinear solve converged due to CONVERGED_SNORM_RELATIVE iterations 8
  Nonlinear solve converged due to CONVERGED_SNORM_RELATIVE iterations 4
  Nonlinear solve converged due to CONVERGED_SNORM_RELATIVE iterations 4
      TSAdapt basic arkimex 0:1bee step  68 accepted t=65.7179    + 1.000e+00 dt=1.000e+00  wlte=0.000965  wltea=   -1 wlter=   -1
69 TS dt 1. time 66.7179
  Nonlinear solve converged due to CONVERGED_SNORM_RELATIVE iterations 8
  Nonlinear solve converged due to CONVERGED_SNORM_RELATIVE iterations 4
  Nonlinear solve converged due to CONVERGED_SNORM_RELATIVE iterations 4
      TSAdapt basic arkimex 0:1bee step  69 accepted t=66.7179    + 1.000e+00 dt=1.000e+00  wlte=0.000976  wltea=   -1 wlter=   -1
70 TS dt 1. time 67.7179
  Nonlinear solve converged due to CONVERGED_SNORM_RELATIVE iterations 8
  Nonlinear solve converged due to CONVERGED_SNORM_RELATIVE iterations 4
  Nonlinear solve converged due to CONVERGED_SNORM_RELATIVE iterations 4
      TSAdapt basic arkimex 0:1bee step  70 accepted t=67.7179    + 1.000e+00 dt=1.000e+00  wlte=0.000987  wltea=   -1 wlter=   -1
71 TS dt 1. time 68.7179
  Nonlinear solve converged due to CONVERGED_SNORM_RELATIVE iterations 8
  Nonlinear solve converged due to CONVERGED_SNORM_RELATIVE iterations 4
  Nonlinear solve converged due to CONVERGED_SNORM_RELATIVE iterations 4
      TSAdapt basic arkimex 0:1bee step  71 accepted t=68.7179    + 1.000e+00 dt=1.000e+00  wlte=0.001  wltea=   -1 wlter=   -1
72 TS dt 1. time 69.7179
  Nonlinear solve converged due to CONVERGED_SNORM_RELATIVE iterations 8
  Nonlinear solve converged due to CONVERGED_SNORM_RELATIVE iterations 5
  Nonlinear solve converged due to CONVERGED_SNORM_RELATIVE iterations 4
      TSAdapt basic arkimex 0:1bee step  72 accepted t=69.7179    + 1.000e+00 dt=1.000e+00  wlte=0.00101  wltea=   -1 wlter=   -1
73 TS dt 1. time 70.7179
  Nonlinear solve converged due to CONVERGED_SNORM_RELATIVE iterations 8
  Nonlinear solve converged due to CONVERGED_SNORM_RELATIVE iterations 5
  Nonlinear solve converged due to CONVERGED_SNORM_RELATIVE iterations 5
      TSAdapt basic arkimex 0:1bee step  73 accepted t=70.7179    + 1.000e+00 dt=1.000e+00  wlte=0.00103  wltea=   -1 wlter=   -1
74 TS dt 1. time 71.7179
  Nonlinear solve converged due to CONVERGED_SNORM_RELATIVE iterations 8
  Nonlinear solve converged due to CONVERGED_SNORM_RELATIVE iterations 5
  Nonlinear solve converged due to CONVERGED_SNORM_RELATIVE iterations 5
      TSAdapt basic arkimex 0:1bee step  74 accepted t=71.7179    + 1.000e+00 dt=1.000e+00  wlte=0.00105  wltea=   -1 wlter=   -1
75 TS dt 1. time 72.7179
  Nonlinear solve converged due to CONVERGED_SNORM_RELATIVE iterations 8
  Nonlinear solve converged due to CONVERGED_SNORM_RELATIVE iterations 5
  Nonlinear solve converged due to CONVERGED_SNORM_RELATIVE iterations 5
      TSAdapt basic arkimex 0:1bee step  75 accepted t=72.7179    + 1.000e+00 dt=1.000e+00  wlte=0.00107  wltea=   -1 wlter=   -1
76 TS dt 1. time 73.7179
  Nonlinear solve converged due to CONVERGED_SNORM_RELATIVE iterations 8
  Nonlinear solve converged due to CONVERGED_SNORM_RELATIVE iterations 5
  Nonlinear solve converged due to CONVERGED_SNORM_RELATIVE iterations 5
      TSAdapt basic arkimex 0:1bee step  76 accepted t=73.7179    + 1.000e+00 dt=1.000e+00  wlte=0.0011  wltea=   -1 wlter=   -1
77 TS dt 1. time 74.7179
  Nonlinear solve converged due to CONVERGED_SNORM_RELATIVE iterations 8
  Nonlinear solve converged due to CONVERGED_SNORM_RELATIVE iterations 5
  Nonlinear solve converged due to CONVERGED_SNORM_RELATIVE iterations 5
      TSAdapt basic arkimex 0:1bee step  77 accepted t=74.7179    + 1.000e+00 dt=1.000e+00  wlte=0.00114  wltea=   -1 wlter=   -1
78 TS dt 1. time 75.7179
  Nonlinear solve converged due to CONVERGED_SNORM_RELATIVE iterations 8
  Nonlinear solve converged due to CONVERGED_SNORM_RELATIVE iterations 5
  Nonlinear solve converged due to CONVERGED_SNORM_RELATIVE iterations 5
      TSAdapt basic arkimex 0:1bee step  78 accepted t=75.7179    + 1.000e+00 dt=1.000e+00  wlte=0.00121  wltea=   -1 wlter=   -1
79 TS dt 1. time 76.7179
  Nonlinear solve converged due to CONVERGED_SNORM_RELATIVE iterations 8
  Nonlinear solve converged due to CONVERGED_SNORM_RELATIVE iterations 5
  Nonlinear solve converged due to CONVERGED_SNORM_RELATIVE iterations 5
      TSAdapt basic arkimex 0:1bee step  79 accepted t=76.7179    + 1.000e+00 dt=1.000e+00  wlte=0.00131  wltea=   -1 wlter=   -1
80 TS dt 1. time 77.7179
  Nonlinear solve converged due to CONVERGED_SNORM_RELATIVE iterations 8
  Nonlinear solve converged due to CONVERGED_SNORM_RELATIVE iterations 5
  Nonlinear solve converged due to CONVERGED_SNORM_RELATIVE iterations 5
      TSAdapt basic arkimex 0:1bee step  80 accepted t=77.7179    + 1.000e+00 dt=1.000e+00  wlte=0.00148  wltea=   -1 wlter=   -1
81 TS dt 1. time 78.7179
  Nonlinear solve converged due to CONVERGED_SNORM_RELATIVE iterations 8
  Nonlinear solve converged due to CONVERGED_SNORM_RELATIVE iterations 5
  Nonlinear solve converged due to CONVERGED_SNORM_RELATIVE iterations 5
      TSAdapt basic arkimex 0:1bee step  81 accepted t=78.7179    + 1.000e+00 dt=1.000e+00  wlte=0.00181  wltea=   -1 wlter=   -1
82 TS dt 1. time 79.7179
  Nonlinear solve converged due to CONVERGED_SNORM_RELATIVE iterations 8
  Nonlinear solve converged due to CONVERGED_SNORM_RELATIVE iterations 5
  Nonlinear solve converged due to CONVERGED_SNORM_RELATIVE iterations 5
      TSAdapt basic arkimex 0:1bee step  82 accepted t=79.7179    + 1.000e+00 dt=1.000e+00  wlte=0.0018  wltea=   -1 wlter=   -1
83 TS dt 1. time 80.7179
  Nonlinear solve converged due to CONVERGED_SNORM_RELATIVE iterations 8
  Nonlinear solve converged due to CONVERGED_SNORM_RELATIVE iterations 5
  Nonlinear solve converged due to CONVERGED_SNORM_RELATIVE iterations 5
      TSAdapt basic arkimex 0:1bee step  83 accepted t=80.7179    + 1.000e+00 dt=1.000e+00  wlte=0.00144  wltea=   -1 wlter=   -1
84 TS dt 1. time 81.7179
  Nonlinear solve converged due to CONVERGED_SNORM_RELATIVE iterations 8
  Nonlinear solve converged due to CONVERGED_SNORM_RELATIVE iterations 5
  Nonlinear solve converged due to CONVERGED_SNORM_RELATIVE iterations 5
      TSAdapt basic arkimex 0:1bee step  84 accepted t=81.7179    + 1.000e+00 dt=1.000e+00  wlte=0.00127  wltea=   -1 wlter=   -1
85 TS dt 1. time 82.7179
  Nonlinear solve converged due to CONVERGED_SNORM_RELATIVE iterations 8
  Nonlinear solve converged due to CONVERGED_SNORM_RELATIVE iterations 5
  Nonlinear solve converged due to CONVERGED_SNORM_RELATIVE iterations 5
      TSAdapt basic arkimex 0:1bee step  85 accepted t=82.7179    + 1.000e+00 dt=1.000e+00  wlte=0.00122  wltea=   -1 wlter=   -1
86 TS dt 1. time 83.7179
  Nonlinear solve converged due to CONVERGED_SNORM_RELATIVE iterations 8
  Nonlinear solve converged due to CONVERGED_SNORM_RELATIVE iterations 5
  Nonlinear solve converged due to CONVERGED_SNORM_RELATIVE iterations 5
      TSAdapt basic arkimex 0:1bee step  86 accepted t=83.7179    + 1.000e+00 dt=1.000e+00  wlte=0.00128  wltea=   -1 wlter=   -1
87 TS dt 1. time 84.7179
  Nonlinear solve converged due to CONVERGED_SNORM_RELATIVE iterations 8
  Nonlinear solve converged due to CONVERGED_SNORM_RELATIVE iterations 5
  Nonlinear solve converged due to CONVERGED_SNORM_RELATIVE iterations 5
      TSAdapt basic arkimex 0:1bee step  87 accepted t=84.7179    + 1.000e+00 dt=1.000e+00  wlte=0.00129  wltea=   -1 wlter=   -1
88 TS dt 1. time 85.7179
  Nonlinear solve converged due to CONVERGED_SNORM_RELATIVE iterations 8
  Nonlinear solve converged due to CONVERGED_SNORM_RELATIVE iterations 5
  Nonlinear solve converged due to CONVERGED_SNORM_RELATIVE iterations 5
      TSAdapt basic arkimex 0:1bee step  88 accepted t=85.7179    + 1.000e+00 dt=1.000e+00  wlte=0.00114  wltea=   -1 wlter=   -1
89 TS dt 1. time 86.7179
  Nonlinear solve converged due to CONVERGED_SNORM_RELATIVE iterations 8
  Nonlinear solve converged due to CONVERGED_SNORM_RELATIVE iterations 5
  Nonlinear solve converged due to CONVERGED_SNORM_RELATIVE iterations 5
      TSAdapt basic arkimex 0:1bee step  89 accepted t=86.7179    + 1.000e+00 dt=1.000e+00  wlte=0.00104  wltea=   -1 wlter=   -1
90 TS dt 1. time 87.7179
  Nonlinear solve converged due to CONVERGED_SNORM_RELATIVE iterations 8
  Nonlinear solve converged due to CONVERGED_SNORM_RELATIVE iterations 5
  Nonlinear solve converged due to CONVERGED_SNORM_RELATIVE iterations 5
      TSAdapt basic arkimex 0:1bee step  90 accepted t=87.7179    + 1.000e+00 dt=1.000e+00  wlte=0.00098  wltea=   -1 wlter=   -1
91 TS dt 1. time 88.7179
  Nonlinear solve converged due to CONVERGED_SNORM_RELATIVE iterations 8
  Nonlinear solve converged due to CONVERGED_SNORM_RELATIVE iterations 5
  Nonlinear solve converged due to CONVERGED_SNORM_RELATIVE iterations 5
      TSAdapt basic arkimex 0:1bee step  91 accepted t=88.7179    + 1.000e+00 dt=1.000e+00  wlte=0.000933  wltea=   -1 wlter=   -1
92 TS dt 1. time 89.7179
  Nonlinear solve converged due to CONVERGED_SNORM_RELATIVE iterations 8
  Nonlinear solve converged due to CONVERGED_SNORM_RELATIVE iterations 5
  Nonlinear solve converged due to CONVERGED_SNORM_RELATIVE iterations 5
      TSAdapt basic arkimex 0:1bee step  92 accepted t=89.7179    + 1.000e+00 dt=1.000e+00  wlte=0.000896  wltea=   -1 wlter=   -1
93 TS dt 1. time 90.7179
  Nonlinear solve converged due to CONVERGED_SNORM_RELATIVE iterations 8
  Nonlinear solve converged due to CONVERGED_SNORM_RELATIVE iterations 5
  Nonlinear solve converged due to CONVERGED_SNORM_RELATIVE iterations 5
      TSAdapt basic arkimex 0:1bee step  93 accepted t=90.7179    + 1.000e+00 dt=1.000e+00  wlte=0.000864  wltea=   -1 wlter=   -1
94 TS dt 1. time 91.7179
  Nonlinear solve converged due to CONVERGED_SNORM_RELATIVE iterations 8
  Nonlinear solve converged due to CONVERGED_SNORM_RELATIVE iterations 5
  Nonlinear solve converged due to CONVERGED_SNORM_RELATIVE iterations 5
      TSAdapt basic arkimex 0:1bee step  94 accepted t=91.7179    + 1.000e+00 dt=1.000e+00  wlte=0.000836  wltea=   -1 wlter=   -1
95 TS dt 1. time 92.7179
  Nonlinear solve converged due to CONVERGED_SNORM_RELATIVE iterations 8
  Nonlinear solve converged due to CONVERGED_SNORM_RELATIVE iterations 5
  Nonlinear solve converged due to CONVERGED_SNORM_RELATIVE iterations 5
      TSAdapt basic arkimex 0:1bee step  95 accepted t=92.7179    + 1.000e+00 dt=1.000e+00  wlte=0.000812  wltea=   -1 wlter=   -1
96 TS dt 1. time 93.7179
  Nonlinear solve converged due to CONVERGED_SNORM_RELATIVE iterations 8
  Nonlinear solve converged due to CONVERGED_SNORM_RELATIVE iterations 5
  Nonlinear solve converged due to CONVERGED_SNORM_RELATIVE iterations 5
      TSAdapt basic arkimex 0:1bee step  96 accepted t=93.7179    + 1.000e+00 dt=1.000e+00  wlte=0.00079  wltea=   -1 wlter=   -1
97 TS dt 1. time 94.7179
  Nonlinear solve converged due to CONVERGED_SNORM_RELATIVE iterations 8
  Nonlinear solve converged due to CONVERGED_SNORM_RELATIVE iterations 5
  Nonlinear solve converged due to CONVERGED_SNORM_RELATIVE iterations 5
      TSAdapt basic arkimex 0:1bee step  97 accepted t=94.7179    + 1.000e+00 dt=1.000e+00  wlte=0.000769  wltea=   -1 wlter=   -1
98 TS dt 1. time 95.7179
  Nonlinear solve converged due to CONVERGED_SNORM_RELATIVE iterations 8
  Nonlinear solve converged due to CONVERGED_SNORM_RELATIVE iterations 5
  Nonlinear solve converged due to CONVERGED_SNORM_RELATIVE iterations 5
      TSAdapt basic arkimex 0:1bee step  98 accepted t=95.7179    + 1.000e+00 dt=1.000e+00  wlte=0.00075  wltea=   -1 wlter=   -1
99 TS dt 1. time 96.7179
  Nonlinear solve converged due to CONVERGED_SNORM_RELATIVE iterations 8
  Nonlinear solve converged due to CONVERGED_SNORM_RELATIVE iterations 5
  Nonlinear solve converged due to CONVERGED_SNORM_RELATIVE iterations 5
      TSAdapt basic arkimex 0:1bee step  99 accepted t=96.7179    + 1.000e+00 dt=1.000e+00  wlte=0.000732  wltea=   -1 wlter=   -1
100 TS dt 1. time 97.7179
100) species-0: charge density= -1.6023053677414e+01 z-momentum=  1.9175751689404e-18 energy=  2.4016809214718e+04
100) species-1: charge density=  1.6019692146204e+01 z-momentum= -2.6776507936706e-18 energy=  1.2011909333905e+04
100) species-2: charge density=  3.2061689192317e-06 z-momentum= -5.3733513223049e-23 energy=  2.4032208001537e-03
100) species-3: charge density=  4.8092533788475e-06 z-momentum= -1.1591293060155e-22 energy=  2.4022722444599e-03
100) species-4: charge density=  6.4123378384633e-06 z-momentum= -1.7222641326302e-22 energy=  2.3999997559522e-03
100) species-5: charge density=  8.0154222980792e-06 z-momentum= -2.3461375036115e-22 energy=  2.3944893590854e-03
100) species-6: charge density=  9.6185067576950e-06 z-momentum= -2.8665753159026e-22 energy=  2.3837781964847e-03
100) species-7: charge density=  1.1221591217311e-05 z-momentum= -3.1346736621146e-22 energy=  2.3669965046342e-03
100) species-8: charge density=  1.2824675676927e-05 z-momentum= -3.4923970575185e-22 energy=  2.3485316657975e-03
100) species-9: charge density=  1.4427760136543e-05 z-momentum= -3.6092610922493e-22 energy=  2.3545442949201e-03
	100) Total: charge density= -3.2909954934860e-03, momentum= -7.6196240205047e-19, energy=  3.6028737602455e+04 (m_i[0]/m_e = 14683.8, 80 cells)
 ***** [0] ERROR max |x| =  6.467471676530183e+05, my |x| =  6.467471676530176e+05 diff=6.984919e-10
 ***** [4] ERROR max |x| =  6.467471676530183e+05, my |x| =  6.467471676530177e+05 diff=5.820766e-10
 ***** [8] ERROR max |x| =  6.467471676530183e+05, my |x| =  6.467471676530179e+05 diff=3.492460e-10
 ***** [10] ERROR max |x| =  6.467471676530183e+05, my |x| =  6.467471676530178e+05 diff=4.656613e-10
 ***** [13] ERROR max |x| =  6.467471676530183e+05, my |x| =  6.467471676530171e+05 diff=1.164153e-09
 ***** [3] ERROR max |x| =  6.467471676530183e+05, my |x| =  6.467471676530173e+05 diff=9.313226e-10
 ***** [14] ERROR max |x| =  6.467471676530183e+05, my |x| =  6.467471676530167e+05 diff=1.513399e-09
 ***** [5] ERROR max |x| =  6.467471676530183e+05, my |x| =  6.467471676530176e+05 diff=6.984919e-10
 ***** [6] ERROR max |x| =  6.467471676530183e+05, my |x| =  6.467471676530165e+05 diff=1.746230e-09
 ***** [7] ERROR max |x| =  6.467471676530183e+05, my |x| =  6.467471676530179e+05 diff=3.492460e-10
 ***** [9] ERROR max |x| =  6.467471676530183e+05, my |x| =  6.467471676530174e+05 diff=8.149073e-10
 ***** [11] ERROR max |x| =  6.467471676530183e+05, my |x| =  6.467471676530178e+05 diff=4.656613e-10
 ***** [2] ERROR max |x| =  6.467471676530183e+05, my |x| =  6.467471676530176e+05 diff=6.984919e-10
 ***** [1] ERROR max |x| =  6.467471676530183e+05, my |x| =  6.467471676530172e+05 diff=1.047738e-09
 ***** [12] ERROR max |x| =  6.467471676530183e+05, my |x| =  6.467471676530178e+05 diff=4.656613e-10
 ***** [17] ERROR max |x| =  6.467471676530183e+05, my |x| =  6.467471676530177e+05 diff=5.820766e-10
 ***** [16] ERROR max |x| =  6.467471676530183e+05, my |x| =  6.467471676530172e+05 diff=1.047738e-09
************************************************************************************************************************
***             WIDEN YOUR WINDOW TO 120 CHARACTERS.  Use 'enscript -r -fCourier9' to print this document            ***
************************************************************************************************************************

---------------------------------------------- PETSc Performance Summary: ----------------------------------------------

../ex2-kok on a arch-summit-opt-gnu-kokkos-cuda named h37n10 with 18 processors, by adams Tue Jun 15 16:30:47 2021
Using Petsc Development GIT revision: v3.15.0-798-gd1654c4  GIT Date: 2021-06-15 08:51:11 -0400

                         Max       Max/Min     Avg       Total
Time (sec):           4.861e+01     1.000   4.861e+01
Objects:              1.879e+04     1.000   1.879e+04
Flop:                 2.567e+12     1.000   2.567e+12  4.621e+13
Flop/sec:             5.281e+10     1.000   5.281e+10  9.506e+11
MPI Messages:         0.000e+00     0.000   0.000e+00  0.000e+00
MPI Message Lengths:  0.000e+00     0.000   0.000e+00  0.000e+00
MPI Reductions:       2.300e+01     1.000

Flop counting convention: 1 flop = 1 real number operation of type (multiply/divide/add/subtract)
                            e.g., VecAXPY() for real vectors of length N --> 2N flop
                            and VecAXPY() for complex vectors of length N --> 8N flop

Summary of Stages:   ----- Time ------  ----- Flop ------  --- Messages ---  -- Message Lengths --  -- Reductions --
                        Avg     %Total     Avg     %Total    Count   %Total     Avg         %Total    Count   %Total
 0:      Main Stage: 9.8886e-01   2.0%  2.0959e+08   0.0%  0.000e+00   0.0%  0.000e+00        0.0%  2.000e+00   8.7%
 1:          Warmup: 1.1485e+01  23.6%  3.9394e+11   0.9%  0.000e+00   0.0%  0.000e+00        0.0%  1.000e+00   4.3%
 2:           Solve: 3.6132e+01  74.3%  4.5812e+13  99.1%  0.000e+00   0.0%  0.000e+00        0.0%  1.000e+00   4.3%

------------------------------------------------------------------------------------------------------------------------
See the 'Profiling' chapter of the users' manual for details on interpreting output.
Phase summary info:
   Count: number of times phase was executed
   Time and Flop: Max - maximum over all processors
                  Ratio - ratio of maximum to minimum over all processors
   Mess: number of messages sent
   AvgLen: average message length (bytes)
   Reduct: number of global reductions
   Global: entire computation
   Stage: stages of a computation. Set stages with PetscLogStagePush() and PetscLogStagePop().
      %T - percent time in this phase         %F - percent flop in this phase
      %M - percent messages in this phase     %L - percent message lengths in this phase
      %R - percent reductions in this phase
   Total Mflop/s: 10e-6 * (sum of flop over all processors)/(max time over all processors)
   GPU Mflop/s: 10e-6 * (sum of flop on GPU over all processors)/(max GPU time over all processors)
   CpuToGpu Count: total number of CPU to GPU copies per processor
   CpuToGpu Size (Mbytes): 10e-6 * (total size of CPU to GPU copies per processor)
   GpuToCpu Count: total number of GPU to CPU copies per processor
   GpuToCpu Size (Mbytes): 10e-6 * (total size of GPU to CPU copies per processor)
   GPU %F: percent flops on GPU in this event
------------------------------------------------------------------------------------------------------------------------
Event                Count      Time (sec)     Flop                              --- Global ---  --- Stage ----  Total   GPU    - CpuToGpu -   - GpuToCpu - GPU
                   Max Ratio  Max     Ratio   Max  Ratio  Mess   AvgLen  Reduct  %T %F %M %L %R  %T %F %M %L %R Mflop/s Mflop/s Count   Size   Count   Size  %F
---------------------------------------------------------------------------------------------------------------------------------------------------------------

--- Event Stage 0: Main Stage

BuildTwoSided         57 1.0 1.9879e-04 1.1 0.00e+00 0.0 0.0e+00 0.0e+00 0.0e+00  0  0  0  0  0   0  0  0  0  0     0       0      0 0.00e+00    0 0.00e+00  0
DMConvert             28 1.0 9.5988e-03 1.3 0.00e+00 0.0 0.0e+00 0.0e+00 0.0e+00  0  0  0  0  0   1  0  0  0  0     0       0      0 0.00e+00    0 0.00e+00  0
DMCreateMat            2 1.0 7.9392e-02 1.2 0.00e+00 0.0 0.0e+00 0.0e+00 0.0e+00  0  0  0  0  0   8  0  0  0  0     0       0      0 0.00e+00    0 0.00e+00  0
DMPlexInterp         145 1.0 7.8134e-03 1.3 0.00e+00 0.0 0.0e+00 0.0e+00 0.0e+00  0  0  0  0  0   1  0  0  0  0     0       0      0 0.00e+00    0 0.00e+00  0
DMPlexStratify       227 1.0 1.5170e-02 1.3 0.00e+00 0.0 0.0e+00 0.0e+00 0.0e+00  0  0  0  0  0   1  0  0  0  0     0       0      0 0.00e+00    0 0.00e+00  0
DMPlexSymmetrize     227 1.0 8.2407e-04 1.2 0.00e+00 0.0 0.0e+00 0.0e+00 0.0e+00  0  0  0  0  0   0  0  0  0  0     0       0      0 0.00e+00    0 0.00e+00  0
DMPlexPrealloc         2 1.0 7.7511e-02 1.2 0.00e+00 0.0 0.0e+00 0.0e+00 0.0e+00  0  0  0  0  0   7  0  0  0  0     0       0      0 0.00e+00    0 0.00e+00  0
DMPlexJacobianFE       1 1.0 3.9586e-01 1.4 3.67e+06 1.0 0.0e+00 0.0e+00 0.0e+00  1  0  0  0  0  36 32  0  0  0   167       0      0 0.00e+00    0 0.00e+00  0
SFSetGraph            75 1.0 1.0948e-04 1.5 0.00e+00 0.0 0.0e+00 0.0e+00 0.0e+00  0  0  0  0  0   0  0  0  0  0     0       0      0 0.00e+00    0 0.00e+00  0
SFSetUp               57 1.0 8.6940e-04 1.2 0.00e+00 0.0 0.0e+00 0.0e+00 0.0e+00  0  0  0  0  0   0  0  0  0  0     0       0      0 0.00e+00    0 0.00e+00  0
SFBcastBegin         118 1.0 8.0323e-04 1.2 0.00e+00 0.0 0.0e+00 0.0e+00 0.0e+00  0  0  0  0  0   0  0  0  0  0     0       0      0 0.00e+00    0 0.00e+00  0
SFBcastEnd           118 1.0 1.2536e-04 1.3 0.00e+00 0.0 0.0e+00 0.0e+00 0.0e+00  0  0  0  0  0   0  0  0  0  0     0       0      0 0.00e+00    0 0.00e+00  0
SFReduceBegin        117 1.0 7.9228e-04 1.2 0.00e+00 0.0 0.0e+00 0.0e+00 0.0e+00  0  0  0  0  0   0  0  0  0  0     0       0      0 0.00e+00    0 0.00e+00  0
SFReduceEnd          117 1.0 1.2191e-04 1.3 0.00e+00 0.0 0.0e+00 0.0e+00 0.0e+00  0  0  0  0  0   0  0  0  0  0     0       0      0 0.00e+00    0 0.00e+00  0
SFCreateEmbed          4 1.0 1.4402e-04 1.3 0.00e+00 0.0 0.0e+00 0.0e+00 0.0e+00  0  0  0  0  0   0  0  0  0  0     0       0      0 0.00e+00    0 0.00e+00  0
SFSectionSF            4 1.0 6.1765e-05 1.4 0.00e+00 0.0 0.0e+00 0.0e+00 0.0e+00  0  0  0  0  0   0  0  0  0  0     0       0      0 0.00e+00    0 0.00e+00  0
SFRemoteOff            4 1.0 3.0987e-04 1.2 0.00e+00 0.0 0.0e+00 0.0e+00 0.0e+00  0  0  0  0  0   0  0  0  0  0     0       0      0 0.00e+00    0 0.00e+00  0
SFPack               235 1.0 6.5122e-05 1.4 0.00e+00 0.0 0.0e+00 0.0e+00 0.0e+00  0  0  0  0  0   0  0  0  0  0     0       0      0 0.00e+00    0 0.00e+00  0
SFUnpack             235 1.0 5.8431e-05 1.5 0.00e+00 0.0 0.0e+00 0.0e+00 0.0e+00  0  0  0  0  0   0  0  0  0  0     0       0      0 0.00e+00    0 0.00e+00  0
MatMult            23490 1.0 1.1113e-02 1.4 1.63e+05 1.0 0.0e+00 0.0e+00 0.0e+00  0  0  0  0  0   1  1  0  0  0   264       0      0 0.00e+00    0 0.00e+00  0
MatLUFactor          140 1.0 2.5163e-03 1.3 3.82e+05 1.0 0.0e+00 0.0e+00 0.0e+00  0  0  0  0  0   0  3  0  0  0  2735       0      0 0.00e+00    0 0.00e+00  0
MatCopy              560 1.0 1.7867e-03 1.3 0.00e+00 0.0 0.0e+00 0.0e+00 0.0e+00  0  0  0  0  0   0  0  0  0  0     0       0      0 0.00e+00    0 0.00e+00  0
MatConvert           280 1.0 1.0625e-02 1.3 0.00e+00 0.0 0.0e+00 0.0e+00 0.0e+00  0  0  0  0  0   1  0  0  0  0     0       0      0 0.00e+00    0 0.00e+00  0
MatAssemblyBegin    1654 1.0 4.6679e-04 1.3 0.00e+00 0.0 0.0e+00 0.0e+00 0.0e+00  0  0  0  0  0   0  0  0  0  0     0       0      0 0.00e+00    0 0.00e+00  0
MatAssemblyEnd      1654 1.0 4.9351e-03 1.2 0.00e+00 0.0 0.0e+00 0.0e+00 0.0e+00  0  0  0  0  0   0  0  0  0  0     0       0      0 0.00e+00    0 0.00e+00  0
MatGetRowIJ           15 1.0 7.4290e-06 1.5 0.00e+00 0.0 0.0e+00 0.0e+00 0.0e+00  0  0  0  0  0   0  0  0  0  0     0       0      0 0.00e+00    0 0.00e+00  0
MatZeroEntries         1 1.0 3.6738e-03 3.0 0.00e+00 0.0 0.0e+00 0.0e+00 0.0e+00  0  0  0  0  0   0  0  0  0  0     0       0      0 0.00e+00    0 0.00e+00  0
MatMatSolve          560 1.0 1.4019e-02 1.2 4.44e+06 1.0 0.0e+00 0.0e+00 0.0e+00  0  0  0  0  0   1 38  0  0  0  5706       0      0 0.00e+00    0 0.00e+00  0
VecSet               349 1.0 2.0592e-03 1.3 0.00e+00 0.0 0.0e+00 0.0e+00 0.0e+00  0  0  0  0  0   0  0  0  0  0     0       0      0 0.00e+00    0 0.00e+00  0
DualSpaceSetUp        25 1.0 6.2742e-02 1.3 9.20e+02 1.0 0.0e+00 0.0e+00 0.0e+00  0  0  0  0  0   6  0  0  0  0     0       0      0 0.00e+00    0 0.00e+00  0
FESetUp               39 1.0 1.7843e-03 1.3 0.00e+00 0.0 0.0e+00 0.0e+00 0.0e+00  0  0  0  0  0   0  0  0  0  0     0       0      0 0.00e+00    0 0.00e+00  0

--- Event Stage 1: Warmup

BuildTwoSided          1 1.0 9.6370e-06 2.6 0.00e+00 0.0 0.0e+00 0.0e+00 0.0e+00  0  0  0  0  0   0  0  0  0  0     0       0      0 0.00e+00    0 0.00e+00  0
DMConvert              3 1.0 1.0039e-03 1.4 0.00e+00 0.0 0.0e+00 0.0e+00 0.0e+00  0  0  0  0  0   0  0  0  0  0     0       0      0 0.00e+00    0 0.00e+00  0
DMPlexInterp           7 1.0 3.5620e-04 1.5 0.00e+00 0.0 0.0e+00 0.0e+00 0.0e+00  0  0  0  0  0   0  0  0  0  0     0       0      0 0.00e+00    0 0.00e+00  0
DMPlexStratify         8 1.0 4.3552e-04 1.3 0.00e+00 0.0 0.0e+00 0.0e+00 0.0e+00  0  0  0  0  0   0  0  0  0  0     0       0      0 0.00e+00    0 0.00e+00  0
DMPlexSymmetrize       8 1.0 1.8148e-05 1.9 0.00e+00 0.0 0.0e+00 0.0e+00 0.0e+00  0  0  0  0  0   0  0  0  0  0     0       0      0 0.00e+00    0 0.00e+00  0
DMPlexIntegralFEM      60 1.0 1.0048e+00 1.2 1.91e+07 1.0 0.0e+00 0.0e+00 0.0e+00  2  0  0  0  0   8  0  0  0  0   343       0      2 8.44e-02   30 1.69e+00  0
SFSetUp                1 1.0 7.3885e-04 1.3 0.00e+00 0.0 0.0e+00 0.0e+00 0.0e+00  0  0  0  0  0   0  0  0  0  0     0       0      0 0.00e+00    0 0.00e+00  0
SFBcastBegin          61 1.0 7.0664e-03 2.3 0.00e+00 0.0 0.0e+00 0.0e+00 0.0e+00  0  0  0  0  0   0  0  0  0  0     0       0      2 8.44e-02   30 1.69e+00  0
SFBcastEnd            61 1.0 1.7485e-04 2.5 0.00e+00 0.0 0.0e+00 0.0e+00 0.0e+00  0  0  0  0  0   0  0  0  0  0     0       0      0 0.00e+00    0 0.00e+00  0
SFPack                92 1.0 6.9900e-05 2.2 0.00e+00 0.0 0.0e+00 0.0e+00 0.0e+00  0  0  0  0  0   0  0  0  0  0     0       0      0 0.00e+00    0 0.00e+00  0
SFUnpack              92 1.0 8.9221e-04 1.1 0.00e+00 0.0 0.0e+00 0.0e+00 0.0e+00  0  0  0  0  0   0  0  0  0  0     0       0      1 2.81e-02    0 0.00e+00  0
Landau Operator       31 1.0 1.0210e+01 1.4 2.18e+10 1.0 0.0e+00 0.0e+00 0.0e+00 19  1  0  0  0  80100  0  0  0 38421   5243251      0 0.00e+00    0 0.00e+00 100
Landau Jacobian       17 1.0 1.0198e+01 1.4 1.89e+10 1.0 0.0e+00 0.0e+00 0.0e+00 19  1  0  0  0  80 86  0  0  0 33284   5235062      0 0.00e+00    0 0.00e+00 100
Landau Mass           14 1.0 1.3241e-02 1.1 2.94e+09 1.0 0.0e+00 0.0e+00 0.0e+00  0  0  0  0  0   0 13  0  0  0 3991204   5296467      0 0.00e+00    0 0.00e+00 100
 Preamble             29 1.0 2.3144e-04 3.3 0.00e+00 0.0 0.0e+00 0.0e+00 0.0e+00  0  0  0  0  0   0  0  0  0  0     0       0      0 0.00e+00    0 0.00e+00  0
 static IP Data        1 1.0 2.9135e-03 1.7 1.02e+04 1.0 0.0e+00 0.0e+00 0.0e+00  0  0  0  0  0   0  0  0  0  0    63       0      0 0.00e+00    0 0.00e+00  0
 dynamic IP-Jac       30 1.0 6.8295e-03 1.6 1.68e+04 1.0 0.0e+00 0.0e+00 0.0e+00  0  0  0  0  0   0  0  0  0  0    44       0      0 0.00e+00    0 0.00e+00  0
 Kernel-init          29 1.0 6.1917e-04 1.7 0.00e+00 0.0 0.0e+00 0.0e+00 0.0e+00  0  0  0  0  0   0  0  0  0  0     0       0      0 0.00e+00    0 0.00e+00  0
 Jac-f-df (GPU)       15 1.0 4.2678e-02 3.4 1.84e+06 1.0 0.0e+00 0.0e+00 0.0e+00  0  0  0  0  0   0  0  0  0  0   777     786      0 0.00e+00    0 0.00e+00 100
 Kernel (GPU)         29 1.0 4.0865e-02 1.4 2.18e+10 1.0 0.0e+00 0.0e+00 0.0e+00  0  1  0  0  0   0100  0  0  0 9593431   9822598      0 0.00e+00    0 0.00e+00 100
 Copy to CPU           1 1.0 2.6448e-03 1.8 0.00e+00 0.0 0.0e+00 0.0e+00 0.0e+00  0  0  0  0  0   0  0  0  0  0     0       0      0 0.00e+00    0 0.00e+00  0
 Jac-assemble          1 1.0 1.3937e-01 1.5 2.24e+05 1.0 0.0e+00 0.0e+00 0.0e+00  0  0  0  0  0   1  0  0  0  0    29       0      0 0.00e+00    0 0.00e+00  0
 Jac asmbl setup       1 1.0 9.9713e+00 1.4 0.00e+00 0.0 0.0e+00 0.0e+00 0.0e+00 18  0  0  0  0  78  0  0  0  0     0       0      0 0.00e+00    0 0.00e+00  0
MatMult               92 1.0 2.7531e-02 3.7 1.16e+07 1.0 0.0e+00 0.0e+00 0.0e+00  0  0  0  0  0   0  0  0  0  0  7580       0      0 0.00e+00    0 0.00e+00 91
MatMultAdd            17 1.0 3.0457e-03 1.3 5.80e+06 1.0 0.0e+00 0.0e+00 0.0e+00  0  0  0  0  0   0  0  0  0  0 34254       0      0 0.00e+00    0 0.00e+00 100
MatSolve              14 1.0 1.5449e-02 1.2 6.43e+06 1.0 0.0e+00 0.0e+00 0.0e+00  0  0  0  0  0   0  0  0  0  0  7496       0      0 0.00e+00    0 0.00e+00  0
MatLUFactorSym         1 1.0 1.2615e-02 1.2 0.00e+00 0.0 0.0e+00 0.0e+00 0.0e+00  0  0  0  0  0   0  0  0  0  0     0       0      0 0.00e+00    0 0.00e+00  0
MatLUFactorNum        14 1.0 1.9622e-01 1.1 6.00e+07 1.0 0.0e+00 0.0e+00 0.0e+00  0  0  0  0  0   2  0  0  0  0  5501       0      0 0.00e+00    0 0.00e+00  0
MatAssemblyBegin      40 1.0 1.6236e-05 1.5 0.00e+00 0.0 0.0e+00 0.0e+00 0.0e+00  0  0  0  0  0   0  0  0  0  0     0       0      0 0.00e+00    0 0.00e+00  0
MatAssemblyEnd        40 1.0 2.5833e-03 1.3 0.00e+00 0.0 0.0e+00 0.0e+00 0.0e+00  0  0  0  0  0   0  0  0  0  0     0       0      0 0.00e+00    0 0.00e+00  0
MatGetRowIJ            1 1.0 2.0058e-04 1.3 0.00e+00 0.0 0.0e+00 0.0e+00 0.0e+00  0  0  0  0  0   0  0  0  0  0     0       0      0 0.00e+00    0 0.00e+00  0
MatGetOrdering         1 1.0 1.1405e-02 1.2 0.00e+00 0.0 0.0e+00 0.0e+00 0.0e+00  0  0  0  0  0   0  0  0  0  0     0       0      0 0.00e+00    0 0.00e+00  0
MatZeroEntries        15 1.0 4.8489e-03 1.8 0.00e+00 0.0 0.0e+00 0.0e+00 0.0e+00  0  0  0  0  0   0  0  0  0  0     0       0      0 0.00e+00    0 0.00e+00  0
VecDot                14 1.0 2.2529e-03 1.7 1.97e+05 1.0 0.0e+00 0.0e+00 0.0e+00  0  0  0  0  0   0  0  0  0  0  1573    1931      0 0.00e+00    0 0.00e+00 100
VecNorm               32 1.0 4.6449e-03 1.6 4.50e+05 1.0 0.0e+00 0.0e+00 0.0e+00  0  0  0  0  0   0  0  0  0  0  1743    2191      0 0.00e+00    0 0.00e+00 100
VecScale              14 1.0 9.4690e-06 2.1 0.00e+00 0.0 0.0e+00 0.0e+00 0.0e+00  0  0  0  0  0   0  0  0  0  0     0       0      0 0.00e+00    0 0.00e+00  0
VecCopy               36 1.0 4.5325e-03 1.3 0.00e+00 0.0 0.0e+00 0.0e+00 0.0e+00  0  0  0  0  0   0  0  0  0  0     0       0      0 0.00e+00    0 0.00e+00  0
VecSet               107 1.0 4.9975e-03 2.1 0.00e+00 0.0 0.0e+00 0.0e+00 0.0e+00  0  0  0  0  0   0  0  0  0  0     0       0      0 0.00e+00    0 0.00e+00  0
VecAXPBYCZ            20 1.0 2.5996e-03 1.4 7.03e+05 1.0 0.0e+00 0.0e+00 0.0e+00  0  0  0  0  0   0  0  0  0  0  4868    6817      0 0.00e+00    0 0.00e+00 100
VecWAXPY              14 1.0 1.8619e-03 1.5 1.97e+05 1.0 0.0e+00 0.0e+00 0.0e+00  0  0  0  0  0   0  0  0  0  0  1903    2662      0 0.00e+00    0 0.00e+00 100
VecMAXPY               6 1.0 6.4095e-04 1.4 2.25e+05 1.0 0.0e+00 0.0e+00 0.0e+00  0  0  0  0  0   0  0  0  0  0  6318       0      0 0.00e+00    0 0.00e+00 100
VecReduceArith        28 1.0 4.7617e-03 1.5 3.94e+05 1.0 0.0e+00 0.0e+00 0.0e+00  0  0  0  0  0   0  0  0  0  0  1488    1942      0 0.00e+00    0 0.00e+00 100
VecReduceComm         14 1.0 2.1843e-05 2.6 0.00e+00 0.0 0.0e+00 0.0e+00 0.0e+00  0  0  0  0  0   0  0  0  0  0     0       0      0 0.00e+00    0 0.00e+00  0
DualSpaceSetUp         1 1.0 2.9515e-03 1.3 2.40e+01 1.0 0.0e+00 0.0e+00 0.0e+00  0  0  0  0  0   0  0  0  0  0     0       0      0 0.00e+00    0 0.00e+00  0
FESetUp                1 1.0 5.9523e-05 2.2 0.00e+00 0.0 0.0e+00 0.0e+00 0.0e+00  0  0  0  0  0   0  0  0  0  0     0       0      0 0.00e+00    0 0.00e+00  0
TSStep                 1 1.0 1.0460e+01 1.4 2.19e+10 1.0 0.0e+00 0.0e+00 0.0e+00 19  1  0  0  0  82100  0  0  0 37628   4486541      0 0.00e+00    0 0.00e+00 100
TSFunctionEval        20 1.0 1.0198e+01 1.4 1.89e+10 1.0 0.0e+00 0.0e+00 0.0e+00 19  1  0  0  0  80 86  0  0  0 33283   5216207      0 0.00e+00    0 0.00e+00 100
TSJacobianEval        14 1.0 1.3289e-02 1.1 2.94e+09 1.0 0.0e+00 0.0e+00 0.0e+00  0  0  0  0  0   0 13  0  0  0 3976921   5296467      0 0.00e+00    0 0.00e+00 100
KSPSetUp              14 1.0 1.9936e-05 2.6 0.00e+00 0.0 0.0e+00 0.0e+00 0.0e+00  0  0  0  0  0   0  0  0  0  0     0       0      0 0.00e+00    0 0.00e+00  0
KSPSolve              14 1.0 1.8246e-02 1.2 6.43e+06 1.0 0.0e+00 0.0e+00 0.0e+00  0  0  0  0  0   0  0  0  0  0  6347       0      0 0.00e+00    0 0.00e+00  0
SNESSolve              3 1.0 1.0457e+01 1.4 2.19e+10 1.0 0.0e+00 0.0e+00 0.0e+00 19  1  0  0  0  82100  0  0  0 37638   4525754      0 0.00e+00    0 0.00e+00 100
SNESSetUp              1 1.0 1.8868e-04 1.5 0.00e+00 0.0 0.0e+00 0.0e+00 0.0e+00  0  0  0  0  0   0  0  0  0  0     0       0      0 0.00e+00    0 0.00e+00  0
SNESFunctionEval      17 1.0 1.0200e+01 1.4 1.89e+10 1.0 0.0e+00 0.0e+00 0.0e+00 19  1  0  0  0  80 86  0  0  0 33279   5136181      0 0.00e+00    0 0.00e+00 100
SNESJacobianEval      14 1.0 1.3354e-02 1.1 2.94e+09 1.0 0.0e+00 0.0e+00 0.0e+00  0  0  0  0  0   0 13  0  0  0 3957593   5296467      0 0.00e+00    0 0.00e+00 100
SNESLineSearch        14 1.0 5.2507e-02 1.3 1.76e+10 1.0 0.0e+00 0.0e+00 0.0e+00  0  1  0  0  0   0 80  0  0  0 6035181   10099187      0 0.00e+00    0 0.00e+00 100
PCSetUp               14 1.0 2.2033e-01 1.2 6.00e+07 1.0 0.0e+00 0.0e+00 0.0e+00  0  0  0  0  0   2  0  0  0  0  4899       0      0 0.00e+00    0 0.00e+00  0
PCApply               14 1.0 1.5470e-02 1.2 6.43e+06 1.0 0.0e+00 0.0e+00 0.0e+00  0  0  0  0  0   0  0  0  0  0  7486       0      0 0.00e+00    0 0.00e+00  0

--- Event Stage 2: Solve

DMConvert            101 1.0 3.7879e-02 1.2 0.00e+00 0.0 0.0e+00 0.0e+00 0.0e+00  0  0  0  0  0   0  0  0  0  0     0       0      0 0.00e+00    0 0.00e+00  0
DMPlexIntegralFEM      60 1.0 1.0240e+00 1.4 1.91e+07 1.0 0.0e+00 0.0e+00 0.0e+00  2  0  0  0  0   3  0  0  0  0   336       0      0 0.00e+00   30 1.69e+00  0
SFBcastBegin          60 1.0 3.7917e-03 1.4 0.00e+00 0.0 0.0e+00 0.0e+00 0.0e+00  0  0  0  0  0   0  0  0  0  0     0       0      0 0.00e+00   30 1.69e+00  0
SFBcastEnd            60 1.0 1.4506e-04 1.9 0.00e+00 0.0 0.0e+00 0.0e+00 0.0e+00  0  0  0  0  0   0  0  0  0  0     0       0      0 0.00e+00    0 0.00e+00  0
SFPack                90 1.0 5.6474e-05 1.7 0.00e+00 0.0 0.0e+00 0.0e+00 0.0e+00  0  0  0  0  0   0  0  0  0  0     0       0      0 0.00e+00    0 0.00e+00  0
SFUnpack              90 1.0 6.9712e-04 1.4 0.00e+00 0.0 0.0e+00 0.0e+00 0.0e+00  0  0  0  0  0   0  0  0  0  0     0       0      0 0.00e+00    0 0.00e+00  0
Landau Operator     3756 1.0 5.3064e+00 1.1 2.54e+12 1.0 0.0e+00 0.0e+00 0.0e+00 11 99  0  0  0  14100  0  0  0 8602609   13170384      0 0.00e+00    0 0.00e+00 100
Landau Jacobian     2028 1.0 3.7403e+00 1.1 2.17e+12 1.0 0.0e+00 0.0e+00 0.0e+00  7 85  0  0  0  10 85  0  0  0 10460426   17393065      0 0.00e+00    0 0.00e+00 100
Landau Mass         1728 1.0 1.6046e+00 1.1 3.62e+11 1.0 0.0e+00 0.0e+00 0.0e+00  3 14  0  0  0   4 14  0  0  0 4065255   5138135      0 0.00e+00    0 0.00e+00 100
 Preamble           3457 1.0 1.0010e-02 1.2 0.00e+00 0.0 0.0e+00 0.0e+00 0.0e+00  0  0  0  0  0   0  0  0  0  0     0       0      0 0.00e+00    0 0.00e+00  0
 dynamic IP-Jac     3458 1.0 3.3001e-01 1.3 0.00e+00 0.0 0.0e+00 0.0e+00 0.0e+00  1  0  0  0  0   1  0  0  0  0     0       0      0 0.00e+00    0 0.00e+00  0
 Kernel-init        3457 1.0 1.2504e-02 1.2 0.00e+00 0.0 0.0e+00 0.0e+00 0.0e+00  0  0  0  0  0   0  0  0  0  0     0       0      0 0.00e+00    0 0.00e+00  0
 Jac-f-df (GPU)     1729 1.0 3.5363e-01 1.1 2.12e+08 1.0 0.0e+00 0.0e+00 0.0e+00  1  0  0  0  0   1  0  0  0  0 10814   12993      0 0.00e+00    0 0.00e+00 100
 Kernel (GPU)       3457 1.0 3.3100e+00 1.0 2.53e+12 1.0 0.0e+00 0.0e+00 0.0e+00  7 99  0  0  0   9100  0  0  0 13782580   14331831      0 0.00e+00    0 0.00e+00 100
MatMult             3816 1.0 2.6362e-01 1.1 1.28e+09 1.0 0.0e+00 0.0e+00 0.0e+00  1  0  0  0  0   1  0  0  0  0 87505       0      0 0.00e+00    0 0.00e+00 100
MatMultAdd          2028 1.0 1.3617e-01 1.2 6.91e+08 1.0 0.0e+00 0.0e+00 0.0e+00  0  0  0  0  0   0  0  0  0  0 91397       0      0 0.00e+00    0 0.00e+00 100
MatSolve            1728 1.0 1.8882e+00 1.3 7.94e+08 1.0 0.0e+00 0.0e+00 0.0e+00  4  0  0  0  0   5  0  0  0  0  7571       0      0 0.00e+00    0 0.00e+00  0
MatLUFactorNum      1728 1.0 2.5057e+01 1.2 7.40e+09 1.0 0.0e+00 0.0e+00 0.0e+00 48  0  0  0  0  64  0  0  0  0  5317       0      0 0.00e+00    0 0.00e+00  0
MatAssemblyBegin    3457 1.0 1.1722e-03 1.4 0.00e+00 0.0 0.0e+00 0.0e+00 0.0e+00  0  0  0  0  0   0  0  0  0  0     0       0      0 0.00e+00    0 0.00e+00  0
MatAssemblyEnd      3457 1.0 3.6651e-03 1.3 0.00e+00 0.0 0.0e+00 0.0e+00 0.0e+00  0  0  0  0  0   0  0  0  0  0     0       0      0 0.00e+00    0 0.00e+00  0
MatZeroEntries      1729 1.0 3.2502e-01 1.3 0.00e+00 0.0 0.0e+00 0.0e+00 0.0e+00  1  0  0  0  0   1  0  0  0  0     0       0      0 0.00e+00    0 0.00e+00  0
VecDot              1728 1.0 2.6722e-01 1.5 2.43e+07 1.0 0.0e+00 0.0e+00 0.0e+00  0  0  0  0  0   1  0  0  0  0  1636    2099      0 0.00e+00    0 0.00e+00 100
VecNorm             3757 1.0 7.1616e-01 1.9 5.28e+07 1.0 0.0e+00 0.0e+00 0.0e+00  1  0  0  0  0   1  0  0  0  0  1328    1610      0 0.00e+00    0 0.00e+00 100
VecScale            1728 1.0 5.7564e-04 1.2 0.00e+00 0.0 0.0e+00 0.0e+00 0.0e+00  0  0  0  0  0   0  0  0  0  0     0       0      0 0.00e+00    0 0.00e+00  0
VecCopy             4156 1.0 4.8588e-01 1.2 0.00e+00 0.0 0.0e+00 0.0e+00 0.0e+00  1  0  0  0  0   1  0  0  0  0     0       0      0 0.00e+00    0 0.00e+00  0
VecSet              2088 1.0 3.1628e-01 1.2 0.00e+00 0.0 0.0e+00 0.0e+00 0.0e+00  1  0  0  0  0   1  0  0  0  0     0       0      0 0.00e+00    0 0.00e+00  0
VecAXPBYCZ          2328 1.0 2.2473e-01 1.2 8.18e+07 1.0 0.0e+00 0.0e+00 0.0e+00  0  0  0  0  0   1  0  0  0  0  6554    9954      0 0.00e+00    0 0.00e+00 100
VecWAXPY            1728 1.0 2.1904e-01 1.3 2.43e+07 1.0 0.0e+00 0.0e+00 0.0e+00  0  0  0  0  0   1  0  0  0  0  1997    2691      0 0.00e+00    0 0.00e+00 100
VecMAXPY             600 1.0 3.8482e-02 1.3 2.25e+07 1.0 0.0e+00 0.0e+00 0.0e+00  0  0  0  0  0   0  0  0  0  0 10523       0      0 0.00e+00    0 0.00e+00 100
VecReduceArith      3456 1.0 6.9992e-01 1.6 4.86e+07 1.0 0.0e+00 0.0e+00 0.0e+00  1  0  0  0  0   1  0  0  0  0  1250    1501      0 0.00e+00    0 0.00e+00 100
VecReduceComm       1728 1.0 1.2031e-03 1.2 0.00e+00 0.0 0.0e+00 0.0e+00 0.0e+00  0  0  0  0  0   0  0  0  0  0     0       0      0 0.00e+00    0 0.00e+00  0
TSStep               100 1.0 3.5111e+01 1.2 2.55e+12 1.0 0.0e+00 0.0e+00 0.0e+00 67 99  0  0  0  90100  0  0  0 1304742   8470971      0 0.00e+00    0 0.00e+00 100
TSFunctionEval      2328 1.0 3.7869e+00 1.1 2.17e+12 1.0 0.0e+00 0.0e+00 0.0e+00  7 85  0  0  0  10 85  0  0  0 10331861   17157900      0 0.00e+00    0 0.00e+00 100
TSJacobianEval      1728 1.0 1.6074e+00 1.1 3.62e+11 1.0 0.0e+00 0.0e+00 0.0e+00  3 14  0  0  0   4 14  0  0  0 4058127   5138135      0 0.00e+00    0 0.00e+00 100
KSPSetUp            1728 1.0 8.9017e-04 1.2 0.00e+00 0.0 0.0e+00 0.0e+00 0.0e+00  0  0  0  0  0   0  0  0  0  0     0       0      0 0.00e+00    0 0.00e+00  0
KSPSolve            1728 1.0 2.1712e+00 1.2 7.94e+08 1.0 0.0e+00 0.0e+00 0.0e+00  4  0  0  0  0   5  0  0  0  0  6584       0      0 0.00e+00    0 0.00e+00  0
SNESSolve            300 1.0 3.4869e+01 1.2 2.55e+12 1.0 0.0e+00 0.0e+00 0.0e+00 67 99  0  0  0  90100  0  0  0 1313786   8641873      0 0.00e+00    0 0.00e+00 100
SNESFunctionEval    2028 1.0 3.9329e+00 1.1 2.17e+12 1.0 0.0e+00 0.0e+00 0.0e+00  8 85  0  0  0  10 85  0  0  0 9948467   16570893      0 0.00e+00    0 0.00e+00 100
SNESJacobianEval    1728 1.0 1.6106e+00 1.1 3.62e+11 1.0 0.0e+00 0.0e+00 0.0e+00  3 14  0  0  0   4 14  0  0  0 4049972   5138135      0 0.00e+00    0 0.00e+00 100
SNESLineSearch      1728 1.0 5.9817e+00 1.2 2.17e+12 1.0 0.0e+00 0.0e+00 0.0e+00 11 85  0  0  0  15 85  0  0  0 6538885   10143982      0 0.00e+00    0 0.00e+00 100
PCSetUp             1728 1.0 2.5066e+01 1.2 7.40e+09 1.0 0.0e+00 0.0e+00 0.0e+00 48  0  0  0  0  64  0  0  0  0  5315       0      0 0.00e+00    0 0.00e+00  0
PCApply             1728 1.0 1.8902e+00 1.3 7.94e+08 1.0 0.0e+00 0.0e+00 0.0e+00  4  0  0  0  0   5  0  0  0  0  7563       0      0 0.00e+00    0 0.00e+00  0
---------------------------------------------------------------------------------------------------------------------------------------------------------------

Memory usage is given in bytes:

Object Type          Creations   Destructions     Memory  Descendants' Mem.
Reports information only for process 0.

--- Event Stage 0: Main Stage

           Container   251            256       149504     0.
    Distributed Mesh   595            603      3216824     0.
            DM Label  1338           1353       865920     0.
          Quadrature   912            931       558600     0.
           Index Set  4145           4161      3858424     0.
   IS L to G Mapping     1              1        38400     0.
             Section  2779           2799      2015280     0.
    Section Symmetry   310            310       215440     0.
   Star Forest Graph  1251           1262      1372176     0.
     Discrete System  1126           1134      1025136     0.
           Weak Form  1126           1134       707616     0.
    GraphPartitioner   241            244       169824     0.
              Matrix  1028           1035     50131944     0.
              Vector   335            357      2740040     0.
       p4est logging     1              0            0     0.
        Linear Space    39             40        28864     0.
          Dual Space   210            213       201072     0.
            FE Space    39             40        31840     0.
       Field over DM    15             16        11392     0.
             TSAdapt     1              1         1264     0.
                  TS     1              1         2296     0.
                DMTS     1              1          768     0.
                SNES     1              1         1548     0.
              DMSNES     3              3         2088     0.
      SNESLineSearch     1              1         1008     0.
       Krylov Solver     1              1         1600     0.
     DMKSP interface     0              1          664     0.
      Preconditioner     1              1         1016     0.
              Viewer     2              1          848     0.

--- Event Stage 1: Warmup

           Container    10              5         2920     0.
    Distributed Mesh    23             15        77616     0.
            DM Label    62             47        30080     0.
          Quadrature    34             15         9000     0.
           Index Set   154            138       123832     0.
             Section    56             36        25920     0.
   Star Forest Graph    46             35        37800     0.
     Discrete System    37             29        26216     0.
           Weak Form    37             29        18096     0.
    GraphPartitioner     8              5         3480     0.
              Matrix    19             12        38076     0.
              Vector    89             67      1282312     0.
        Linear Space     1              0            0     0.
          Dual Space    10              7         6608     0.
            FE Space     1              0            0     0.
       Field over DM     1              0            0     0.
     DMKSP interface     1              0            0     0.

--- Event Stage 2: Solve

    Distributed Mesh   202            202      1010000     0.
            DM Label   909            909       581760     0.
           Index Set    60             60        53760     0.
   Star Forest Graph   404            404       436320     0.
     Discrete System   404            404       365216     0.
           Weak Form   404            404       252096     0.
              Vector    60             60      1251360     0.
========================================================================================================================
Average time to get PetscTime(): 7.75e-08
Average time for MPI_Barrier(): 2.5046e-06
Average time for zero size MPI_Send(): 3.15261e-05
#PETSc Option Table entries:
-dm_landau_amr_levels_max 13
-dm_landau_amr_post_refine 0
-dm_landau_amr_re_levels 0
-dm_landau_amr_z_refine1 0
-dm_landau_amr_z_refine2 0
-dm_landau_device_type kokkos
-dm_landau_domain_radius 10
-dm_landau_Ez 0
-dm_landau_ion_charges 2,2,3,4,5,6,7,8,9
-dm_landau_ion_masses 8,182,182,182,182,182,182,182,182
-dm_landau_n 1.000003,.5,1e-7,1e-7,1e-7,1e-7,1e-7,1e-7,1e-7,1e-7
-dm_landau_re_radius 10
-dm_landau_thermal_temps 1,1,1,1,1,1,1,1,1,1
-dm_landau_type p4est
-dm_landau_use_mataxpy_mass false
-dm_landau_z_radius1 8
-dm_landau_z_radius2 .1
-dm_mat_type aijkokkos
-dm_preallocate_only
-dm_vec_type kokkos
-ex2_connor_e_field_units
-ex2_impurity_index 1
-ex2_plot_dt 200
-ex2_test_type none
-ksp_type preonly
-log_view
-pc_type lu
-petscspace_degree 3
-snes_converged_reason
-snes_max_it 15
-snes_rtol 1.e-9
-snes_stol 1.e-9
-ts_adapt_clip .5,1.1
-ts_adapt_dt_max 1.
-ts_adapt_monitor
-ts_adapt_scale_solve_failed 0.5
-ts_adapt_time_step_increase_delay 5
-ts_arkimex_type 1bee
-ts_dt .5
-ts_exact_final_time stepover
-ts_max_snes_failures -1
-ts_max_steps 100
-ts_max_time 300
-ts_monitor
-ts_rtol 1e-2
-ts_type arkimex
#End of PETSc Option Table entries
Compiled without FORTRAN kernels
Compiled with full precision matrices (default)
sizeof(short) 2 sizeof(int) 4 sizeof(long) 8 sizeof(void*) 8 sizeof(PetscScalar) 8 sizeof(PetscInt) 4
Configure options: --with-fc=mpifort --with-cc=mpicc --with-cxx=mpiCC --CFLAGS="-fPIC -g -DLANDAU_DIM=2 -DLANDAU_MAX_SPECIES=10 -DPETSC_HAVE_CUDA_ATOMIC -DLANDAU_MAX_Q=4" --CXXFLAGS="-fPIC -g -std=c++11 -DLANDAU_DIM=2 -DLANDAU_MAX_SPECIES=10 -DPETSC_HAVE_CUDA_ATOMIC -DLANDAU_MAX_Q=4" --CUDAFLAGS="-g -Xcompiler -DLANDAU_DIM=2 -DLANDAU_MAX_SPECIES=10 -DPETSC_HAVE_CUDA_ATOMIC -DLANDAU_MAX_Q=4" --FCFLAGS="-fPIC -g" --COPTFLAGS=-O3 --CXXOPTFLAGS=-O3 --with-ssl=0 --with-batch=0 --with-mpiexec="jsrun -g1" --with-cuda=1 --with-cudac=nvcc --with-cuda-gencodearch=70 --download-p4est=1 --download-zlib --with-blaslapack-lib="-L/autofs/nccs-svm1_sw/summit/.swci/1-compute/opt/spack/20180914/linux-rhel7-ppc64le/gcc-6.4.0/netlib-lapack-3.8.0-wcabdyqhdi5rooxbkqa6x5d7hxyxwdkm/lib64 -lblas -llapack" --with-x=0 --with-debugging=0 --download-kokkos --download-kokkos-kernels --with-kokkos-kernels-tpl=0 --with-make-np=8 PETSC_ARCH=arch-summit-opt-gnu-kokkos-cuda --force
-----------------------------------------
Libraries compiled on 2021-06-15 15:48:23 on login5 
Machine characteristics: Linux-4.14.0-115.21.2.el7a.ppc64le-ppc64le-with-redhat-7.6-Maipo
Using PETSc directory: /gpfs/alpine/csc314/scratch/adams/petsc
Using PETSc arch: arch-summit-opt-gnu-kokkos-cuda
-----------------------------------------

Using C compiler: mpicc -fPIC -g -DLANDAU_DIM=2 -DLANDAU_MAX_SPECIES=10 -DPETSC_HAVE_CUDA_ATOMIC -DLANDAU_MAX_Q=4 -O3   
Using Fortran compiler: mpifort  -fPIC -Wall -ffree-line-length-0 -Wno-unused-dummy-argument -g -O     
-----------------------------------------

Using include paths: -I/gpfs/alpine/csc314/scratch/adams/petsc/include -I/gpfs/alpine/csc314/scratch/adams/petsc/arch-summit-opt-gnu-kokkos-cuda/include -I/sw/summit/cuda/10.1.243/include
-----------------------------------------

Using C linker: mpicc
Using Fortran linker: mpifort
Using libraries: -Wl,-rpath,/gpfs/alpine/csc314/scratch/adams/petsc/arch-summit-opt-gnu-kokkos-cuda/lib -L/gpfs/alpine/csc314/scratch/adams/petsc/arch-summit-opt-gnu-kokkos-cuda/lib -lpetsc -Wl,-rpath,/gpfs/alpine/csc314/scratch/adams/petsc/arch-summit-opt-gnu-kokkos-cuda/lib -L/gpfs/alpine/csc314/scratch/adams/petsc/arch-summit-opt-gnu-kokkos-cuda/lib -L/autofs/nccs-svm1_sw/summit/.swci/1-compute/opt/spack/20180914/linux-rhel7-ppc64le/gcc-6.4.0/netlib-lapack-3.8.0-wcabdyqhdi5rooxbkqa6x5d7hxyxwdkm/lib64 -Wl,-rpath,/sw/summit/cuda/10.1.243/lib64 -L/sw/summit/cuda/10.1.243/lib64 -Wl,-rpath,/autofs/nccs-svm1_sw/summit/.swci/1-compute/opt/spack/20180914/linux-rhel7-ppc64le/gcc-6.4.0/spectrum-mpi-10.3.1.2-20200121-awz2q5brde7wgdqqw4ugalrkukeub4eb/lib -L/autofs/nccs-svm1_sw/summit/.swci/1-compute/opt/spack/20180914/linux-rhel7-ppc64le/gcc-6.4.0/spectrum-mpi-10.3.1.2-20200121-awz2q5brde7wgdqqw4ugalrkukeub4eb/lib -Wl,-rpath,/autofs/nccs-svm1_sw/summit/gcc/6.4.0/lib/gcc/powerpc64le-none-linux-gnu/6.4.0 -L/autofs/nccs-svm1_sw/summit/gcc/6.4.0/lib/gcc/powerpc64le-none-linux-gnu/6.4.0 -Wl,-rpath,/autofs/nccs-svm1_sw/summit/gcc/6.4.0/lib/gcc -L/autofs/nccs-svm1_sw/summit/gcc/6.4.0/lib/gcc -Wl,-rpath,/autofs/nccs-svm1_sw/summit/.swci/1-compute/opt/spack/20180914/linux-rhel7-ppc64le/gcc-6.4.0/netlib-lapack-3.8.0-wcabdyqhdi5rooxbkqa6x5d7hxyxwdkm/lib64 -Wl,-rpath,/autofs/nccs-svm1_sw/summit/gcc/6.4.0/lib64 -L/autofs/nccs-svm1_sw/summit/gcc/6.4.0/lib64 -Wl,-rpath,/autofs/nccs-svm1_sw/summit/.swci/1-compute/opt/spack/20180914/linux-rhel7-ppc64le/gcc-6.4.0/hdf5-1.10.4-qj7qoumocmjj2xkwbwotazo22sugeq5o/lib -L/autofs/nccs-svm1_sw/summit/.swci/1-compute/opt/spack/20180914/linux-rhel7-ppc64le/gcc-6.4.0/hdf5-1.10.4-qj7qoumocmjj2xkwbwotazo22sugeq5o/lib -Wl,-rpath,/autofs/nccs-svm1_sw/summit/.swci/1-compute/opt/spack/20180914/linux-rhel7-ppc64le/gcc-4.8.5/darshan-runtime-3.1.7-cnvxicgf5j4ap64qi6v5gxp67hmrjz43/lib -L/autofs/nccs-svm1_sw/summit/.swci/1-compute/opt/spack/20180914/linux-rhel7-ppc64le/gcc-4.8.5/darshan-runtime-3.1.7-cnvxicgf5j4ap64qi6v5gxp67hmrjz43/lib -Wl,-rpath,/autofs/nccs-svm1_sw/summit/gcc/6.4.0/lib -L/autofs/nccs-svm1_sw/summit/gcc/6.4.0/lib -lkokkoskernels -lkokkoscontainers -lkokkoscore -lp4est -lsc -lblas -llapack -lm -lz -lcudart -lcufft -lcublas -lcusparse -lcusolver -lcurand -lstdc++ -ldl -lmpiprofilesupport -lmpi_ibm_usempi -lmpi_ibm_mpifh -lmpi_ibm -lgfortran -lm -lgfortran -lm -lgcc_s -lpthread -lstdc++ -ldl
-----------------------------------------

